simulation/qsim/Digital_Clock.msim.vcd
$comment
	File created using the following command:
		vcd file Digital_Clock.msim.vcd -direction
$end
$date
	Wed Aug 24 14:31:18 2022
$end
$version
	ModelSim Version 10.1d
$end
$timescale
	1ps
$end
$scope module TOP_vlg_vec_tst $end
$var reg 1 ! clk $end
$var reg 1 " clock_en $end
$var reg 4 # clock_hour_ge [3:0] $end
$var reg 4 $ clock_hour_shi [3:0] $end
$var reg 4 % clock_min_ge [3:0] $end
$var reg 4 & clock_min_shi [3:0] $end
$var reg 1 ' rst_n $end
$var reg 4 ( set_hour_ge [3:0] $end
$var reg 4 ) set_hour_shi [3:0] $end
$var reg 4 * set_min_ge [3:0] $end
$var reg 4 + set_min_shi [3:0] $end
$var reg 4 , set_sec_ge [3:0] $end
$var reg 4 - set_sec_shi [3:0] $end
$var reg 1 . set_time_finish $end
$var wire 1 / clock_out $end
$var wire 1 0 data_out [7] $end
$var wire 1 1 data_out [6] $end
$var wire 1 2 data_out [5] $end
$var wire 1 3 data_out [4] $end
$var wire 1 4 data_out [3] $end
$var wire 1 5 data_out [2] $end
$var wire 1 6 data_out [1] $end
$var wire 1 7 data_out [0] $end
$var wire 1 8 hour_ge_r [3] $end
$var wire 1 9 hour_ge_r [2] $end
$var wire 1 : hour_ge_r [1] $end
$var wire 1 ; hour_ge_r [0] $end
$var wire 1 < hour_shi_r [3] $end
$var wire 1 = hour_shi_r [2] $end
$var wire 1 > hour_shi_r [1] $end
$var wire 1 ? hour_shi_r [0] $end
$var wire 1 @ min_ge_r [3] $end
$var wire 1 A min_ge_r [2] $end
$var wire 1 B min_ge_r [1] $end
$var wire 1 C min_ge_r [0] $end
$var wire 1 D min_shi_r [3] $end
$var wire 1 E min_shi_r [2] $end
$var wire 1 F min_shi_r [1] $end
$var wire 1 G min_shi_r [0] $end
$var wire 1 H out_hour_ge_seg [6] $end
$var wire 1 I out_hour_ge_seg [5] $end
$var wire 1 J out_hour_ge_seg [4] $end
$var wire 1 K out_hour_ge_seg [3] $end
$var wire 1 L out_hour_ge_seg [2] $end
$var wire 1 M out_hour_ge_seg [1] $end
$var wire 1 N out_hour_ge_seg [0] $end
$var wire 1 O out_hour_shi_seg [6] $end
$var wire 1 P out_hour_shi_seg [5] $end
$var wire 1 Q out_hour_shi_seg [4] $end
$var wire 1 R out_hour_shi_seg [3] $end
$var wire 1 S out_hour_shi_seg [2] $end
$var wire 1 T out_hour_shi_seg [1] $end
$var wire 1 U out_hour_shi_seg [0] $end
$var wire 1 V out_min_ge_seg [6] $end
$var wire 1 W out_min_ge_seg [5] $end
$var wire 1 X out_min_ge_seg [4] $end
$var wire 1 Y out_min_ge_seg [3] $end
$var wire 1 Z out_min_ge_seg [2] $end
$var wire 1 [ out_min_ge_seg [1] $end
$var wire 1 \ out_min_ge_seg [0] $end
$var wire 1 ] out_min_shi_seg [6] $end
$var wire 1 ^ out_min_shi_seg [5] $end
$var wire 1 _ out_min_shi_seg [4] $end
$var wire 1 ` out_min_shi_seg [3] $end
$var wire 1 a out_min_shi_seg [2] $end
$var wire 1 b out_min_shi_seg [1] $end
$var wire 1 c out_min_shi_seg [0] $end
$var wire 1 d out_sec_ge_seg [6] $end
$var wire 1 e out_sec_ge_seg [5] $end
$var wire 1 f out_sec_ge_seg [4] $end
$var wire 1 g out_sec_ge_seg [3] $end
$var wire 1 h out_sec_ge_seg [2] $end
$var wire 1 i out_sec_ge_seg [1] $end
$var wire 1 j out_sec_ge_seg [0] $end
$var wire 1 k out_sec_shi_seg [6] $end
$var wire 1 l out_sec_shi_seg [5] $end
$var wire 1 m out_sec_shi_seg [4] $end
$var wire 1 n out_sec_shi_seg [3] $end
$var wire 1 o out_sec_shi_seg [2] $end
$var wire 1 p out_sec_shi_seg [1] $end
$var wire 1 q out_sec_shi_seg [0] $end
$var wire 1 r sec_ge_r [3] $end
$var wire 1 s sec_ge_r [2] $end
$var wire 1 t sec_ge_r [1] $end
$var wire 1 u sec_ge_r [0] $end
$var wire 1 v sec_shi_r [3] $end
$var wire 1 w sec_shi_r [2] $end
$var wire 1 x sec_shi_r [1] $end
$var wire 1 y sec_shi_r [0] $end
$var wire 1 z select [7] $end
$var wire 1 { select [6] $end
$var wire 1 | select [5] $end
$var wire 1 } select [4] $end
$var wire 1 ~ select [3] $end
$var wire 1 !! select [2] $end
$var wire 1 "! select [1] $end
$var wire 1 #! select [0] $end
$var wire 1 $! sampler $end
$scope module i1 $end
$var wire 1 %! gnd $end
$var wire 1 &! vcc $end
$var wire 1 '! unknown $end
$var tri1 1 (! devclrn $end
$var tri1 1 )! devpor $end
$var tri1 1 *! devoe $end
$var wire 1 +! time_control_inst|Add0~12_combout $end
$var wire 1 ,! time_control_inst|Add0~22_combout $end
$var wire 1 -! time_control_inst|Add0~26_combout $end
$var wire 1 .! time_control_inst|clock_out~2_combout $end
$var wire 1 /! time_control_inst|clock_out~5_combout $end
$var wire 1 0! time_control_inst|clock_out~6_combout $end
$var wire 1 1! time_control_inst|clock_out~7_combout $end
$var wire 1 2! time_control_inst|clock_out~8_combout $end
$var wire 1 3! time_control_inst|Add1~0_combout $end
$var wire 1 4! time_control_inst|Add1~1_combout $end
$var wire 1 5! time_control_inst|min_ge~2_combout $end
$var wire 1 6! time_control_inst|Add3~1_combout $end
$var wire 1 7! time_control_inst|hour_ge~2_combout $end
$var wire 1 8! time_control_inst|Add5~0_combout $end
$var wire 1 9! time_control_inst|Equal0~1_combout $end
$var wire 1 :! set_sec_shi[3]~input_o $end
$var wire 1 ;! set_min_shi[3]~input_o $end
$var wire 1 <! set_hour_shi[2]~input_o $end
$var wire 1 =! set_hour_shi[3]~input_o $end
$var wire 1 >! clock_min_ge[2]~input_o $end
$var wire 1 ?! clock_min_shi[1]~input_o $end
$var wire 1 @! clock_min_shi[0]~input_o $end
$var wire 1 A! clock_min_shi[2]~input_o $end
$var wire 1 B! clock_hour_shi[1]~input_o $end
$var wire 1 C! clock_hour_ge[1]~input_o $end
$var wire 1 D! clock_hour_ge[0]~input_o $end
$var wire 1 E! clock_hour_ge[3]~input_o $end
$var wire 1 F! clock_hour_ge[2]~input_o $end
$var wire 1 G! clock_hour_shi[0]~input_o $end
$var wire 1 H! clock_hour_shi[2]~input_o $end
$var wire 1 I! clock_hour_shi[3]~input_o $end
$var wire 1 J! set_min_ge[1]~input_o $end
$var wire 1 K! set_hour_ge[1]~input_o $end
$var wire 1 L! set_hour_ge[3]~input_o $end
$var wire 1 M! clock_out~output_o $end
$var wire 1 N! sec_ge_r[0]~output_o $end
$var wire 1 O! sec_ge_r[1]~output_o $end
$var wire 1 P! sec_ge_r[2]~output_o $end
$var wire 1 Q! sec_ge_r[3]~output_o $end
$var wire 1 R! sec_shi_r[0]~output_o $end
$var wire 1 S! sec_shi_r[1]~output_o $end
$var wire 1 T! sec_shi_r[2]~output_o $end
$var wire 1 U! sec_shi_r[3]~output_o $end
$var wire 1 V! min_ge_r[0]~output_o $end
$var wire 1 W! min_ge_r[1]~output_o $end
$var wire 1 X! min_ge_r[2]~output_o $end
$var wire 1 Y! min_ge_r[3]~output_o $end
$var wire 1 Z! min_shi_r[0]~output_o $end
$var wire 1 [! min_shi_r[1]~output_o $end
$var wire 1 \! min_shi_r[2]~output_o $end
$var wire 1 ]! min_shi_r[3]~output_o $end
$var wire 1 ^! hour_ge_r[0]~output_o $end
$var wire 1 _! hour_ge_r[1]~output_o $end
$var wire 1 `! hour_ge_r[2]~output_o $end
$var wire 1 a! hour_ge_r[3]~output_o $end
$var wire 1 b! hour_shi_r[0]~output_o $end
$var wire 1 c! hour_shi_r[1]~output_o $end
$var wire 1 d! hour_shi_r[2]~output_o $end
$var wire 1 e! hour_shi_r[3]~output_o $end
$var wire 1 f! data_out[0]~output_o $end
$var wire 1 g! data_out[1]~output_o $end
$var wire 1 h! data_out[2]~output_o $end
$var wire 1 i! data_out[3]~output_o $end
$var wire 1 j! data_out[4]~output_o $end
$var wire 1 k! data_out[5]~output_o $end
$var wire 1 l! data_out[6]~output_o $end
$var wire 1 m! data_out[7]~output_o $end
$var wire 1 n! select[0]~output_o $end
$var wire 1 o! select[1]~output_o $end
$var wire 1 p! select[2]~output_o $end
$var wire 1 q! select[3]~output_o $end
$var wire 1 r! select[4]~output_o $end
$var wire 1 s! select[5]~output_o $end
$var wire 1 t! select[6]~output_o $end
$var wire 1 u! select[7]~output_o $end
$var wire 1 v! out_sec_ge_seg[0]~output_o $end
$var wire 1 w! out_sec_ge_seg[1]~output_o $end
$var wire 1 x! out_sec_ge_seg[2]~output_o $end
$var wire 1 y! out_sec_ge_seg[3]~output_o $end
$var wire 1 z! out_sec_ge_seg[4]~output_o $end
$var wire 1 {! out_sec_ge_seg[5]~output_o $end
$var wire 1 |! out_sec_ge_seg[6]~output_o $end
$var wire 1 }! out_sec_shi_seg[0]~output_o $end
$var wire 1 ~! out_sec_shi_seg[1]~output_o $end
$var wire 1 !" out_sec_shi_seg[2]~output_o $end
$var wire 1 "" out_sec_shi_seg[3]~output_o $end
$var wire 1 #" out_sec_shi_seg[4]~output_o $end
$var wire 1 $" out_sec_shi_seg[5]~output_o $end
$var wire 1 %" out_sec_shi_seg[6]~output_o $end
$var wire 1 &" out_min_ge_seg[0]~output_o $end
$var wire 1 '" out_min_ge_seg[1]~output_o $end
$var wire 1 (" out_min_ge_seg[2]~output_o $end
$var wire 1 )" out_min_ge_seg[3]~output_o $end
$var wire 1 *" out_min_ge_seg[4]~output_o $end
$var wire 1 +" out_min_ge_seg[5]~output_o $end
$var wire 1 ," out_min_ge_seg[6]~output_o $end
$var wire 1 -" out_min_shi_seg[0]~output_o $end
$var wire 1 ." out_min_shi_seg[1]~output_o $end
$var wire 1 /" out_min_shi_seg[2]~output_o $end
$var wire 1 0" out_min_shi_seg[3]~output_o $end
$var wire 1 1" out_min_shi_seg[4]~output_o $end
$var wire 1 2" out_min_shi_seg[5]~output_o $end
$var wire 1 3" out_min_shi_seg[6]~output_o $end
$var wire 1 4" out_hour_ge_seg[0]~output_o $end
$var wire 1 5" out_hour_ge_seg[1]~output_o $end
$var wire 1 6" out_hour_ge_seg[2]~output_o $end
$var wire 1 7" out_hour_ge_seg[3]~output_o $end
$var wire 1 8" out_hour_ge_seg[4]~output_o $end
$var wire 1 9" out_hour_ge_seg[5]~output_o $end
$var wire 1 :" out_hour_ge_seg[6]~output_o $end
$var wire 1 ;" out_hour_shi_seg[0]~output_o $end
$var wire 1 <" out_hour_shi_seg[1]~output_o $end
$var wire 1 =" out_hour_shi_seg[2]~output_o $end
$var wire 1 >" out_hour_shi_seg[3]~output_o $end
$var wire 1 ?" out_hour_shi_seg[4]~output_o $end
$var wire 1 @" out_hour_shi_seg[5]~output_o $end
$var wire 1 A" out_hour_shi_seg[6]~output_o $end
$var wire 1 B" clk~input_o $end
$var wire 1 C" clk~inputclkctrl_outclk $end
$var wire 1 D" clock_en~input_o $end
$var wire 1 E" clock_min_ge[3]~input_o $end
$var wire 1 F" set_min_ge[3]~input_o $end
$var wire 1 G" set_time_finish~input_o $end
$var wire 1 H" set_min_ge[0]~input_o $end
$var wire 1 I" time_control_inst|min_ge~0_combout $end
$var wire 1 J" rst_n~input_o $end
$var wire 1 K" rst_n~inputclkctrl_outclk $end
$var wire 1 L" time_control_inst|sec_shi[0]~_wirecell_combout $end
$var wire 1 M" set_sec_shi[0]~input_o $end
$var wire 1 N" set_sec_ge[2]~input_o $end
$var wire 1 O" set_sec_ge[3]~input_o $end
$var wire 1 P" time_control_inst|sec_ge~6_combout $end
$var wire 1 Q" time_control_inst|Add0~0_combout $end
$var wire 1 R" time_control_inst|cnt_1ms~1_combout $end
$var wire 1 S" time_control_inst|Add0~1 $end
$var wire 1 T" time_control_inst|Add0~2_combout $end
$var wire 1 U" time_control_inst|Add0~3 $end
$var wire 1 V" time_control_inst|Add0~5 $end
$var wire 1 W" time_control_inst|Add0~7 $end
$var wire 1 X" time_control_inst|Add0~8_combout $end
$var wire 1 Y" time_control_inst|Add0~9 $end
$var wire 1 Z" time_control_inst|Add0~11 $end
$var wire 1 [" time_control_inst|Add0~13 $end
$var wire 1 \" time_control_inst|Add0~14_combout $end
$var wire 1 ]" time_control_inst|Add0~15 $end
$var wire 1 ^" time_control_inst|Add0~16_combout $end
$var wire 1 _" time_control_inst|Add0~17 $end
$var wire 1 `" time_control_inst|Add0~18_combout $end
$var wire 1 a" time_control_inst|Add0~19 $end
$var wire 1 b" time_control_inst|Add0~20_combout $end
$var wire 1 c" time_control_inst|Add0~21 $end
$var wire 1 d" time_control_inst|Add0~23 $end
$var wire 1 e" time_control_inst|Add0~24_combout $end
$var wire 1 f" time_control_inst|Add0~25 $end
$var wire 1 g" time_control_inst|Add0~27 $end
$var wire 1 h" time_control_inst|Add0~28_combout $end
$var wire 1 i" time_control_inst|Add0~29 $end
$var wire 1 j" time_control_inst|Add0~30_combout $end
$var wire 1 k" time_control_inst|Equal0~0_combout $end
$var wire 1 l" time_control_inst|Add0~4_combout $end
$var wire 1 m" time_control_inst|cnt_1ms~0_combout $end
$var wire 1 n" time_control_inst|Add0~6_combout $end
$var wire 1 o" time_control_inst|Equal0~3_combout $end
$var wire 1 p" time_control_inst|Add0~10_combout $end
$var wire 1 q" time_control_inst|Equal0~2_combout $end
$var wire 1 r" time_control_inst|Equal0~4_combout $end
$var wire 1 s" time_control_inst|flag_1ms~q $end
$var wire 1 t" time_control_inst|sec_ge[0]~1_combout $end
$var wire 1 u" set_sec_ge[0]~input_o $end
$var wire 1 v" time_control_inst|sec_ge~0_combout $end
$var wire 1 w" time_control_inst|sec_ge~3_combout $end
$var wire 1 x" time_control_inst|sec_ge~5_combout $end
$var wire 1 y" set_sec_ge[1]~input_o $end
$var wire 1 z" time_control_inst|sec_ge~2_combout $end
$var wire 1 {" time_control_inst|sec_ge~4_combout $end
$var wire 1 |" time_control_inst|Equal1~0_combout $end
$var wire 1 }" time_control_inst|flag_sec_ge~0_combout $end
$var wire 1 ~" time_control_inst|flag_sec_ge~q $end
$var wire 1 !# time_control_inst|sec_shi[0]~0_combout $end
$var wire 1 "# time_control_inst|sec_shi~2_combout $end
$var wire 1 ## set_sec_shi[2]~input_o $end
$var wire 1 $# time_control_inst|flag_sec_shi~0_combout $end
$var wire 1 %# time_control_inst|flag_sec_shi~q $end
$var wire 1 &# time_control_inst|min_ge[0]~1_combout $end
$var wire 1 '# time_control_inst|min_ge~4_combout $end
$var wire 1 (# time_control_inst|Add3~0_combout $end
$var wire 1 )# set_min_ge[2]~input_o $end
$var wire 1 *# time_control_inst|min_ge~5_combout $end
$var wire 1 +# time_control_inst|Equal3~0_combout $end
$var wire 1 ,# time_control_inst|min_ge~3_combout $end
$var wire 1 -# time_control_inst|min_ge~6_combout $end
$var wire 1 .# time_control_inst|clock_out~1_combout $end
$var wire 1 /# clock_min_ge[1]~input_o $end
$var wire 1 0# clock_min_ge[0]~input_o $end
$var wire 1 1# time_control_inst|clock_out~0_combout $end
$var wire 1 2# time_control_inst|min_shi[0]~_wirecell_combout $end
$var wire 1 3# set_min_shi[0]~input_o $end
$var wire 1 4# time_control_inst|flag_min_ge~0_combout $end
$var wire 1 5# time_control_inst|flag_min_ge~q $end
$var wire 1 6# time_control_inst|min_shi[2]~0_combout $end
$var wire 1 7# time_control_inst|min_shi~2_combout $end
$var wire 1 8# set_min_shi[2]~input_o $end
$var wire 1 9# clock_min_shi[3]~input_o $end
$var wire 1 :# set_hour_ge[0]~input_o $end
$var wire 1 ;# time_control_inst|hour_ge~0_combout $end
$var wire 1 <# time_control_inst|min_shi~1_combout $end
$var wire 1 =# set_min_shi[1]~input_o $end
$var wire 1 ># time_control_inst|flag_min_shi~0_combout $end
$var wire 1 ?# time_control_inst|flag_min_shi~q $end
$var wire 1 @# time_control_inst|hour_ge[3]~1_combout $end
$var wire 1 A# time_control_inst|clock_out~3_combout $end
$var wire 1 B# time_control_inst|clock_out~4_combout $end
$var wire 1 C# time_control_inst|clock_out~9_combout $end
$var wire 1 D# time_control_inst|clock_out~q $end
$var wire 1 E# time_control_inst|sec_shi~1_combout $end
$var wire 1 F# set_sec_shi[1]~input_o $end
$var wire 1 G# set_hour_ge[2]~input_o $end
$var wire 1 H# time_control_inst|hour_ge~6_combout $end
$var wire 1 I# time_control_inst|Add5~1_combout $end
$var wire 1 J# time_control_inst|hour_ge~7_combout $end
$var wire 1 K# display_ctrl_inst|Mux29~0_combout $end
$var wire 1 L# time_control_inst|hour_shi[1]~feeder_combout $end
$var wire 1 M# set_hour_shi[1]~input_o $end
$var wire 1 N# time_control_inst|flag_hour_ge~0_combout $end
$var wire 1 O# time_control_inst|flag_hour_ge~q $end
$var wire 1 P# time_control_inst|hour_shi[1]~1_combout $end
$var wire 1 Q# time_control_inst|hour_shi~0_combout $end
$var wire 1 R# time_control_inst|hour_shi~0_wirecell_combout $end
$var wire 1 S# set_hour_shi[0]~input_o $end
$var wire 1 T# time_control_inst|hour_ge[3]~3_combout $end
$var wire 1 U# time_control_inst|hour_ge~4_combout $end
$var wire 1 V# time_control_inst|hour_ge~5_combout $end
$var wire 1 W# display_ctrl_inst|Mux6~0_combout $end
$var wire 1 X# display_ctrl_inst|out_sec_ge[6]~0_combout $end
$var wire 1 Y# display_ctrl_inst|Mux5~0_combout $end
$var wire 1 Z# display_ctrl_inst|Mux4~0_combout $end
$var wire 1 [# display_ctrl_inst|Mux3~0_combout $end
$var wire 1 \# display_ctrl_inst|Mux2~0_combout $end
$var wire 1 ]# display_ctrl_inst|Mux1~0_combout $end
$var wire 1 ^# display_ctrl_inst|Mux0~0_combout $end
$var wire 1 _# display_ctrl_inst|Mux13~0_combout $end
$var wire 1 `# display_ctrl_inst|out_min_ge[2]~0_combout $end
$var wire 1 a# display_ctrl_inst|Mux12~0_combout $end
$var wire 1 b# display_ctrl_inst|Mux11~0_combout $end
$var wire 1 c# display_ctrl_inst|Mux10~0_combout $end
$var wire 1 d# display_ctrl_inst|Mux9~0_combout $end
$var wire 1 e# display_ctrl_inst|Mux8~0_combout $end
$var wire 1 f# display_ctrl_inst|Mux7~0_combout $end
$var wire 1 g# display_ctrl_inst|Mux20~0_combout $end
$var wire 1 h# display_ctrl_inst|Mux19~0_combout $end
$var wire 1 i# display_ctrl_inst|Mux18~0_combout $end
$var wire 1 j# display_ctrl_inst|Mux17~0_combout $end
$var wire 1 k# display_ctrl_inst|Mux16~0_combout $end
$var wire 1 l# display_ctrl_inst|Mux15~0_combout $end
$var wire 1 m# display_ctrl_inst|Mux14~0_combout $end
$var wire 1 n# display_ctrl_inst|Mux27~0_combout $end
$var wire 1 o# display_ctrl_inst|out_hour_ge[0]~0_combout $end
$var wire 1 p# display_ctrl_inst|Mux26~0_combout $end
$var wire 1 q# display_ctrl_inst|Mux25~0_combout $end
$var wire 1 r# display_ctrl_inst|Mux24~0_combout $end
$var wire 1 s# display_ctrl_inst|Mux23~0_combout $end
$var wire 1 t# display_ctrl_inst|Mux22~0_combout $end
$var wire 1 u# display_ctrl_inst|Mux21~0_combout $end
$var wire 1 v# display_ctrl_inst|out_hour_shi[0]~feeder_combout $end
$var wire 1 w# display_ctrl_inst|Mux29~1_combout $end
$var wire 1 x# display_ctrl_inst|out_hour_shi[4]~feeder_combout $end
$var wire 1 y# display_ctrl_inst|out_hour_shi[5]~feeder_combout $end
$var wire 1 z# display_ctrl_inst|out_hour_shi[6]~0_combout $end
$var wire 1 {# time_control_inst|sec_shi [2] $end
$var wire 1 |# time_control_inst|sec_shi [1] $end
$var wire 1 }# time_control_inst|sec_shi [0] $end
$var wire 1 ~# time_control_inst|sec_ge [3] $end
$var wire 1 !$ time_control_inst|sec_ge [2] $end
$var wire 1 "$ time_control_inst|sec_ge [1] $end
$var wire 1 #$ time_control_inst|sec_ge [0] $end
$var wire 1 $$ time_control_inst|min_shi [2] $end
$var wire 1 %$ time_control_inst|min_shi [1] $end
$var wire 1 &$ time_control_inst|min_shi [0] $end
$var wire 1 '$ time_control_inst|min_ge [3] $end
$var wire 1 ($ time_control_inst|min_ge [2] $end
$var wire 1 )$ time_control_inst|min_ge [1] $end
$var wire 1 *$ time_control_inst|min_ge [0] $end
$var wire 1 +$ time_control_inst|hour_shi [1] $end
$var wire 1 ,$ time_control_inst|hour_shi [0] $end
$var wire 1 -$ time_control_inst|hour_ge [3] $end
$var wire 1 .$ time_control_inst|hour_ge [2] $end
$var wire 1 /$ time_control_inst|hour_ge [1] $end
$var wire 1 0$ time_control_inst|hour_ge [0] $end
$var wire 1 1$ time_control_inst|cnt_1ms [15] $end
$var wire 1 2$ time_control_inst|cnt_1ms [14] $end
$var wire 1 3$ time_control_inst|cnt_1ms [13] $end
$var wire 1 4$ time_control_inst|cnt_1ms [12] $end
$var wire 1 5$ time_control_inst|cnt_1ms [11] $end
$var wire 1 6$ time_control_inst|cnt_1ms [10] $end
$var wire 1 7$ time_control_inst|cnt_1ms [9] $end
$var wire 1 8$ time_control_inst|cnt_1ms [8] $end
$var wire 1 9$ time_control_inst|cnt_1ms [7] $end
$var wire 1 :$ time_control_inst|cnt_1ms [6] $end
$var wire 1 ;$ time_control_inst|cnt_1ms [5] $end
$var wire 1 <$ time_control_inst|cnt_1ms [4] $end
$var wire 1 =$ time_control_inst|cnt_1ms [3] $end
$var wire 1 >$ time_control_inst|cnt_1ms [2] $end
$var wire 1 ?$ time_control_inst|cnt_1ms [1] $end
$var wire 1 @$ time_control_inst|cnt_1ms [0] $end
$var wire 1 A$ display_ctrl_inst|out_sec_ge [6] $end
$var wire 1 B$ display_ctrl_inst|out_sec_ge [5] $end
$var wire 1 C$ display_ctrl_inst|out_sec_ge [4] $end
$var wire 1 D$ display_ctrl_inst|out_sec_ge [3] $end
$var wire 1 E$ display_ctrl_inst|out_sec_ge [2] $end
$var wire 1 F$ display_ctrl_inst|out_sec_ge [1] $end
$var wire 1 G$ display_ctrl_inst|out_sec_ge [0] $end
$var wire 1 H$ display_ctrl_inst|out_min_shi [6] $end
$var wire 1 I$ display_ctrl_inst|out_min_shi [5] $end
$var wire 1 J$ display_ctrl_inst|out_min_shi [4] $end
$var wire 1 K$ display_ctrl_inst|out_min_shi [3] $end
$var wire 1 L$ display_ctrl_inst|out_min_shi [2] $end
$var wire 1 M$ display_ctrl_inst|out_min_shi [1] $end
$var wire 1 N$ display_ctrl_inst|out_min_shi [0] $end
$var wire 1 O$ display_ctrl_inst|out_min_ge [6] $end
$var wire 1 P$ display_ctrl_inst|out_min_ge [5] $end
$var wire 1 Q$ display_ctrl_inst|out_min_ge [4] $end
$var wire 1 R$ display_ctrl_inst|out_min_ge [3] $end
$var wire 1 S$ display_ctrl_inst|out_min_ge [2] $end
$var wire 1 T$ display_ctrl_inst|out_min_ge [1] $end
$var wire 1 U$ display_ctrl_inst|out_min_ge [0] $end
$var wire 1 V$ display_ctrl_inst|out_hour_shi [6] $end
$var wire 1 W$ display_ctrl_inst|out_hour_shi [5] $end
$var wire 1 X$ display_ctrl_inst|out_hour_shi [4] $end
$var wire 1 Y$ display_ctrl_inst|out_hour_shi [3] $end
$var wire 1 Z$ display_ctrl_inst|out_hour_shi [2] $end
$var wire 1 [$ display_ctrl_inst|out_hour_shi [1] $end
$var wire 1 \$ display_ctrl_inst|out_hour_shi [0] $end
$var wire 1 ]$ display_ctrl_inst|out_hour_ge [6] $end
$var wire 1 ^$ display_ctrl_inst|out_hour_ge [5] $end
$var wire 1 _$ display_ctrl_inst|out_hour_ge [4] $end
$var wire 1 `$ display_ctrl_inst|out_hour_ge [3] $end
$var wire 1 a$ display_ctrl_inst|out_hour_ge [2] $end
$var wire 1 b$ display_ctrl_inst|out_hour_ge [1] $end
$var wire 1 c$ display_ctrl_inst|out_hour_ge [0] $end
$upscope $end
$upscope $end
$enddefinitions $end
#0
$dumpvars
0!
1"
b10 #
b1 $
b0 %
b11 &
1'
b10 (
b1 )
b0 *
b0 +
b0 ,
b0 -
0.
0/
07
06
05
04
03
02
01
00
0;
0:
09
08
0?
0>
0=
0<
0C
0B
0A
0@
0G
0F
0E
0D
0N
0M
0L
0K
0J
0I
0H
0U
0T
0S
0R
0Q
0P
0O
0\
0[
0Z
0Y
0X
0W
0V
0c
0b
0a
0`
0_
0^
0]
0j
0i
0h
0g
0f
0e
0d
0q
0p
0o
0n
0m
0l
0k
0u
0t
0s
0r
0y
0x
0w
0v
0#!
0"!
0!!
0~
0}
0|
0{
0z
x$!
0%!
1&!
x'!
1(!
1)!
1*!
0+!
0,!
0-!
0.!
0/!
10!
11!
02!
03!
04!
05!
06!
07!
08!
19!
0:!
0;!
0<!
0=!
0>!
1?!
1@!
0A!
0B!
1C!
0D!
0E!
0F!
1G!
0H!
0I!
0J!
1K!
0L!
0M!
0N!
0O!
0P!
0Q!
0R!
0S!
0T!
0U!
0V!
0W!
0X!
0Y!
0Z!
0[!
0\!
0]!
0^!
0_!
0`!
0a!
0b!
0c!
0d!
0e!
0f!
0g!
0h!
0i!
0j!
0k!
0l!
0m!
0n!
0o!
0p!
0q!
0r!
0s!
0t!
0u!
0v!
0w!
0x!
0y!
0z!
0{!
0|!
0}!
0~!
0!"
0""
0#"
0$"
0%"
0&"
0'"
0("
0)"
0*"
0+"
0,"
0-"
0."
0/"
00"
01"
02"
03"
04"
05"
06"
07"
08"
09"
0:"
0;"
0<"
0="
0>"
0?"
0@"
0A"
0B"
0C"
1D"
0E"
0F"
0G"
0H"
1I"
1J"
1K"
1L"
0M"
0N"
0O"
0P"
1Q"
1R"
0S"
0T"
1U"
0V"
1W"
0X"
0Y"
1Z"
0["
0\"
1]"
0^"
0_"
0`"
1a"
0b"
0c"
1d"
0e"
0f"
1g"
0h"
0i"
0j"
1k"
0l"
0m"
0n"
0o"
0p"
1q"
0r"
0s"
0t"
0u"
1v"
1w"
0x"
0y"
0z"
0{"
1|"
0}"
0~"
0!#
0"#
0##
0$#
0%#
0&#
0'#
0(#
0)#
0*#
1+#
1,#
0-#
1.#
0/#
00#
11#
12#
03#
04#
05#
06#
07#
08#
09#
0:#
1;#
0<#
0=#
0>#
0?#
0@#
1A#
0B#
0C#
0D#
0E#
0F#
0G#
0H#
0I#
0J#
0K#
0L#
0M#
0N#
0O#
0P#
0Q#
1R#
1S#
0T#
1U#
0V#
0W#
1X#
0Y#
0Z#
0[#
0\#
0]#
1^#
0_#
1`#
0a#
0b#
0c#
0d#
0e#
1f#
0g#
0h#
0i#
0j#
0k#
0l#
1m#
0n#
1o#
0p#
0q#
0r#
0s#
0t#
1u#
0v#
0w#
0x#
0y#
1z#
0}#
0|#
0{#
0#$
0"$
0!$
0~#
0&$
0%$
0$$
0*$
0)$
0($
0'$
0,$
0+$
00$
0/$
0.$
0-$
0@$
0?$
0>$
0=$
0<$
0;$
0:$
09$
08$
07$
06$
05$
04$
03$
02$
01$
0G$
0F$
0E$
0D$
0C$
0B$
0A$
0N$
0M$
0L$
0K$
0J$
0I$
0H$
0U$
0T$
0S$
0R$
0Q$
0P$
0O$
0\$
z[$
0Z$
0Y$
0X$
0W$
0V$
0c$
0b$
0a$
0`$
0_$
0^$
0]$
$end
#1000
1!
1B"
1C"
0$!
1@$
1V$
1]$
1H$
1O$
1A$
1S"
0Q"
1A"
1:"
13"
1,"
1%"
1|!
1O
1H
1]
1V
1k
1d
1T"
0R"
#2000
0!
0B"
0C"
1$!
#3000
1!
1B"
1C"
0$!
1?$
0@$
0U"
0T"
0S"
1Q"
1l"
1U"
1T"
1R"
1m"
0l"
0m"
#4000
0!
0B"
0C"
1$!
#5000
1!
1B"
1C"
0$!
1@$
1S"
0Q"
0U"
0T"
0R"
1l"
1m"
#6000
0!
0B"
0C"
1$!
#7000
1!
1B"
1C"
0$!
1>$
0?$
0@$
1o"
1V"
0l"
1U"
1T"
0S"
1Q"
1r"
1n"
0m"
0V"
1l"
0T"
1R"
0R"
0n"
#8000
0!
0B"
0C"
1$!
#9000
1!
1B"
1C"
0$!
1s"
0>$
1t"
0o"
0l"
0r"
1R"
#10000
0!
0B"
0C"
1$!
#11000
1!
1B"
1C"
0$!
0s"
1@$
1#$
0t"
1S"
0Q"
1]#
1\#
1[#
1W#
1{"
0v"
1N!
1u
1T"
0R"
#12000
0!
0B"
0C"
1$!
#13000
1!
1B"
1C"
0$!
1?$
0@$
1B$
1C$
1D$
1G$
0U"
0T"
0S"
1Q"
1$"
1{!
1#"
1z!
1""
1y!
1}!
1v!
1l
1e
1m
1f
1n
1g
1q
1j
1l"
1U"
1T"
1R"
1m"
0l"
0m"
#14000
0!
0B"
0C"
1$!
#15000
1!
1B"
1C"
0$!
1@$
1S"
0Q"
0U"
0T"
0R"
1l"
1m"
#16000
0!
0B"
0C"
1$!
#17000
1!
1B"
1C"
0$!
1>$
0?$
0@$
1o"
1V"
0l"
1U"
1T"
0S"
1Q"
1r"
1n"
0m"
0V"
1l"
0T"
1R"
0R"
0n"
#18000
0!
0B"
0C"
1$!
#19000
1!
1B"
1C"
0$!
1s"
0>$
1t"
0o"
0l"
0r"
1R"
#20000
0!
0B"
0C"
1$!
#21000
1!
1B"
1C"
0$!
0s"
1@$
1"$
0#$
0t"
1S"
0Q"
0^#
0\#
0[#
1Z#
0W#
0|"
1v"
1O!
0N!
1t
0u
1T"
0R"
#22000
0!
0B"
0C"
1$!
#23000
1!
1B"
1C"
0$!
1?$
0@$
0A$
0C$
0D$
1E$
0G$
0U"
0T"
0S"
1Q"
0%"
0|!
0#"
0z!
0""
0y!
1!"
1x!
0}!
0v!
0k
0d
0m
0f
0n
0g
1o
1h
0q
0j
1l"
1U"
1T"
1R"
1m"
0l"
0m"
#24000
0!
0B"
0C"
1$!
#25000
1!
1B"
1C"
0$!
1@$
1S"
0Q"
0U"
0T"
0R"
1l"
1m"
