simulation/qsim/Digital_Clock.msim.vcd
$comment
	File created using the following command:
		vcd file Digital_Clock.msim.vcd -direction
$end
$date
	Tue Aug 23 01:10:51 2022
$end
$version
	ModelSim Version 10.1d
$end
$timescale
	1ps
$end
$scope module TOP_vlg_vec_tst $end
$var reg 1 ! clk $end
$var reg 1 " clock_en $end
$var reg 4 # clock_hour_ge [3:0] $end
$var reg 4 $ clock_hour_shi [3:0] $end
$var reg 4 % clock_min_ge [3:0] $end
$var reg 4 & clock_min_shi [3:0] $end
$var reg 1 ' rst_n $end
$var reg 4 ( set_hour_ge [3:0] $end
$var reg 4 ) set_hour_shi [3:0] $end
$var reg 4 * set_min_ge [3:0] $end
$var reg 4 + set_min_shi [3:0] $end
$var reg 4 , set_sec_ge [3:0] $end
$var reg 4 - set_sec_shi [3:0] $end
$var reg 1 . set_time_finish $end
$var wire 1 / clock_out $end
$var wire 1 0 data_out [7] $end
$var wire 1 1 data_out [6] $end
$var wire 1 2 data_out [5] $end
$var wire 1 3 data_out [4] $end
$var wire 1 4 data_out [3] $end
$var wire 1 5 data_out [2] $end
$var wire 1 6 data_out [1] $end
$var wire 1 7 data_out [0] $end
$var wire 1 8 hour_ge_r [3] $end
$var wire 1 9 hour_ge_r [2] $end
$var wire 1 : hour_ge_r [1] $end
$var wire 1 ; hour_ge_r [0] $end
$var wire 1 < hour_shi_r [3] $end
$var wire 1 = hour_shi_r [2] $end
$var wire 1 > hour_shi_r [1] $end
$var wire 1 ? hour_shi_r [0] $end
$var wire 1 @ min_ge_r [3] $end
$var wire 1 A min_ge_r [2] $end
$var wire 1 B min_ge_r [1] $end
$var wire 1 C min_ge_r [0] $end
$var wire 1 D min_shi_r [3] $end
$var wire 1 E min_shi_r [2] $end
$var wire 1 F min_shi_r [1] $end
$var wire 1 G min_shi_r [0] $end
$var wire 1 H sec_ge_r [3] $end
$var wire 1 I sec_ge_r [2] $end
$var wire 1 J sec_ge_r [1] $end
$var wire 1 K sec_ge_r [0] $end
$var wire 1 L sec_shi_r [3] $end
$var wire 1 M sec_shi_r [2] $end
$var wire 1 N sec_shi_r [1] $end
$var wire 1 O sec_shi_r [0] $end
$var wire 1 P select [7] $end
$var wire 1 Q select [6] $end
$var wire 1 R select [5] $end
$var wire 1 S select [4] $end
$var wire 1 T select [3] $end
$var wire 1 U select [2] $end
$var wire 1 V select [1] $end
$var wire 1 W select [0] $end
$var wire 1 X sampler $end
$scope module i1 $end
$var wire 1 Y gnd $end
$var wire 1 Z vcc $end
$var wire 1 [ unknown $end
$var tri1 1 \ devclrn $end
$var tri1 1 ] devpor $end
$var tri1 1 ^ devoe $end
$var wire 1 _ time_control_inst|Add0~4_combout $end
$var wire 1 ` time_control_inst|Add0~6_combout $end
$var wire 1 a time_control_inst|Add0~22_combout $end
$var wire 1 b time_control_inst|Add0~29 $end
$var wire 1 c time_control_inst|Add0~30_combout $end
$var wire 1 d time_control_inst|clock_out~0_combout $end
$var wire 1 e time_control_inst|clock_out~1_combout $end
$var wire 1 f time_control_inst|Add1~0_combout $end
$var wire 1 g time_control_inst|Add3~0_combout $end
$var wire 1 h time_control_inst|Add5~0_combout $end
$var wire 1 i time_control_inst|Equal0~1_combout $end
$var wire 1 j display_ctrl_inst|m[0]~15_combout $end
$var wire 1 k set_sec_shi[3]~input_o $end
$var wire 1 l set_min_shi[3]~input_o $end
$var wire 1 m set_hour_shi[2]~input_o $end
$var wire 1 n set_hour_shi[3]~input_o $end
$var wire 1 o clock_min_ge[1]~input_o $end
$var wire 1 p clock_min_ge[0]~input_o $end
$var wire 1 q clock_min_ge[3]~input_o $end
$var wire 1 r clock_min_shi[1]~input_o $end
$var wire 1 s clock_min_shi[2]~input_o $end
$var wire 1 t clock_hour_ge[2]~input_o $end
$var wire 1 u clock_hour_ge[1]~input_o $end
$var wire 1 v clock_hour_shi[0]~input_o $end
$var wire 1 w clock_hour_shi[3]~input_o $end
$var wire 1 x set_sec_ge[3]~input_o $end
$var wire 1 y set_hour_ge[3]~input_o $end
$var wire 1 z clock_out~output_o $end
$var wire 1 { sec_ge_r[0]~output_o $end
$var wire 1 | sec_ge_r[1]~output_o $end
$var wire 1 } sec_ge_r[2]~output_o $end
$var wire 1 ~ sec_ge_r[3]~output_o $end
$var wire 1 !! sec_shi_r[0]~output_o $end
$var wire 1 "! sec_shi_r[1]~output_o $end
$var wire 1 #! sec_shi_r[2]~output_o $end
$var wire 1 $! sec_shi_r[3]~output_o $end
$var wire 1 %! min_ge_r[0]~output_o $end
$var wire 1 &! min_ge_r[1]~output_o $end
$var wire 1 '! min_ge_r[2]~output_o $end
$var wire 1 (! min_ge_r[3]~output_o $end
$var wire 1 )! min_shi_r[0]~output_o $end
$var wire 1 *! min_shi_r[1]~output_o $end
$var wire 1 +! min_shi_r[2]~output_o $end
$var wire 1 ,! min_shi_r[3]~output_o $end
$var wire 1 -! hour_ge_r[0]~output_o $end
$var wire 1 .! hour_ge_r[1]~output_o $end
$var wire 1 /! hour_ge_r[2]~output_o $end
$var wire 1 0! hour_ge_r[3]~output_o $end
$var wire 1 1! hour_shi_r[0]~output_o $end
$var wire 1 2! hour_shi_r[1]~output_o $end
$var wire 1 3! hour_shi_r[2]~output_o $end
$var wire 1 4! hour_shi_r[3]~output_o $end
$var wire 1 5! data_out[0]~output_o $end
$var wire 1 6! data_out[1]~output_o $end
$var wire 1 7! data_out[2]~output_o $end
$var wire 1 8! data_out[3]~output_o $end
$var wire 1 9! data_out[4]~output_o $end
$var wire 1 :! data_out[5]~output_o $end
$var wire 1 ;! data_out[6]~output_o $end
$var wire 1 <! data_out[7]~output_o $end
$var wire 1 =! select[0]~output_o $end
$var wire 1 >! select[1]~output_o $end
$var wire 1 ?! select[2]~output_o $end
$var wire 1 @! select[3]~output_o $end
$var wire 1 A! select[4]~output_o $end
$var wire 1 B! select[5]~output_o $end
$var wire 1 C! select[6]~output_o $end
$var wire 1 D! select[7]~output_o $end
$var wire 1 E! clk~input_o $end
$var wire 1 F! clk~inputclkctrl_outclk $end
$var wire 1 G! clock_en~input_o $end
$var wire 1 H! clock_hour_shi[1]~input_o $end
$var wire 1 I! time_control_inst|hour_shi~2_combout $end
$var wire 1 J! set_hour_shi[1]~input_o $end
$var wire 1 K! rst_n~input_o $end
$var wire 1 L! rst_n~inputclkctrl_outclk $end
$var wire 1 M! set_time_finish~input_o $end
$var wire 1 N! time_control_inst|sec_shi[0]~_wirecell_combout $end
$var wire 1 O! set_sec_shi[0]~input_o $end
$var wire 1 P! time_control_inst|Add0~0_combout $end
$var wire 1 Q! time_control_inst|cnt_1ms~1_combout $end
$var wire 1 R! time_control_inst|Add0~1 $end
$var wire 1 S! time_control_inst|Add0~2_combout $end
$var wire 1 T! time_control_inst|Add0~3 $end
$var wire 1 U! time_control_inst|Add0~5 $end
$var wire 1 V! time_control_inst|Add0~7 $end
$var wire 1 W! time_control_inst|Add0~8_combout $end
$var wire 1 X! time_control_inst|Add0~9 $end
$var wire 1 Y! time_control_inst|Add0~11 $end
$var wire 1 Z! time_control_inst|Add0~13 $end
$var wire 1 [! time_control_inst|Add0~14_combout $end
$var wire 1 \! time_control_inst|Add0~15 $end
$var wire 1 ]! time_control_inst|Add0~16_combout $end
$var wire 1 ^! time_control_inst|Add0~17 $end
$var wire 1 _! time_control_inst|Add0~18_combout $end
$var wire 1 `! time_control_inst|Add0~19 $end
$var wire 1 a! time_control_inst|Add0~20_combout $end
$var wire 1 b! time_control_inst|Add0~21 $end
$var wire 1 c! time_control_inst|Add0~23 $end
$var wire 1 d! time_control_inst|Add0~24_combout $end
$var wire 1 e! time_control_inst|Add0~25 $end
$var wire 1 f! time_control_inst|Add0~27 $end
$var wire 1 g! time_control_inst|Add0~28_combout $end
$var wire 1 h! time_control_inst|Add0~26_combout $end
$var wire 1 i! time_control_inst|Equal0~0_combout $end
$var wire 1 j! time_control_inst|Add0~12_combout $end
$var wire 1 k! time_control_inst|Add0~10_combout $end
$var wire 1 l! time_control_inst|Equal0~2_combout $end
$var wire 1 m! time_control_inst|cnt_1ms~0_combout $end
$var wire 1 n! time_control_inst|Equal0~3_combout $end
$var wire 1 o! time_control_inst|Equal0~4_combout $end
$var wire 1 p! time_control_inst|flag_1ms~q $end
$var wire 1 q! set_sec_ge[1]~input_o $end
$var wire 1 r! time_control_inst|sec_ge~2_combout $end
$var wire 1 s! time_control_inst|sec_ge[0]~1_combout $end
$var wire 1 t! set_sec_ge[0]~input_o $end
$var wire 1 u! time_control_inst|sec_ge~0_combout $end
$var wire 1 v! set_sec_ge[2]~input_o $end
$var wire 1 w! time_control_inst|Add1~1_combout $end
$var wire 1 x! time_control_inst|sec_ge~3_combout $end
$var wire 1 y! time_control_inst|Equal1~0_combout $end
$var wire 1 z! time_control_inst|flag_sec_ge~0_combout $end
$var wire 1 {! time_control_inst|flag_sec_ge~q $end
$var wire 1 |! time_control_inst|sec_shi[0]~0_combout $end
$var wire 1 }! time_control_inst|sec_shi~2_combout $end
$var wire 1 ~! set_sec_shi[2]~input_o $end
$var wire 1 !" time_control_inst|sec_shi~1_combout $end
$var wire 1 "" set_sec_shi[1]~input_o $end
$var wire 1 #" time_control_inst|flag_sec_shi~0_combout $end
$var wire 1 $" time_control_inst|flag_sec_shi~q $end
$var wire 1 %" set_min_ge[1]~input_o $end
$var wire 1 &" time_control_inst|min_ge~2_combout $end
$var wire 1 '" time_control_inst|min_ge[3]~1_combout $end
$var wire 1 (" set_min_ge[3]~input_o $end
$var wire 1 )" set_min_ge[0]~input_o $end
$var wire 1 *" time_control_inst|min_ge~0_combout $end
$var wire 1 +" time_control_inst|Add3~1_combout $end
$var wire 1 ," set_min_ge[2]~input_o $end
$var wire 1 -" time_control_inst|min_ge~3_combout $end
$var wire 1 ." time_control_inst|Add3~2_combout $end
$var wire 1 /" time_control_inst|min_ge~4_combout $end
$var wire 1 0" time_control_inst|Equal3~0_combout $end
$var wire 1 1" time_control_inst|flag_min_ge~0_combout $end
$var wire 1 2" time_control_inst|flag_min_ge~q $end
$var wire 1 3" time_control_inst|min_shi[0]~_wirecell_combout $end
$var wire 1 4" set_min_shi[0]~input_o $end
$var wire 1 5" time_control_inst|min_shi[2]~0_combout $end
$var wire 1 6" time_control_inst|min_shi~1_combout $end
$var wire 1 7" set_min_shi[1]~input_o $end
$var wire 1 8" time_control_inst|min_shi~2_combout $end
$var wire 1 9" set_min_shi[2]~input_o $end
$var wire 1 :" time_control_inst|flag_min_shi~0_combout $end
$var wire 1 ;" time_control_inst|flag_min_shi~q $end
$var wire 1 <" set_hour_ge[2]~input_o $end
$var wire 1 =" set_hour_ge[1]~input_o $end
$var wire 1 >" time_control_inst|hour_ge~2_combout $end
$var wire 1 ?" time_control_inst|hour_ge~5_combout $end
$var wire 1 @" time_control_inst|hour_ge[3]~1_combout $end
$var wire 1 A" time_control_inst|hour_shi~0_combout $end
$var wire 1 B" set_hour_shi[0]~input_o $end
$var wire 1 C" time_control_inst|hour_ge[3]~3_combout $end
$var wire 1 D" time_control_inst|hour_ge~4_combout $end
$var wire 1 E" time_control_inst|hour_ge~6_combout $end
$var wire 1 F" time_control_inst|flag_hour_ge~0_combout $end
$var wire 1 G" time_control_inst|flag_hour_ge~q $end
$var wire 1 H" time_control_inst|hour_shi[1]~1_combout $end
$var wire 1 I" time_control_inst|clock_out~8_combout $end
$var wire 1 J" clock_hour_shi[2]~input_o $end
$var wire 1 K" time_control_inst|clock_out~9_combout $end
$var wire 1 L" clock_min_shi[0]~input_o $end
$var wire 1 M" time_control_inst|clock_out~3_combout $end
$var wire 1 N" clock_min_ge[2]~input_o $end
$var wire 1 O" time_control_inst|clock_out~2_combout $end
$var wire 1 P" clock_min_shi[3]~input_o $end
$var wire 1 Q" set_hour_ge[0]~input_o $end
$var wire 1 R" time_control_inst|hour_ge~0_combout $end
$var wire 1 S" time_control_inst|clock_out~4_combout $end
$var wire 1 T" time_control_inst|clock_out~5_combout $end
$var wire 1 U" clock_hour_ge[0]~input_o $end
$var wire 1 V" time_control_inst|Equal8~0_combout $end
$var wire 1 W" time_control_inst|Add5~1_combout $end
$var wire 1 X" time_control_inst|hour_ge~7_combout $end
$var wire 1 Y" clock_hour_ge[3]~input_o $end
$var wire 1 Z" time_control_inst|clock_out~6_combout $end
$var wire 1 [" time_control_inst|clock_out~7_combout $end
$var wire 1 \" time_control_inst|clock_out~10_combout $end
$var wire 1 ]" time_control_inst|clock_out~q $end
$var wire 1 ^" time_control_inst|Add1~2_combout $end
$var wire 1 _" time_control_inst|sec_ge~4_combout $end
$var wire 1 `" display_ctrl_inst|m[1]~5_combout $end
$var wire 1 a" display_ctrl_inst|m[1]~6 $end
$var wire 1 b" display_ctrl_inst|m[2]~7_combout $end
$var wire 1 c" display_ctrl_inst|m[2]~8 $end
$var wire 1 d" display_ctrl_inst|m[3]~9_combout $end
$var wire 1 e" display_ctrl_inst|m[3]~10 $end
$var wire 1 f" display_ctrl_inst|m[4]~11_combout $end
$var wire 1 g" display_ctrl_inst|m[4]~12 $end
$var wire 1 h" display_ctrl_inst|m[5]~13_combout $end
$var wire 1 i" display_ctrl_inst|Decoder0~3_combout $end
$var wire 1 j" display_ctrl_inst|Mux2~0_combout $end
$var wire 1 k" display_ctrl_inst|Mux2~1_combout $end
$var wire 1 l" display_ctrl_inst|Mux2~2_combout $end
$var wire 1 m" display_ctrl_inst|Mux1~0_combout $end
$var wire 1 n" display_ctrl_inst|Mux1~1_combout $end
$var wire 1 o" display_ctrl_inst|Mux11~0_combout $end
$var wire 1 p" display_ctrl_inst|Mux11~0clkctrl_outclk $end
$var wire 1 q" display_ctrl_inst|Mux3~2_combout $end
$var wire 1 r" display_ctrl_inst|Mux3~0_combout $end
$var wire 1 s" display_ctrl_inst|Mux3~1_combout $end
$var wire 1 t" display_ctrl_inst|Mux3~3_combout $end
$var wire 1 u" display_ctrl_inst|Mux4~2_combout $end
$var wire 1 v" display_ctrl_inst|Mux4~0_combout $end
$var wire 1 w" display_ctrl_inst|Mux4~1_combout $end
$var wire 1 x" display_ctrl_inst|Mux4~3_combout $end
$var wire 1 y" display_ctrl_inst|Mux5~0_combout $end
$var wire 1 z" display_ctrl_inst|Mux0~0_combout $end
$var wire 1 {" display_ctrl_inst|Mux6~0_combout $end
$var wire 1 |" display_ctrl_inst|Mux7~0_combout $end
$var wire 1 }" display_ctrl_inst|Mux8~0_combout $end
$var wire 1 ~" display_ctrl_inst|Mux9~0_combout $end
$var wire 1 !# display_ctrl_inst|Mux10~0_combout $end
$var wire 1 "# display_ctrl_inst|Decoder0~0_combout $end
$var wire 1 ## display_ctrl_inst|Decoder0~1_combout $end
$var wire 1 $# display_ctrl_inst|Decoder0~2_combout $end
$var wire 1 %# display_ctrl_inst|Decoder0~4_combout $end
$var wire 1 &# display_ctrl_inst|Decoder0~5_combout $end
$var wire 1 '# display_ctrl_inst|Decoder0~6_combout $end
$var wire 1 (# display_ctrl_inst|Decoder0~7_combout $end
$var wire 1 )# time_control_inst|sec_shi [2] $end
$var wire 1 *# time_control_inst|sec_shi [1] $end
$var wire 1 +# time_control_inst|sec_shi [0] $end
$var wire 1 ,# time_control_inst|sec_ge [3] $end
$var wire 1 -# time_control_inst|sec_ge [2] $end
$var wire 1 .# time_control_inst|sec_ge [1] $end
$var wire 1 /# time_control_inst|sec_ge [0] $end
$var wire 1 0# time_control_inst|min_shi [2] $end
$var wire 1 1# time_control_inst|min_shi [1] $end
$var wire 1 2# time_control_inst|min_shi [0] $end
$var wire 1 3# time_control_inst|min_ge [3] $end
$var wire 1 4# time_control_inst|min_ge [2] $end
$var wire 1 5# time_control_inst|min_ge [1] $end
$var wire 1 6# time_control_inst|min_ge [0] $end
$var wire 1 7# time_control_inst|hour_shi [1] $end
$var wire 1 8# time_control_inst|hour_shi [0] $end
$var wire 1 9# time_control_inst|hour_ge [3] $end
$var wire 1 :# time_control_inst|hour_ge [2] $end
$var wire 1 ;# time_control_inst|hour_ge [1] $end
$var wire 1 <# time_control_inst|hour_ge [0] $end
$var wire 1 =# time_control_inst|cnt_1ms [15] $end
$var wire 1 ># time_control_inst|cnt_1ms [14] $end
$var wire 1 ?# time_control_inst|cnt_1ms [13] $end
$var wire 1 @# time_control_inst|cnt_1ms [12] $end
$var wire 1 A# time_control_inst|cnt_1ms [11] $end
$var wire 1 B# time_control_inst|cnt_1ms [10] $end
$var wire 1 C# time_control_inst|cnt_1ms [9] $end
$var wire 1 D# time_control_inst|cnt_1ms [8] $end
$var wire 1 E# time_control_inst|cnt_1ms [7] $end
$var wire 1 F# time_control_inst|cnt_1ms [6] $end
$var wire 1 G# time_control_inst|cnt_1ms [5] $end
$var wire 1 H# time_control_inst|cnt_1ms [4] $end
$var wire 1 I# time_control_inst|cnt_1ms [3] $end
$var wire 1 J# time_control_inst|cnt_1ms [2] $end
$var wire 1 K# time_control_inst|cnt_1ms [1] $end
$var wire 1 L# time_control_inst|cnt_1ms [0] $end
$var wire 1 M# display_ctrl_inst|sel [7] $end
$var wire 1 N# display_ctrl_inst|sel [6] $end
$var wire 1 O# display_ctrl_inst|sel [5] $end
$var wire 1 P# display_ctrl_inst|sel [4] $end
$var wire 1 Q# display_ctrl_inst|sel [3] $end
$var wire 1 R# display_ctrl_inst|sel [2] $end
$var wire 1 S# display_ctrl_inst|sel [1] $end
$var wire 1 T# display_ctrl_inst|sel [0] $end
$var wire 1 U# display_ctrl_inst|m [10] $end
$var wire 1 V# display_ctrl_inst|m [9] $end
$var wire 1 W# display_ctrl_inst|m [8] $end
$var wire 1 X# display_ctrl_inst|m [7] $end
$var wire 1 Y# display_ctrl_inst|m [6] $end
$var wire 1 Z# display_ctrl_inst|m [5] $end
$var wire 1 [# display_ctrl_inst|m [4] $end
$var wire 1 \# display_ctrl_inst|m [3] $end
$var wire 1 ]# display_ctrl_inst|m [2] $end
$var wire 1 ^# display_ctrl_inst|m [1] $end
$var wire 1 _# display_ctrl_inst|m [0] $end
$var wire 1 `# display_ctrl_inst|display_data [3] $end
$var wire 1 a# display_ctrl_inst|display_data [2] $end
$var wire 1 b# display_ctrl_inst|display_data [1] $end
$var wire 1 c# display_ctrl_inst|display_data [0] $end
$var wire 1 d# display_ctrl_inst|data [7] $end
$var wire 1 e# display_ctrl_inst|data [6] $end
$var wire 1 f# display_ctrl_inst|data [5] $end
$var wire 1 g# display_ctrl_inst|data [4] $end
$var wire 1 h# display_ctrl_inst|data [3] $end
$var wire 1 i# display_ctrl_inst|data [2] $end
$var wire 1 j# display_ctrl_inst|data [1] $end
$var wire 1 k# display_ctrl_inst|data [0] $end
$upscope $end
$upscope $end
$enddefinitions $end
#0
$dumpvars
0!
1"
b10 #
b1 $
b0 %
b11 &
1'
b10 (
b1 )
b0 *
b0 +
b0 ,
b0 -
0.
0/
07
06
05
04
03
02
11
10
0;
0:
09
08
0?
0>
0=
0<
0C
0B
0A
0@
0G
0F
0E
0D
0K
0J
0I
0H
0O
0N
0M
0L
0W
0V
0U
0T
0S
0R
0Q
0P
xX
0Y
1Z
x[
1\
1]
1^
0_
0`
0a
0b
0c
0d
1e
0f
0g
0h
1i
1j
0k
0l
0m
0n
0o
0p
0q
1r
0s
0t
1u
1v
0w
0x
0y
0z
0{
0|
0}
0~
0!!
0"!
0#!
0$!
0%!
0&!
0'!
0(!
0)!
0*!
0+!
0,!
0-!
0.!
0/!
00!
01!
02!
03!
04!
05!
06!
07!
08!
09!
0:!
1;!
1<!
0=!
0>!
0?!
0@!
0A!
0B!
0C!
0D!
0E!
0F!
1G!
0H!
0I!
0J!
1K!
1L!
0M!
1N!
0O!
1P!
1Q!
0R!
0S!
1T!
0U!
1V!
0W!
0X!
1Y!
0Z!
0[!
1\!
0]!
0^!
0_!
1`!
0a!
0b!
1c!
0d!
0e!
1f!
0g!
0h!
1i!
0j!
0k!
1l!
0m!
0n!
0o!
0p!
0q!
0r!
0s!
0t!
1u!
0v!
0w!
0x!
0y!
0z!
0{!
0|!
0}!
0~!
0!"
0""
0#"
0$"
0%"
0&"
0'"
0("
0)"
1*"
0+"
0,"
0-"
0."
0/"
00"
01"
02"
13"
04"
05"
06"
07"
08"
09"
0:"
0;"
0<"
1="
0>"
0?"
0@"
1A"
1B"
0C"
1D"
0E"
0F"
0G"
0H"
0I"
0J"
0K"
1L"
0M"
0N"
1O"
0P"
0Q"
1R"
1S"
0T"
0U"
0V"
0W"
0X"
0Y"
1Z"
0["
0\"
0]"
0^"
0_"
0`"
0a"
0b"
1c"
0d"
0e"
0f"
1g"
0h"
1i"
0j"
0k"
0l"
0m"
0n"
1o"
1p"
0q"
0r"
0s"
0t"
0u"
0v"
0w"
0x"
0y"
0z"
0{"
0|"
0}"
0~"
0!#
0"#
1##
1$#
1%#
1&#
1'#
1(#
0+#
0*#
0)#
0/#
0.#
0-#
0,#
02#
01#
00#
06#
05#
04#
03#
08#
07#
0<#
0;#
0:#
09#
0L#
0K#
0J#
0I#
0H#
0G#
0F#
0E#
0D#
0C#
0B#
0A#
0@#
0?#
0>#
0=#
0T#
0S#
0R#
0Q#
0P#
0O#
0N#
0M#
0_#
0^#
0]#
0\#
0[#
0Z#
zY#
zX#
zW#
zV#
zU#
0c#
0b#
0a#
0`#
0k#
0j#
0i#
0h#
0g#
0f#
1e#
zd#
$end
#1000
1!
1E!
1F!
0X
1L#
1_#
1M#
1N#
1O#
1P#
1Q#
1R#
1S#
1R!
0P!
1`"
0j
1D!
1C!
1B!
1A!
1@!
1?!
1>!
1P
1Q
1R
1S
1T
1U
1V
1S!
0Q!
#2000
0!
0E!
0F!
1X
#3000
1!
1E!
1F!
0X
1^#
1K#
0L#
0_#
0T!
0S!
0R!
1P!
1j
1_
1T!
1S!
1Q!
1m!
0_
0m!
#4000
0!
0E!
0F!
1X
#5000
1!
1E!
1F!
0X
1L#
1_#
1R!
0P!
1a"
0`"
0j
0T!
0S!
0Q!
1b"
1_
1m!
#6000
0!
0E!
0F!
1X
#7000
1!
1E!
1F!
0X
1]#
0^#
1J#
0K#
0L#
0_#
0c"
0b"
0a"
1n!
1U!
0_
1T!
1S!
0R!
1P!
1j
1d"
1c"
1b"
1o!
1`
0m!
0U!
1_
0S!
1Q!
0d"
0Q!
0`
#8000
0!
0E!
0F!
1X
#9000
1!
1E!
1F!
0X
1p!
0J#
1_#
1s!
0n!
0_
1`"
0j
0o!
1Q!
#10000
0!
0E!
0F!
1X
#11000
1!
1E!
1F!
0X
1^#
0p!
1L#
0_#
1/#
0s!
1R!
0P!
1j
0u!
1f
1{
1K
1S!
0Q!
1r!
#12000
0!
0E!
0F!
1X
#13000
1!
1E!
1F!
0X
1K#
0L#
1_#
0T!
0S!
0R!
1P!
1a"
0`"
0j
1_
1T!
1S!
1Q!
0c"
0b"
1m!
0_
1d"
0m!
#14000
0!
0E!
0F!
1X
#15000
1!
1E!
1F!
0X
1\#
0]#
0^#
1L#
0_#
0##
1"#
1e"
0d"
1c"
1b"
0a"
1R!
0P!
1j
1f"
0e"
1d"
0b"
0T!
0S!
0Q!
0f"
1_
1m!
#16000
0!
0E!
0F!
1X
#17000
1!
1E!
1F!
0X
1J#
0K#
0L#
1_#
0S#
1T#
1n!
1U!
0_
1T!
1S!
0R!
1P!
1`"
0j
0>!
1=!
0V
1W
1o!
1`
0m!
0U!
1_
0S!
1Q!
0Q!
0`
#18000
0!
0E!
0F!
1X
#19000
1!
1E!
1F!
0X
1^#
1p!
0J#
0_#
1s!
0n!
0_
1j
0o!
1Q!
#20000
0!
0E!
0F!
1X
#21000
1!
1E!
1F!
0X
0p!
1L#
1_#
0/#
1.#
0s!
1R!
0P!
1a"
0`"
0j
1u!
0{
1|
0K
1J
1S!
0Q!
1b"
#22000
0!
0E!
0F!
1X
#23000
1!
1E!
1F!
0X
1]#
0^#
1K#
0L#
0_#
0c"
0b"
0a"
0T!
0S!
0R!
1P!
1j
1e"
0d"
1c"
1b"
1_
1T!
1S!
1Q!
1f"
0e"
1d"
1m!
0_
0f"
0m!
#24000
0!
0E!
0F!
1X
#25000
1!
1E!
1F!
0X
1L#
1_#
1R!
0P!
1`"
0j
0T!
0S!
0Q!
1_
1m!
#26000
0!
0E!
0F!
1X
#27000
1!
1E!
1F!
0X
1^#
1J#
0K#
0L#
0_#
1n!
1U!
0_
1T!
1S!
0R!
1P!
1j
1o!
1`
0m!
0U!
1_
0S!
1Q!
0Q!
0`
#28000
0!
0E!
0F!
1X
#29000
1!
1E!
1F!
0X
1p!
0J#
1_#
1s!
0n!
0_
1a"
0`"
0j
0o!
0c"
0b"
1Q!
1e"
0d"
1f"
#30000
0!
0E!
0F!
1X
#31000
1!
1E!
1F!
0X
1[#
0\#
0]#
0^#
0p!
1L#
0_#
1/#
0$#
1##
0g"
0f"
0e"
1d"
1c"
1b"
0a"
0s!
1R!
0P!
1j
1w!
0u!
0f
1{
1K
1h"
1g"
1f"
0d"
0b"
1S!
0Q!
1x!
0r!
0h"
#32000
0!
0E!
0F!
1X
#33000
1!
1E!
1F!
0X
1K#
0L#
1_#
0R#
1S#
0T!
0S!
0R!
1P!
1`"
0j
0?!
1>!
0U
1V
1_
1T!
1S!
1Q!
1m!
0_
0m!
#34000
0!
0E!
0F!
1X
#35000
1!
1E!
1F!
0X
1^#
1L#
0_#
1R!
0P!
1j
0T!
0S!
0Q!
1_
1m!
#36000
0!
0E!
0F!
1X
#37000
1!
1E!
1F!
0X
1J#
0K#
0L#
1_#
1n!
1U!
0_
1T!
1S!
0R!
1P!
1a"
0`"
0j
1o!
1`
0m!
0U!
1_
0S!
1Q!
1b"
0Q!
0`
#38000
0!
0E!
0F!
1X
#39000
1!
1E!
1F!
0X
1]#
0^#
1p!
0J#
0_#
0c"
0b"
0a"
1s!
0n!
0_
1j
1d"
1c"
1b"
0o!
0d"
1Q!
#40000
0!
0E!
0F!
1X
#41000
1!
1E!
1F!
0X
0p!
1L#
1_#
1-#
0/#
0.#
0s!
1R!
0P!
1`"
0j
1u!
1}
0{
0|
1I
0K
0J
1S!
0Q!
#42000
0!
0E!
0F!
1X
#43000
1!
1E!
1F!
0X
1^#
1K#
0L#
0_#
0T!
0S!
0R!
1P!
1j
1_
1T!
1S!
1Q!
1m!
0_
0m!
#44000
0!
0E!
0F!
1X
#45000
1!
1E!
1F!
0X
1L#
1_#
1R!
0P!
1a"
0`"
0j
0T!
0S!
0Q!
0c"
0b"
1_
1d"
1m!
#46000
0!
0E!
0F!
1X
#47000
1!
1E!
1F!
0X
1\#
0]#
0^#
1J#
0K#
0L#
0_#
1$#
1v"
1r"
1j"
0i"
1e"
0d"
1c"
1b"
0a"
1n!
1U!
0_
1T!
1S!
0R!
1P!
1j
1k"
0g"
0f"
0e"
1d"
0b"
1o!
1`
0m!
0U!
1_
0S!
1Q!
1h"
1g"
1f"
0Q!
0`
0h"
#48000
0!
0E!
0F!
1X
#49000
1!
1E!
1F!
0X
1p!
0J#
1_#
0Q#
1R#
1s!
0n!
0_
1`"
0j
0@!
1?!
0T
1U
0o!
1Q!
#50000
0!
0E!
0F!
1X
#51000
1!
1E!
1F!
0X
1^#
0p!
1L#
0_#
1/#
0s!
1R!
0P!
1j
1w"
0u!
1f
1{
1K
1S!
0Q!
1r!
#52000
0!
0E!
0F!
1X
#53000
1!
1E!
1F!
0X
1K#
0L#
1_#
0T!
0S!
0R!
1P!
1a"
0`"
0j
1_
1T!
1S!
1Q!
1b"
1m!
0_
0m!
#54000
0!
0E!
0F!
1X
#55000
1!
1E!
1F!
0X
1]#
0^#
1L#
0_#
0c"
0b"
0a"
1R!
0P!
1j
1e"
0d"
1c"
1b"
0T!
0S!
0Q!
0g"
0f"
0e"
1d"
1_
1h"
1g"
1f"
1m!
0h"
#56000
0!
0E!
0F!
1X
#57000
1!
1E!
1F!
0X
1J#
0K#
0L#
1_#
1n!
1U!
0_
1T!
1S!
0R!
1P!
1`"
0j
1o!
1`
0m!
0U!
1_
0S!
1Q!
0Q!
0`
#58000
0!
0E!
0F!
1X
#59000
1!
1E!
1F!
0X
1^#
1p!
0J#
0_#
1s!
0n!
0_
1j
0o!
1Q!
#60000
0!
0E!
0F!
1X
#61000
1!
1E!
1F!
0X
0p!
1L#
1_#
0/#
1.#
0s!
1R!
0P!
1a"
0`"
0j
0w"
1u!
1s"
0{
1|
0K
1J
1S!
0Q!
0c"
0b"
1e"
0d"
0g"
0f"
1h"
#62000
0!
0E!
0F!
1X
#63000
1!
1E!
1F!
0X
1Z#
0[#
0\#
0]#
0^#
1K#
0L#
0_#
0%#
1t"
1l"
1i"
0h"
0v"
0r"
0j"
1g"
1f"
1w"
0e"
1d"
1c"
1b"
0a"
0T!
0S!
0R!
1P!
1j
0w"
0s"
0k"
1h"
1x"
0f"
0d"
0b"
1_
1T!
1S!
1Q!
0x"
0t"
0l"
1m!
0_
0m!
#64000
0!
0E!
0F!
1X
#65000
1!
1E!
1F!
0X
1L#
1_#
0P#
1Q#
1R!
0P!
1`"
0j
0A!
1@!
0S
1T
0T!
0S!
0Q!
1_
1m!
#66000
0!
0E!
0F!
1X
#67000
1!
1E!
1F!
0X
1^#
1J#
0K#
0L#
0_#
1n!
1U!
0_
1T!
1S!
0R!
1P!
1j
1o!
1`
0m!
0U!
1_
0S!
1Q!
0Q!
0`
#68000
0!
0E!
0F!
1X
#69000
1!
1E!
1F!
0X
1p!
0J#
1_#
1s!
0n!
0_
1a"
0`"
0j
0o!
1b"
1Q!
#70000
0!
0E!
0F!
1X
#71000
1!
1E!
1F!
0X
1]#
0^#
0p!
1L#
0_#
1/#
0c"
0b"
0a"
0s!
1R!
0P!
1j
1^"
0w!
0u!
0f
1{
1K
1d"
1c"
1b"
1S!
0Q!
1_"
0x!
0r!
0d"
#72000
0!
0E!
0F!
1X
