simulation/qsim/Digital_Clock.msim.vcd
$comment
	File created using the following command:
		vcd file Digital_Clock.msim.vcd -direction
$end
$date
	Tue Aug 23 13:39:34 2022
$end
$version
	ModelSim Version 10.1d
$end
$timescale
	1ps
$end
$scope module TOP_vlg_vec_tst $end
$var reg 1 ! clk $end
$var reg 1 " clock_en $end
$var reg 4 # clock_hour_ge [3:0] $end
$var reg 4 $ clock_hour_shi [3:0] $end
$var reg 4 % clock_min_ge [3:0] $end
$var reg 4 & clock_min_shi [3:0] $end
$var reg 1 ' rst_n $end
$var reg 4 ( set_hour_ge [3:0] $end
$var reg 4 ) set_hour_shi [3:0] $end
$var reg 4 * set_min_ge [3:0] $end
$var reg 4 + set_min_shi [3:0] $end
$var reg 4 , set_sec_ge [3:0] $end
$var reg 4 - set_sec_shi [3:0] $end
$var reg 1 . set_time_finish $end
$var wire 1 / clock_out $end
$var wire 1 0 data_out [7] $end
$var wire 1 1 data_out [6] $end
$var wire 1 2 data_out [5] $end
$var wire 1 3 data_out [4] $end
$var wire 1 4 data_out [3] $end
$var wire 1 5 data_out [2] $end
$var wire 1 6 data_out [1] $end
$var wire 1 7 data_out [0] $end
$var wire 1 8 hour_ge_r [3] $end
$var wire 1 9 hour_ge_r [2] $end
$var wire 1 : hour_ge_r [1] $end
$var wire 1 ; hour_ge_r [0] $end
$var wire 1 < hour_shi_r [3] $end
$var wire 1 = hour_shi_r [2] $end
$var wire 1 > hour_shi_r [1] $end
$var wire 1 ? hour_shi_r [0] $end
$var wire 1 @ min_ge_r [3] $end
$var wire 1 A min_ge_r [2] $end
$var wire 1 B min_ge_r [1] $end
$var wire 1 C min_ge_r [0] $end
$var wire 1 D min_shi_r [3] $end
$var wire 1 E min_shi_r [2] $end
$var wire 1 F min_shi_r [1] $end
$var wire 1 G min_shi_r [0] $end
$var wire 1 H sec_ge_r [3] $end
$var wire 1 I sec_ge_r [2] $end
$var wire 1 J sec_ge_r [1] $end
$var wire 1 K sec_ge_r [0] $end
$var wire 1 L sec_shi_r [3] $end
$var wire 1 M sec_shi_r [2] $end
$var wire 1 N sec_shi_r [1] $end
$var wire 1 O sec_shi_r [0] $end
$var wire 1 P select [7] $end
$var wire 1 Q select [6] $end
$var wire 1 R select [5] $end
$var wire 1 S select [4] $end
$var wire 1 T select [3] $end
$var wire 1 U select [2] $end
$var wire 1 V select [1] $end
$var wire 1 W select [0] $end
$var wire 1 X sampler $end
$scope module i1 $end
$var wire 1 Y gnd $end
$var wire 1 Z vcc $end
$var wire 1 [ unknown $end
$var tri1 1 \ devclrn $end
$var tri1 1 ] devpor $end
$var tri1 1 ^ devoe $end
$var wire 1 _ time_control_inst|Add0~23 $end
$var wire 1 ` time_control_inst|Add0~24_combout $end
$var wire 1 a time_control_inst|Add0~25 $end
$var wire 1 b time_control_inst|Add0~26_combout $end
$var wire 1 c time_control_inst|Add0~27 $end
$var wire 1 d time_control_inst|Add0~28_combout $end
$var wire 1 e time_control_inst|Add0~29 $end
$var wire 1 f time_control_inst|Add0~30_combout $end
$var wire 1 g time_control_inst|clock_out~4_combout $end
$var wire 1 h time_control_inst|clock_out~8_combout $end
$var wire 1 i time_control_inst|clock_out~9_combout $end
$var wire 1 j time_control_inst|Equal0~0_combout $end
$var wire 1 k display_ctrl_inst|Mux4~0_combout $end
$var wire 1 l display_ctrl_inst|Mux4~1_combout $end
$var wire 1 m display_ctrl_inst|Mux4~2_combout $end
$var wire 1 n display_ctrl_inst|Mux4~3_combout $end
$var wire 1 o display_ctrl_inst|m[0]~15_combout $end
$var wire 1 p set_sec_shi[3]~input_o $end
$var wire 1 q set_min_shi[3]~input_o $end
$var wire 1 r set_hour_shi[2]~input_o $end
$var wire 1 s set_hour_shi[3]~input_o $end
$var wire 1 t clock_min_ge[1]~input_o $end
$var wire 1 u clock_min_ge[2]~input_o $end
$var wire 1 v clock_min_shi[1]~input_o $end
$var wire 1 w clock_min_shi[3]~input_o $end
$var wire 1 x clock_min_shi[2]~input_o $end
$var wire 1 y clock_hour_ge[3]~input_o $end
$var wire 1 z clock_hour_shi[0]~input_o $end
$var wire 1 { clock_hour_shi[1]~input_o $end
$var wire 1 | clock_hour_shi[2]~input_o $end
$var wire 1 } clock_hour_shi[3]~input_o $end
$var wire 1 ~ set_sec_ge[2]~input_o $end
$var wire 1 !! set_min_ge[3]~input_o $end
$var wire 1 "! clock_out~output_o $end
$var wire 1 #! sec_ge_r[0]~output_o $end
$var wire 1 $! sec_ge_r[1]~output_o $end
$var wire 1 %! sec_ge_r[2]~output_o $end
$var wire 1 &! sec_ge_r[3]~output_o $end
$var wire 1 '! sec_shi_r[0]~output_o $end
$var wire 1 (! sec_shi_r[1]~output_o $end
$var wire 1 )! sec_shi_r[2]~output_o $end
$var wire 1 *! sec_shi_r[3]~output_o $end
$var wire 1 +! min_ge_r[0]~output_o $end
$var wire 1 ,! min_ge_r[1]~output_o $end
$var wire 1 -! min_ge_r[2]~output_o $end
$var wire 1 .! min_ge_r[3]~output_o $end
$var wire 1 /! min_shi_r[0]~output_o $end
$var wire 1 0! min_shi_r[1]~output_o $end
$var wire 1 1! min_shi_r[2]~output_o $end
$var wire 1 2! min_shi_r[3]~output_o $end
$var wire 1 3! hour_ge_r[0]~output_o $end
$var wire 1 4! hour_ge_r[1]~output_o $end
$var wire 1 5! hour_ge_r[2]~output_o $end
$var wire 1 6! hour_ge_r[3]~output_o $end
$var wire 1 7! hour_shi_r[0]~output_o $end
$var wire 1 8! hour_shi_r[1]~output_o $end
$var wire 1 9! hour_shi_r[2]~output_o $end
$var wire 1 :! hour_shi_r[3]~output_o $end
$var wire 1 ;! data_out[0]~output_o $end
$var wire 1 <! data_out[1]~output_o $end
$var wire 1 =! data_out[2]~output_o $end
$var wire 1 >! data_out[3]~output_o $end
$var wire 1 ?! data_out[4]~output_o $end
$var wire 1 @! data_out[5]~output_o $end
$var wire 1 A! data_out[6]~output_o $end
$var wire 1 B! data_out[7]~output_o $end
$var wire 1 C! select[0]~output_o $end
$var wire 1 D! select[1]~output_o $end
$var wire 1 E! select[2]~output_o $end
$var wire 1 F! select[3]~output_o $end
$var wire 1 G! select[4]~output_o $end
$var wire 1 H! select[5]~output_o $end
$var wire 1 I! select[6]~output_o $end
$var wire 1 J! select[7]~output_o $end
$var wire 1 K! clk~input_o $end
$var wire 1 L! clk~inputclkctrl_outclk $end
$var wire 1 M! clock_en~input_o $end
$var wire 1 N! time_control_inst|clock_out~0_combout $end
$var wire 1 O! clock_hour_ge[1]~input_o $end
$var wire 1 P! set_hour_ge[1]~input_o $end
$var wire 1 Q! set_time_finish~input_o $end
$var wire 1 R! time_control_inst|hour_ge~2_combout $end
$var wire 1 S! time_control_inst|hour_shi~0_combout $end
$var wire 1 T! set_hour_shi[0]~input_o $end
$var wire 1 U! rst_n~input_o $end
$var wire 1 V! rst_n~inputclkctrl_outclk $end
$var wire 1 W! time_control_inst|min_shi[0]~_wirecell_combout $end
$var wire 1 X! set_min_shi[0]~input_o $end
$var wire 1 Y! set_min_ge[1]~input_o $end
$var wire 1 Z! set_min_ge[0]~input_o $end
$var wire 1 [! time_control_inst|min_ge~0_combout $end
$var wire 1 \! time_control_inst|sec_shi[0]~_wirecell_combout $end
$var wire 1 ]! set_sec_shi[0]~input_o $end
$var wire 1 ^! time_control_inst|Add0~0_combout $end
$var wire 1 _! time_control_inst|cnt_1ms~1_combout $end
$var wire 1 `! time_control_inst|Add0~1 $end
$var wire 1 a! time_control_inst|Add0~2_combout $end
$var wire 1 b! time_control_inst|Add0~3 $end
$var wire 1 c! time_control_inst|Add0~5 $end
$var wire 1 d! time_control_inst|Add0~6_combout $end
$var wire 1 e! time_control_inst|Add0~4_combout $end
$var wire 1 f! time_control_inst|cnt_1ms~0_combout $end
$var wire 1 g! time_control_inst|Equal0~3_combout $end
$var wire 1 h! time_control_inst|Add0~7 $end
$var wire 1 i! time_control_inst|Add0~8_combout $end
$var wire 1 j! time_control_inst|Add0~9 $end
$var wire 1 k! time_control_inst|Add0~11 $end
$var wire 1 l! time_control_inst|Add0~13 $end
$var wire 1 m! time_control_inst|Add0~14_combout $end
$var wire 1 n! time_control_inst|Add0~15 $end
$var wire 1 o! time_control_inst|Add0~16_combout $end
$var wire 1 p! time_control_inst|Add0~17 $end
$var wire 1 q! time_control_inst|Add0~18_combout $end
$var wire 1 r! time_control_inst|Add0~19 $end
$var wire 1 s! time_control_inst|Add0~20_combout $end
$var wire 1 t! time_control_inst|Add0~21 $end
$var wire 1 u! time_control_inst|Add0~22_combout $end
$var wire 1 v! time_control_inst|Equal0~1_combout $end
$var wire 1 w! time_control_inst|Add0~10_combout $end
$var wire 1 x! time_control_inst|Add0~12_combout $end
$var wire 1 y! time_control_inst|Equal0~2_combout $end
$var wire 1 z! time_control_inst|Equal0~4_combout $end
$var wire 1 {! time_control_inst|flag_1ms~q $end
$var wire 1 |! set_sec_ge[1]~input_o $end
$var wire 1 }! set_sec_ge[0]~input_o $end
$var wire 1 ~! time_control_inst|sec_ge~0_combout $end
$var wire 1 !" time_control_inst|sec_ge[0]~1_combout $end
$var wire 1 "" time_control_inst|Add1~0_combout $end
$var wire 1 #" time_control_inst|sec_ge~2_combout $end
$var wire 1 $" time_control_inst|Add1~1_combout $end
$var wire 1 %" time_control_inst|sec_ge~3_combout $end
$var wire 1 &" time_control_inst|Equal1~0_combout $end
$var wire 1 '" time_control_inst|flag_sec_ge~0_combout $end
$var wire 1 (" time_control_inst|flag_sec_ge~q $end
$var wire 1 )" time_control_inst|sec_shi[0]~0_combout $end
$var wire 1 *" time_control_inst|sec_shi~2_combout $end
$var wire 1 +" set_sec_shi[2]~input_o $end
$var wire 1 ," time_control_inst|sec_shi~1_combout $end
$var wire 1 -" set_sec_shi[1]~input_o $end
$var wire 1 ." time_control_inst|flag_sec_shi~0_combout $end
$var wire 1 /" time_control_inst|flag_sec_shi~q $end
$var wire 1 0" time_control_inst|min_ge[3]~1_combout $end
$var wire 1 1" time_control_inst|Add3~0_combout $end
$var wire 1 2" time_control_inst|min_ge~2_combout $end
$var wire 1 3" time_control_inst|Add3~1_combout $end
$var wire 1 4" set_min_ge[2]~input_o $end
$var wire 1 5" time_control_inst|min_ge~3_combout $end
$var wire 1 6" time_control_inst|Equal3~0_combout $end
$var wire 1 7" time_control_inst|flag_min_ge~0_combout $end
$var wire 1 8" time_control_inst|flag_min_ge~q $end
$var wire 1 9" time_control_inst|min_shi[2]~0_combout $end
$var wire 1 :" time_control_inst|min_shi~1_combout $end
$var wire 1 ;" set_min_shi[1]~input_o $end
$var wire 1 <" time_control_inst|min_shi~2_combout $end
$var wire 1 =" set_min_shi[2]~input_o $end
$var wire 1 >" time_control_inst|flag_min_shi~0_combout $end
$var wire 1 ?" time_control_inst|flag_min_shi~q $end
$var wire 1 @" set_hour_ge[0]~input_o $end
$var wire 1 A" time_control_inst|hour_ge~0_combout $end
$var wire 1 B" time_control_inst|hour_ge[3]~1_combout $end
$var wire 1 C" time_control_inst|flag_hour_ge~0_combout $end
$var wire 1 D" time_control_inst|flag_hour_ge~q $end
$var wire 1 E" time_control_inst|hour_shi[1]~1_combout $end
$var wire 1 F" time_control_inst|hour_shi~2_combout $end
$var wire 1 G" set_hour_shi[1]~input_o $end
$var wire 1 H" time_control_inst|hour_ge[3]~3_combout $end
$var wire 1 I" time_control_inst|Add5~0_combout $end
$var wire 1 J" set_hour_ge[2]~input_o $end
$var wire 1 K" time_control_inst|hour_ge~6_combout $end
$var wire 1 L" time_control_inst|hour_ge~4_combout $end
$var wire 1 M" time_control_inst|hour_ge~5_combout $end
$var wire 1 N" time_control_inst|Add5~1_combout $end
$var wire 1 O" set_hour_ge[3]~input_o $end
$var wire 1 P" time_control_inst|hour_ge~7_combout $end
$var wire 1 Q" clock_hour_ge[2]~input_o $end
$var wire 1 R" time_control_inst|clock_out~6_combout $end
$var wire 1 S" clock_hour_ge[0]~input_o $end
$var wire 1 T" time_control_inst|Equal8~0_combout $end
$var wire 1 U" time_control_inst|clock_out~7_combout $end
$var wire 1 V" clock_min_shi[0]~input_o $end
$var wire 1 W" time_control_inst|clock_out~3_combout $end
$var wire 1 X" clock_min_ge[3]~input_o $end
$var wire 1 Y" time_control_inst|Add3~2_combout $end
$var wire 1 Z" time_control_inst|min_ge~4_combout $end
$var wire 1 [" time_control_inst|clock_out~2_combout $end
$var wire 1 \" clock_min_ge[0]~input_o $end
$var wire 1 ]" time_control_inst|clock_out~1_combout $end
$var wire 1 ^" time_control_inst|clock_out~5_combout $end
$var wire 1 _" time_control_inst|clock_out~10_combout $end
$var wire 1 `" time_control_inst|clock_out~q $end
$var wire 1 a" set_sec_ge[3]~input_o $end
$var wire 1 b" time_control_inst|Add1~2_combout $end
$var wire 1 c" time_control_inst|sec_ge~4_combout $end
$var wire 1 d" display_ctrl_inst|m[1]~5_combout $end
$var wire 1 e" display_ctrl_inst|m[1]~6 $end
$var wire 1 f" display_ctrl_inst|m[2]~7_combout $end
$var wire 1 g" display_ctrl_inst|m[2]~8 $end
$var wire 1 h" display_ctrl_inst|m[3]~9_combout $end
$var wire 1 i" display_ctrl_inst|m[3]~10 $end
$var wire 1 j" display_ctrl_inst|m[4]~11_combout $end
$var wire 1 k" display_ctrl_inst|m[4]~12 $end
$var wire 1 l" display_ctrl_inst|m[5]~13_combout $end
$var wire 1 m" display_ctrl_inst|Mux2~0_combout $end
$var wire 1 n" display_ctrl_inst|Mux2~1_combout $end
$var wire 1 o" display_ctrl_inst|Mux2~2_combout $end
$var wire 1 p" display_ctrl_inst|Mux3~2_combout $end
$var wire 1 q" display_ctrl_inst|Mux3~0_combout $end
$var wire 1 r" display_ctrl_inst|Mux3~1_combout $end
$var wire 1 s" display_ctrl_inst|Mux3~3_combout $end
$var wire 1 t" display_ctrl_inst|Mux1~0_combout $end
$var wire 1 u" display_ctrl_inst|Mux1~1_combout $end
$var wire 1 v" display_ctrl_inst|Mux5~0_combout $end
$var wire 1 w" display_ctrl_inst|Mux11~0_combout $end
$var wire 1 x" display_ctrl_inst|Mux11~0clkctrl_outclk $end
$var wire 1 y" display_ctrl_inst|Mux0~0_combout $end
$var wire 1 z" display_ctrl_inst|Mux6~0_combout $end
$var wire 1 {" display_ctrl_inst|Mux7~0_combout $end
$var wire 1 |" display_ctrl_inst|Mux8~0_combout $end
$var wire 1 }" display_ctrl_inst|Mux9~0_combout $end
$var wire 1 ~" display_ctrl_inst|Mux10~0_combout $end
$var wire 1 !# display_ctrl_inst|Decoder0~0_combout $end
$var wire 1 "# display_ctrl_inst|Decoder0~1_combout $end
$var wire 1 ## display_ctrl_inst|Decoder0~2_combout $end
$var wire 1 $# display_ctrl_inst|Decoder0~3_combout $end
$var wire 1 %# display_ctrl_inst|Decoder0~4_combout $end
$var wire 1 &# display_ctrl_inst|Decoder0~5_combout $end
$var wire 1 '# display_ctrl_inst|Decoder0~6_combout $end
$var wire 1 (# display_ctrl_inst|Decoder0~7_combout $end
$var wire 1 )# time_control_inst|sec_shi [2] $end
$var wire 1 *# time_control_inst|sec_shi [1] $end
$var wire 1 +# time_control_inst|sec_shi [0] $end
$var wire 1 ,# time_control_inst|sec_ge [3] $end
$var wire 1 -# time_control_inst|sec_ge [2] $end
$var wire 1 .# time_control_inst|sec_ge [1] $end
$var wire 1 /# time_control_inst|sec_ge [0] $end
$var wire 1 0# time_control_inst|min_shi [2] $end
$var wire 1 1# time_control_inst|min_shi [1] $end
$var wire 1 2# time_control_inst|min_shi [0] $end
$var wire 1 3# time_control_inst|min_ge [3] $end
$var wire 1 4# time_control_inst|min_ge [2] $end
$var wire 1 5# time_control_inst|min_ge [1] $end
$var wire 1 6# time_control_inst|min_ge [0] $end
$var wire 1 7# time_control_inst|hour_shi [1] $end
$var wire 1 8# time_control_inst|hour_shi [0] $end
$var wire 1 9# time_control_inst|hour_ge [3] $end
$var wire 1 :# time_control_inst|hour_ge [2] $end
$var wire 1 ;# time_control_inst|hour_ge [1] $end
$var wire 1 <# time_control_inst|hour_ge [0] $end
$var wire 1 =# time_control_inst|cnt_1ms [15] $end
$var wire 1 ># time_control_inst|cnt_1ms [14] $end
$var wire 1 ?# time_control_inst|cnt_1ms [13] $end
$var wire 1 @# time_control_inst|cnt_1ms [12] $end
$var wire 1 A# time_control_inst|cnt_1ms [11] $end
$var wire 1 B# time_control_inst|cnt_1ms [10] $end
$var wire 1 C# time_control_inst|cnt_1ms [9] $end
$var wire 1 D# time_control_inst|cnt_1ms [8] $end
$var wire 1 E# time_control_inst|cnt_1ms [7] $end
$var wire 1 F# time_control_inst|cnt_1ms [6] $end
$var wire 1 G# time_control_inst|cnt_1ms [5] $end
$var wire 1 H# time_control_inst|cnt_1ms [4] $end
$var wire 1 I# time_control_inst|cnt_1ms [3] $end
$var wire 1 J# time_control_inst|cnt_1ms [2] $end
$var wire 1 K# time_control_inst|cnt_1ms [1] $end
$var wire 1 L# time_control_inst|cnt_1ms [0] $end
$var wire 1 M# display_ctrl_inst|sel [7] $end
$var wire 1 N# display_ctrl_inst|sel [6] $end
$var wire 1 O# display_ctrl_inst|sel [5] $end
$var wire 1 P# display_ctrl_inst|sel [4] $end
$var wire 1 Q# display_ctrl_inst|sel [3] $end
$var wire 1 R# display_ctrl_inst|sel [2] $end
$var wire 1 S# display_ctrl_inst|sel [1] $end
$var wire 1 T# display_ctrl_inst|sel [0] $end
$var wire 1 U# display_ctrl_inst|m [10] $end
$var wire 1 V# display_ctrl_inst|m [9] $end
$var wire 1 W# display_ctrl_inst|m [8] $end
$var wire 1 X# display_ctrl_inst|m [7] $end
$var wire 1 Y# display_ctrl_inst|m [6] $end
$var wire 1 Z# display_ctrl_inst|m [5] $end
$var wire 1 [# display_ctrl_inst|m [4] $end
$var wire 1 \# display_ctrl_inst|m [3] $end
$var wire 1 ]# display_ctrl_inst|m [2] $end
$var wire 1 ^# display_ctrl_inst|m [1] $end
$var wire 1 _# display_ctrl_inst|m [0] $end
$var wire 1 `# display_ctrl_inst|display_data [3] $end
$var wire 1 a# display_ctrl_inst|display_data [2] $end
$var wire 1 b# display_ctrl_inst|display_data [1] $end
$var wire 1 c# display_ctrl_inst|display_data [0] $end
$var wire 1 d# display_ctrl_inst|data [7] $end
$var wire 1 e# display_ctrl_inst|data [6] $end
$var wire 1 f# display_ctrl_inst|data [5] $end
$var wire 1 g# display_ctrl_inst|data [4] $end
$var wire 1 h# display_ctrl_inst|data [3] $end
$var wire 1 i# display_ctrl_inst|data [2] $end
$var wire 1 j# display_ctrl_inst|data [1] $end
$var wire 1 k# display_ctrl_inst|data [0] $end
$upscope $end
$upscope $end
$enddefinitions $end
#0
$dumpvars
0!
1"
b10 #
b1 $
b0 %
b11 &
1'
b10 (
b1 )
b0 *
b0 +
b0 ,
b0 -
0.
0/
07
06
05
04
03
02
11
10
0;
0:
09
08
0?
0>
0=
0<
0C
0B
0A
0@
0G
0F
0E
0D
0K
0J
0I
0H
0O
0N
0M
0L
0W
0V
0U
0T
0S
0R
0Q
0P
xX
0Y
1Z
x[
1\
1]
1^
1_
0`
0a
0b
1c
0d
0e
0f
1g
0h
0i
1j
0k
0l
0m
0n
1o
0p
0q
0r
0s
0t
0u
1v
0w
0x
0y
1z
0{
0|
0}
0~
0!!
0"!
0#!
0$!
0%!
0&!
0'!
0(!
0)!
0*!
0+!
0,!
0-!
0.!
0/!
00!
01!
02!
03!
04!
05!
06!
07!
08!
09!
0:!
0;!
0<!
0=!
0>!
0?!
0@!
1A!
1B!
0C!
0D!
0E!
0F!
0G!
0H!
0I!
0J!
0K!
0L!
1M!
0N!
1O!
1P!
0Q!
0R!
1S!
1T!
1U!
1V!
1W!
0X!
0Y!
0Z!
1[!
1\!
0]!
1^!
1_!
0`!
0a!
1b!
0c!
0d!
0e!
0f!
0g!
1h!
0i!
0j!
1k!
0l!
0m!
1n!
0o!
0p!
0q!
1r!
0s!
0t!
0u!
1v!
0w!
0x!
1y!
0z!
0{!
0|!
0}!
1~!
0!"
0""
0#"
0$"
0%"
0&"
0'"
0("
0)"
0*"
0+"
0,"
0-"
0."
0/"
00"
01"
02"
03"
04"
05"
06"
07"
08"
09"
0:"
0;"
0<"
0="
0>"
0?"
0@"
1A"
0B"
0C"
0D"
0E"
0F"
0G"
0H"
0I"
0J"
0K"
1L"
0M"
0N"
0O"
0P"
0Q"
1R"
0S"
0T"
0U"
1V"
0W"
0X"
0Y"
0Z"
1["
0\"
1]"
0^"
0_"
0`"
0a"
0b"
0c"
0d"
0e"
0f"
1g"
0h"
0i"
0j"
1k"
0l"
0m"
0n"
0o"
0p"
0q"
0r"
0s"
0t"
0u"
0v"
1w"
1x"
0y"
0z"
0{"
0|"
0}"
0~"
0!#
1"#
1##
1$#
1%#
1&#
1'#
1(#
0+#
0*#
0)#
0/#
0.#
0-#
0,#
02#
01#
00#
06#
05#
04#
03#
08#
07#
0<#
0;#
0:#
09#
0L#
0K#
0J#
0I#
0H#
0G#
0F#
0E#
0D#
0C#
0B#
0A#
0@#
0?#
0>#
0=#
0T#
0S#
0R#
0Q#
0P#
0O#
0N#
0M#
0_#
0^#
0]#
0\#
0[#
0Z#
zY#
zX#
zW#
zV#
zU#
0c#
0b#
0a#
0`#
0k#
0j#
0i#
0h#
0g#
0f#
1e#
zd#
$end
#1000
1!
1K!
1L!
0X
1L#
1_#
1M#
1N#
1O#
1P#
1Q#
1R#
1S#
1`!
0^!
1d"
0o
1J!
1I!
1H!
1G!
1F!
1E!
1D!
1P
1Q
1R
1S
1T
1U
1V
1a!
0_!
#2000
0!
0K!
0L!
1X
#3000
1!
1K!
1L!
0X
1^#
1K#
0L#
0_#
0b!
0a!
0`!
1^!
1o
1e!
1b!
1a!
1_!
1f!
0e!
0f!
#4000
0!
0K!
0L!
1X
#5000
1!
1K!
1L!
0X
1L#
1_#
1`!
0^!
1e"
0d"
0o
0b!
0a!
0_!
1f"
1e!
1f!
#6000
0!
0K!
0L!
1X
#7000
1!
1K!
1L!
0X
1]#
0^#
1J#
0K#
0L#
0_#
0g"
0f"
0e"
1g!
1c!
0e!
1b!
1a!
0`!
1^!
1o
1h"
1g"
1f"
1z!
1d!
0f!
0c!
1e!
0a!
1_!
0h"
0_!
0d!
#8000
0!
0K!
0L!
1X
#9000
1!
1K!
1L!
0X
1{!
0J#
1_#
1!"
0g!
0e!
1d"
0o
0z!
1_!
#10000
0!
0K!
0L!
1X
#11000
1!
1K!
1L!
0X
1^#
0{!
1L#
0_#
1/#
0!"
1`!
0^!
1o
1""
0~!
1#!
1K
1a!
0_!
1#"
#12000
0!
0K!
0L!
1X
#13000
1!
1K!
1L!
0X
1K#
0L#
1_#
0b!
0a!
0`!
1^!
1e"
0d"
0o
1e!
1b!
1a!
1_!
0g"
0f"
1f!
0e!
1h"
0f!
#14000
0!
0K!
0L!
1X
#15000
1!
1K!
1L!
0X
1\#
0]#
0^#
1L#
0_#
0"#
1!#
1i"
0h"
1g"
1f"
0e"
1`!
0^!
1o
1j"
0i"
1h"
0f"
0b!
0a!
0_!
0j"
1e!
1f!
#16000
0!
0K!
0L!
1X
#17000
1!
1K!
1L!
0X
1J#
0K#
0L#
1_#
0S#
1T#
1g!
1c!
0e!
1b!
1a!
0`!
1^!
1d"
0o
0D!
1C!
0V
1W
1z!
1d!
0f!
0c!
1e!
0a!
1_!
0_!
0d!
#18000
0!
0K!
0L!
1X
#19000
1!
1K!
1L!
0X
1^#
1{!
0J#
0_#
1!"
0g!
0e!
1o
0z!
1_!
#20000
0!
0K!
0L!
1X
#21000
1!
1K!
1L!
0X
0{!
1L#
1_#
1.#
0/#
0!"
1`!
0^!
1e"
0d"
0o
1~!
1$!
0#!
1J
0K
1a!
0_!
1f"
#22000
0!
0K!
0L!
1X
#23000
1!
1K!
1L!
0X
1]#
0^#
1K#
0L#
0_#
0g"
0f"
0e"
0b!
0a!
0`!
1^!
1o
1i"
0h"
1g"
1f"
1e!
1b!
1a!
1_!
1j"
0i"
1h"
1f!
0e!
0j"
0f!
#24000
0!
0K!
0L!
1X
#25000
1!
1K!
1L!
0X
1L#
1_#
1`!
0^!
1d"
0o
0b!
0a!
0_!
1e!
1f!
#26000
0!
0K!
0L!
1X
#27000
1!
1K!
1L!
0X
1^#
1J#
0K#
0L#
0_#
1g!
1c!
0e!
1b!
1a!
0`!
1^!
1o
1z!
1d!
0f!
0c!
1e!
0a!
1_!
0_!
0d!
#28000
0!
0K!
0L!
1X
#29000
1!
1K!
1L!
0X
1{!
0J#
1_#
1!"
0g!
0e!
1e"
0d"
0o
0z!
0g"
0f"
1_!
1i"
0h"
1j"
#30000
0!
0K!
0L!
1X
#31000
1!
1K!
1L!
0X
1[#
0\#
0]#
0^#
0{!
1L#
0_#
1/#
0##
1"#
0k"
0j"
0i"
1h"
1g"
1f"
0e"
0!"
1`!
0^!
1o
1$"
0""
0~!
1#!
1K
1l"
1k"
1j"
0h"
0f"
1a!
0_!
1%"
0#"
0l"
#32000
0!
0K!
0L!
1X
#33000
1!
1K!
1L!
0X
1K#
0L#
1_#
0R#
1S#
0b!
0a!
0`!
1^!
1d"
0o
0E!
1D!
0U
1V
1e!
1b!
1a!
1_!
1f!
0e!
0f!
#34000
0!
0K!
0L!
1X
#35000
1!
1K!
1L!
0X
1^#
1L#
0_#
1`!
0^!
1o
0b!
0a!
0_!
1e!
1f!
#36000
0!
0K!
0L!
1X
#37000
1!
1K!
1L!
0X
1J#
0K#
0L#
1_#
1g!
1c!
0e!
1b!
1a!
0`!
1^!
1e"
0d"
0o
1z!
1d!
0f!
0c!
1e!
0a!
1_!
1f"
0_!
0d!
#38000
0!
0K!
0L!
1X
#39000
1!
1K!
1L!
0X
1]#
0^#
1{!
0J#
0_#
0g"
0f"
0e"
1!"
0g!
0e!
1o
1h"
1g"
1f"
0z!
0h"
1_!
#40000
0!
0K!
0L!
1X
#41000
1!
1K!
1L!
0X
0{!
1L#
1_#
1-#
0.#
0/#
0!"
1`!
0^!
1d"
0o
1~!
1%!
0$!
0#!
1I
0J
0K
1a!
0_!
#42000
0!
0K!
0L!
1X
#43000
1!
1K!
1L!
0X
1^#
1K#
0L#
0_#
0b!
0a!
0`!
1^!
1o
1e!
1b!
1a!
1_!
1f!
0e!
0f!
#44000
0!
0K!
0L!
1X
#45000
1!
1K!
1L!
0X
1L#
1_#
1`!
0^!
1e"
0d"
0o
0b!
0a!
0_!
0g"
0f"
1e!
1h"
1f!
#46000
0!
0K!
0L!
1X
#47000
1!
1K!
1L!
0X
1\#
0]#
0^#
1J#
0K#
0L#
0_#
0$#
1##
1q"
1m"
1i"
0h"
1k
1g"
1f"
0e"
1g!
1c!
0e!
1b!
1a!
0`!
1^!
1o
1n"
0k"
0j"
0i"
1h"
0f"
1z!
1d!
0f!
0c!
1e!
0a!
1_!
1l"
1k"
1j"
0_!
0d!
0l"
#48000
0!
0K!
0L!
1X
#49000
1!
1K!
1L!
0X
1{!
0J#
1_#
0Q#
1R#
1!"
0g!
0e!
1d"
0o
0F!
1E!
0T
1U
0z!
1_!
#50000
0!
0K!
0L!
1X
#51000
1!
1K!
1L!
0X
1^#
0{!
1L#
0_#
1/#
0!"
1`!
0^!
1o
1""
0~!
1l
1#!
1K
1a!
0_!
1#"
#52000
0!
0K!
0L!
1X
#53000
1!
1K!
1L!
0X
1K#
0L#
1_#
0b!
0a!
0`!
1^!
1e"
0d"
0o
1e!
1b!
1a!
1_!
1f"
1f!
0e!
0f!
#54000
0!
0K!
0L!
1X
#55000
1!
1K!
1L!
0X
1]#
0^#
1L#
0_#
0g"
0f"
0e"
1`!
0^!
1o
1i"
0h"
1g"
1f"
0b!
0a!
0_!
0k"
0j"
0i"
1h"
1e!
1l"
1k"
1j"
1f!
0l"
#56000
0!
0K!
0L!
1X
#57000
1!
1K!
1L!
0X
1J#
0K#
0L#
1_#
1g!
1c!
0e!
1b!
1a!
0`!
1^!
1d"
0o
1z!
1d!
0f!
0c!
1e!
0a!
1_!
0_!
0d!
#58000
0!
0K!
0L!
1X
#59000
1!
1K!
1L!
0X
1^#
1{!
0J#
0_#
1!"
0g!
0e!
1o
0z!
1_!
#60000
0!
0K!
0L!
1X
#61000
1!
1K!
1L!
0X
0{!
1L#
1_#
1.#
0/#
0!"
1`!
0^!
1e"
0d"
0o
1r"
1~!
0l
1$!
0#!
1J
0K
1a!
0_!
0g"
0f"
1i"
0h"
0k"
0j"
1l"
#62000
0!
0K!
0L!
1X
#63000
1!
1K!
1L!
0X
1Z#
0[#
0\#
0]#
0^#
1K#
0L#
0_#
0%#
1$#
1s"
1o"
0l"
0q"
0m"
1k"
1j"
0k
0i"
1h"
1l
1g"
1f"
0e"
0b!
0a!
0`!
1^!
1o
0r"
0n"
1l"
0l
0j"
1n
0h"
0f"
1e!
1b!
1a!
1_!
0s"
0o"
0n
1f!
0e!
0f!
#64000
0!
0K!
0L!
1X
#65000
1!
1K!
1L!
0X
1L#
1_#
0P#
1Q#
1`!
0^!
1d"
0o
0G!
1F!
0S
1T
0b!
0a!
0_!
1e!
1f!
#66000
0!
0K!
0L!
1X
#67000
1!
1K!
1L!
0X
1^#
1J#
0K#
0L#
0_#
1g!
1c!
0e!
1b!
1a!
0`!
1^!
1o
1z!
1d!
0f!
0c!
1e!
0a!
1_!
0_!
0d!
#68000
0!
0K!
0L!
1X
#69000
1!
1K!
1L!
0X
1{!
0J#
1_#
1!"
0g!
0e!
1e"
0d"
0o
0z!
1f"
1_!
#70000
0!
0K!
0L!
1X
#71000
1!
1K!
1L!
0X
1]#
0^#
0{!
1L#
0_#
1/#
0g"
0f"
0e"
0!"
1`!
0^!
1o
1b"
0$"
0""
0~!
1#!
1K
1h"
1g"
1f"
1a!
0_!
1c"
0%"
0#"
0h"
