simulation/qsim/Digital_Clock.msim.vcd
$comment
	File created using the following command:
		vcd file Digital_Clock.msim.vcd -direction
$end
$date
	Thu Oct 20 19:17:28 2022
$end
$version
	ModelSim Version 10.1d
$end
$timescale
	1ps
$end
$scope module TOP_vlg_vec_tst $end
$var reg 1 ! clk $end
$var reg 1 " clock_en $end
$var reg 4 # clock_hour_ge [3:0] $end
$var reg 4 $ clock_hour_shi [3:0] $end
$var reg 4 % clock_min_ge [3:0] $end
$var reg 4 & clock_min_shi [3:0] $end
$var reg 1 ' rst_n $end
$var reg 1 ( set_time_finish $end
$var wire 1 ) clock_out $end
$var wire 1 * hour_ge_r [3] $end
$var wire 1 + hour_ge_r [2] $end
$var wire 1 , hour_ge_r [1] $end
$var wire 1 - hour_ge_r [0] $end
$var wire 1 . hour_shi_r [3] $end
$var wire 1 / hour_shi_r [2] $end
$var wire 1 0 hour_shi_r [1] $end
$var wire 1 1 hour_shi_r [0] $end
$var wire 1 2 min_ge_r [3] $end
$var wire 1 3 min_ge_r [2] $end
$var wire 1 4 min_ge_r [1] $end
$var wire 1 5 min_ge_r [0] $end
$var wire 1 6 min_shi_r [3] $end
$var wire 1 7 min_shi_r [2] $end
$var wire 1 8 min_shi_r [1] $end
$var wire 1 9 min_shi_r [0] $end
$var wire 1 : out_hour_ge_seg [6] $end
$var wire 1 ; out_hour_ge_seg [5] $end
$var wire 1 < out_hour_ge_seg [4] $end
$var wire 1 = out_hour_ge_seg [3] $end
$var wire 1 > out_hour_ge_seg [2] $end
$var wire 1 ? out_hour_ge_seg [1] $end
$var wire 1 @ out_hour_ge_seg [0] $end
$var wire 1 A out_hour_shi_seg [6] $end
$var wire 1 B out_hour_shi_seg [5] $end
$var wire 1 C out_hour_shi_seg [4] $end
$var wire 1 D out_hour_shi_seg [3] $end
$var wire 1 E out_hour_shi_seg [2] $end
$var wire 1 F out_hour_shi_seg [1] $end
$var wire 1 G out_hour_shi_seg [0] $end
$var wire 1 H out_min_ge_seg [6] $end
$var wire 1 I out_min_ge_seg [5] $end
$var wire 1 J out_min_ge_seg [4] $end
$var wire 1 K out_min_ge_seg [3] $end
$var wire 1 L out_min_ge_seg [2] $end
$var wire 1 M out_min_ge_seg [1] $end
$var wire 1 N out_min_ge_seg [0] $end
$var wire 1 O out_min_shi_seg [6] $end
$var wire 1 P out_min_shi_seg [5] $end
$var wire 1 Q out_min_shi_seg [4] $end
$var wire 1 R out_min_shi_seg [3] $end
$var wire 1 S out_min_shi_seg [2] $end
$var wire 1 T out_min_shi_seg [1] $end
$var wire 1 U out_min_shi_seg [0] $end
$var wire 1 V out_sec_ge_seg [6] $end
$var wire 1 W out_sec_ge_seg [5] $end
$var wire 1 X out_sec_ge_seg [4] $end
$var wire 1 Y out_sec_ge_seg [3] $end
$var wire 1 Z out_sec_ge_seg [2] $end
$var wire 1 [ out_sec_ge_seg [1] $end
$var wire 1 \ out_sec_ge_seg [0] $end
$var wire 1 ] out_sec_shi_seg [6] $end
$var wire 1 ^ out_sec_shi_seg [5] $end
$var wire 1 _ out_sec_shi_seg [4] $end
$var wire 1 ` out_sec_shi_seg [3] $end
$var wire 1 a out_sec_shi_seg [2] $end
$var wire 1 b out_sec_shi_seg [1] $end
$var wire 1 c out_sec_shi_seg [0] $end
$var wire 1 d sec_ge_r [3] $end
$var wire 1 e sec_ge_r [2] $end
$var wire 1 f sec_ge_r [1] $end
$var wire 1 g sec_ge_r [0] $end
$var wire 1 h sec_shi_r [3] $end
$var wire 1 i sec_shi_r [2] $end
$var wire 1 j sec_shi_r [1] $end
$var wire 1 k sec_shi_r [0] $end
$var wire 1 l sampler $end
$scope module i1 $end
$var wire 1 m gnd $end
$var wire 1 n vcc $end
$var wire 1 o unknown $end
$var tri1 1 p devclrn $end
$var tri1 1 q devpor $end
$var tri1 1 r devoe $end
$var wire 1 s time_control_inst|Add0~6_combout $end
$var wire 1 t time_control_inst|Add0~12_combout $end
$var wire 1 u time_control_inst|Add0~16_combout $end
$var wire 1 v time_control_inst|Add0~23 $end
$var wire 1 w time_control_inst|Add0~24_combout $end
$var wire 1 x time_control_inst|Add0~25 $end
$var wire 1 y time_control_inst|Add0~26_combout $end
$var wire 1 z time_control_inst|Add0~27 $end
$var wire 1 { time_control_inst|Add0~28_combout $end
$var wire 1 | time_control_inst|Add0~29 $end
$var wire 1 } time_control_inst|Add0~30_combout $end
$var wire 1 ~ time_control_inst|clock_out~0_combout $end
$var wire 1 !! time_control_inst|clock_out~1_combout $end
$var wire 1 "! time_control_inst|clock_out~2_combout $end
$var wire 1 #! time_control_inst|clock_out~3_combout $end
$var wire 1 $! time_control_inst|clock_out~4_combout $end
$var wire 1 %! time_control_inst|hour_ge[3]~3_combout $end
$var wire 1 &! time_control_inst|Equal0~0_combout $end
$var wire 1 '! rst_n~combout $end
$var wire 1 (! clock_en~combout $end
$var wire 1 )! time_control_inst|min_ge~0_combout $end
$var wire 1 *! rst_n~clk_delay_ctrl_clkout $end
$var wire 1 +! rst_n~clkctrl_outclk $end
$var wire 1 ,! set_time_finish~combout $end
$var wire 1 -! time_control_inst|sec_shi~0_combout $end
$var wire 1 .! time_control_inst|Add0~1 $end
$var wire 1 /! time_control_inst|Add0~2_combout $end
$var wire 1 0! time_control_inst|Add0~3 $end
$var wire 1 1! time_control_inst|Add0~4_combout $end
$var wire 1 2! time_control_inst|cnt_1ms~0_combout $end
$var wire 1 3! time_control_inst|Add0~5 $end
$var wire 1 4! time_control_inst|Add0~7 $end
$var wire 1 5! time_control_inst|Add0~8_combout $end
$var wire 1 6! time_control_inst|Add0~9 $end
$var wire 1 7! time_control_inst|Add0~11 $end
$var wire 1 8! time_control_inst|Add0~13 $end
$var wire 1 9! time_control_inst|Add0~14_combout $end
$var wire 1 :! time_control_inst|Add0~15 $end
$var wire 1 ;! time_control_inst|Add0~17 $end
$var wire 1 <! time_control_inst|Add0~18_combout $end
$var wire 1 =! time_control_inst|Add0~19 $end
$var wire 1 >! time_control_inst|Add0~21 $end
$var wire 1 ?! time_control_inst|Add0~22_combout $end
$var wire 1 @! time_control_inst|Add0~20_combout $end
$var wire 1 A! time_control_inst|Equal0~1_combout $end
$var wire 1 B! time_control_inst|Add0~0_combout $end
$var wire 1 C! time_control_inst|cnt_1ms~1_combout $end
$var wire 1 D! time_control_inst|Equal0~3_combout $end
$var wire 1 E! time_control_inst|Add0~10_combout $end
$var wire 1 F! time_control_inst|Equal0~2_combout $end
$var wire 1 G! time_control_inst|Equal0~4_combout $end
$var wire 1 H! time_control_inst|flag_1ms~feeder_combout $end
$var wire 1 I! time_control_inst|flag_1ms~regout $end
$var wire 1 J! time_control_inst|sec_ge~2_combout $end
$var wire 1 K! time_control_inst|sec_ge[0]~3_combout $end
$var wire 1 L! time_control_inst|sec_ge~6_combout $end
$var wire 1 M! time_control_inst|Add1~0_combout $end
$var wire 1 N! time_control_inst|sec_ge~5_combout $end
$var wire 1 O! time_control_inst|Equal1~0_combout $end
$var wire 1 P! time_control_inst|flag_sec_ge~0_combout $end
$var wire 1 Q! time_control_inst|flag_sec_ge~regout $end
$var wire 1 R! time_control_inst|sec_shi[0]~1_combout $end
$var wire 1 S! time_control_inst|sec_shi~2_combout $end
$var wire 1 T! time_control_inst|sec_shi~3_combout $end
$var wire 1 U! time_control_inst|flag_sec_shi~0_combout $end
$var wire 1 V! time_control_inst|flag_sec_shi~regout $end
$var wire 1 W! time_control_inst|min_ge[1]~1_combout $end
$var wire 1 X! time_control_inst|hour_ge~0_combout $end
$var wire 1 Y! time_control_inst|min_ge~2_combout $end
$var wire 1 Z! time_control_inst|Add3~0_combout $end
$var wire 1 [! time_control_inst|min_ge~3_combout $end
$var wire 1 \! time_control_inst|Equal3~0_combout $end
$var wire 1 ]! time_control_inst|flag_min_ge~0_combout $end
$var wire 1 ^! time_control_inst|flag_min_ge~regout $end
$var wire 1 _! time_control_inst|min_shi~0_combout $end
$var wire 1 `! time_control_inst|min_shi[2]~1_combout $end
$var wire 1 a! time_control_inst|min_shi~3_combout $end
$var wire 1 b! time_control_inst|min_shi~2_combout $end
$var wire 1 c! time_control_inst|flag_min_shi~0_combout $end
$var wire 1 d! time_control_inst|flag_min_shi~regout $end
$var wire 1 e! time_control_inst|hour_ge[3]~1_combout $end
$var wire 1 f! time_control_inst|Add5~0_combout $end
$var wire 1 g! time_control_inst|hour_shi~2_combout $end
$var wire 1 h! time_control_inst|Add5~1_combout $end
$var wire 1 i! time_control_inst|hour_ge~5_combout $end
$var wire 1 j! time_control_inst|flag_hour_ge~2_combout $end
$var wire 1 k! time_control_inst|flag_hour_ge~regout $end
$var wire 1 l! time_control_inst|hour_shi[1]~1_combout $end
$var wire 1 m! time_control_inst|hour_shi~0_combout $end
$var wire 1 n! time_control_inst|hour_ge[3]~2_combout $end
$var wire 1 o! time_control_inst|hour_ge~4_combout $end
$var wire 1 p! time_control_inst|Add5~2_combout $end
$var wire 1 q! time_control_inst|hour_ge~6_combout $end
$var wire 1 r! time_control_inst|clock_out~5_combout $end
$var wire 1 s! time_control_inst|clock_out~6_combout $end
$var wire 1 t! time_control_inst|min_ge~4_combout $end
$var wire 1 u! time_control_inst|min_ge~5_combout $end
$var wire 1 v! time_control_inst|clock_out~7_combout $end
$var wire 1 w! time_control_inst|clock_out~8_combout $end
$var wire 1 x! time_control_inst|clock_out~9_combout $end
$var wire 1 y! time_control_inst|clock_out~regout $end
$var wire 1 z! time_control_inst|parity_cnt[0]~3_combout $end
$var wire 1 {! time_control_inst|parity_cnt[0]~1_combout $end
$var wire 1 |! time_control_inst|parity_cnt[0]~0_combout $end
$var wire 1 }! time_control_inst|parity_cnt[0]~2_combout $end
$var wire 1 ~! time_control_inst|clock_out_h~regout $end
$var wire 1 !" time_control_inst|clock_out_w~combout $end
$var wire 1 "" clk~combout $end
$var wire 1 #" clk~clkctrl_outclk $end
$var wire 1 $" time_control_inst|sec_ge~4_combout $end
$var wire 1 %" display_ctrl_inst|Mux6~0_combout $end
$var wire 1 &" display_ctrl_inst|out_sec_ge[3]~0_combout $end
$var wire 1 '" display_ctrl_inst|Mux5~0_combout $end
$var wire 1 (" display_ctrl_inst|Mux4~0_combout $end
$var wire 1 )" display_ctrl_inst|Mux3~0_combout $end
$var wire 1 *" display_ctrl_inst|Mux2~0_combout $end
$var wire 1 +" display_ctrl_inst|Mux1~0_combout $end
$var wire 1 ," display_ctrl_inst|Mux0~0_combout $end
$var wire 1 -" display_ctrl_inst|Mux13~0_combout $end
$var wire 1 ." display_ctrl_inst|Mux12~0_combout $end
$var wire 1 /" display_ctrl_inst|Mux11~0_combout $end
$var wire 1 0" display_ctrl_inst|Mux10~0_combout $end
$var wire 1 1" display_ctrl_inst|Mux9~0_combout $end
$var wire 1 2" display_ctrl_inst|Mux8~0_combout $end
$var wire 1 3" display_ctrl_inst|Mux7~0_combout $end
$var wire 1 4" display_ctrl_inst|Mux20~0_combout $end
$var wire 1 5" display_ctrl_inst|out_min_ge[6]~0_combout $end
$var wire 1 6" display_ctrl_inst|Mux19~0_combout $end
$var wire 1 7" display_ctrl_inst|Mux18~0_combout $end
$var wire 1 8" display_ctrl_inst|Mux17~0_combout $end
$var wire 1 9" display_ctrl_inst|Mux16~0_combout $end
$var wire 1 :" display_ctrl_inst|Mux15~0_combout $end
$var wire 1 ;" display_ctrl_inst|Mux14~0_combout $end
$var wire 1 <" display_ctrl_inst|Mux27~0_combout $end
$var wire 1 =" display_ctrl_inst|Mux26~0_combout $end
$var wire 1 >" display_ctrl_inst|Mux25~0_combout $end
$var wire 1 ?" display_ctrl_inst|Mux24~0_combout $end
$var wire 1 @" display_ctrl_inst|Mux23~0_combout $end
$var wire 1 A" display_ctrl_inst|Mux22~0_combout $end
$var wire 1 B" display_ctrl_inst|Mux21~0_combout $end
$var wire 1 C" display_ctrl_inst|Mux34~0_combout $end
$var wire 1 D" display_ctrl_inst|out_hour_ge[6]~0_combout $end
$var wire 1 E" display_ctrl_inst|Mux33~0_combout $end
$var wire 1 F" display_ctrl_inst|Mux32~0_combout $end
$var wire 1 G" display_ctrl_inst|Mux31~0_combout $end
$var wire 1 H" display_ctrl_inst|Mux30~0_combout $end
$var wire 1 I" display_ctrl_inst|Mux29~0_combout $end
$var wire 1 J" display_ctrl_inst|Mux28~0_combout $end
$var wire 1 K" display_ctrl_inst|Mux36~0_combout $end
$var wire 1 L" display_ctrl_inst|Mux36~1_combout $end
$var wire 1 M" time_control_inst|hour_shi~3_combout $end
$var wire 1 N" display_ctrl_inst|out_hour_shi[6]~0_combout $end
$var wire 1 O" time_control_inst|sec_shi [2] $end
$var wire 1 P" time_control_inst|sec_shi [1] $end
$var wire 1 Q" time_control_inst|sec_shi [0] $end
$var wire 1 R" time_control_inst|sec_ge [3] $end
$var wire 1 S" time_control_inst|sec_ge [2] $end
$var wire 1 T" time_control_inst|sec_ge [1] $end
$var wire 1 U" time_control_inst|sec_ge [0] $end
$var wire 1 V" time_control_inst|parity_cnt [3] $end
$var wire 1 W" time_control_inst|parity_cnt [2] $end
$var wire 1 X" time_control_inst|parity_cnt [1] $end
$var wire 1 Y" time_control_inst|parity_cnt [0] $end
$var wire 1 Z" time_control_inst|min_shi [2] $end
$var wire 1 [" time_control_inst|min_shi [1] $end
$var wire 1 \" time_control_inst|min_shi [0] $end
$var wire 1 ]" time_control_inst|min_ge [3] $end
$var wire 1 ^" time_control_inst|min_ge [2] $end
$var wire 1 _" time_control_inst|min_ge [1] $end
$var wire 1 `" time_control_inst|min_ge [0] $end
$var wire 1 a" time_control_inst|hour_shi [1] $end
$var wire 1 b" time_control_inst|hour_shi [0] $end
$var wire 1 c" time_control_inst|hour_ge [3] $end
$var wire 1 d" time_control_inst|hour_ge [2] $end
$var wire 1 e" time_control_inst|hour_ge [1] $end
$var wire 1 f" time_control_inst|hour_ge [0] $end
$var wire 1 g" time_control_inst|cnt_1ms [15] $end
$var wire 1 h" time_control_inst|cnt_1ms [14] $end
$var wire 1 i" time_control_inst|cnt_1ms [13] $end
$var wire 1 j" time_control_inst|cnt_1ms [12] $end
$var wire 1 k" time_control_inst|cnt_1ms [11] $end
$var wire 1 l" time_control_inst|cnt_1ms [10] $end
$var wire 1 m" time_control_inst|cnt_1ms [9] $end
$var wire 1 n" time_control_inst|cnt_1ms [8] $end
$var wire 1 o" time_control_inst|cnt_1ms [7] $end
$var wire 1 p" time_control_inst|cnt_1ms [6] $end
$var wire 1 q" time_control_inst|cnt_1ms [5] $end
$var wire 1 r" time_control_inst|cnt_1ms [4] $end
$var wire 1 s" time_control_inst|cnt_1ms [3] $end
$var wire 1 t" time_control_inst|cnt_1ms [2] $end
$var wire 1 u" time_control_inst|cnt_1ms [1] $end
$var wire 1 v" time_control_inst|cnt_1ms [0] $end
$var wire 1 w" display_ctrl_inst|out_sec_shi [6] $end
$var wire 1 x" display_ctrl_inst|out_sec_shi [5] $end
$var wire 1 y" display_ctrl_inst|out_sec_shi [4] $end
$var wire 1 z" display_ctrl_inst|out_sec_shi [3] $end
$var wire 1 {" display_ctrl_inst|out_sec_shi [2] $end
$var wire 1 |" display_ctrl_inst|out_sec_shi [1] $end
$var wire 1 }" display_ctrl_inst|out_sec_shi [0] $end
$var wire 1 ~" display_ctrl_inst|out_sec_ge [6] $end
$var wire 1 !# display_ctrl_inst|out_sec_ge [5] $end
$var wire 1 "# display_ctrl_inst|out_sec_ge [4] $end
$var wire 1 ## display_ctrl_inst|out_sec_ge [3] $end
$var wire 1 $# display_ctrl_inst|out_sec_ge [2] $end
$var wire 1 %# display_ctrl_inst|out_sec_ge [1] $end
$var wire 1 &# display_ctrl_inst|out_sec_ge [0] $end
$var wire 1 '# display_ctrl_inst|out_min_shi [6] $end
$var wire 1 (# display_ctrl_inst|out_min_shi [5] $end
$var wire 1 )# display_ctrl_inst|out_min_shi [4] $end
$var wire 1 *# display_ctrl_inst|out_min_shi [3] $end
$var wire 1 +# display_ctrl_inst|out_min_shi [2] $end
$var wire 1 ,# display_ctrl_inst|out_min_shi [1] $end
$var wire 1 -# display_ctrl_inst|out_min_shi [0] $end
$var wire 1 .# display_ctrl_inst|out_min_ge [6] $end
$var wire 1 /# display_ctrl_inst|out_min_ge [5] $end
$var wire 1 0# display_ctrl_inst|out_min_ge [4] $end
$var wire 1 1# display_ctrl_inst|out_min_ge [3] $end
$var wire 1 2# display_ctrl_inst|out_min_ge [2] $end
$var wire 1 3# display_ctrl_inst|out_min_ge [1] $end
$var wire 1 4# display_ctrl_inst|out_min_ge [0] $end
$var wire 1 5# display_ctrl_inst|out_hour_shi [6] $end
$var wire 1 6# display_ctrl_inst|out_hour_shi [5] $end
$var wire 1 7# display_ctrl_inst|out_hour_shi [4] $end
$var wire 1 8# display_ctrl_inst|out_hour_shi [3] $end
$var wire 1 9# display_ctrl_inst|out_hour_shi [2] $end
$var wire 1 :# display_ctrl_inst|out_hour_shi [1] $end
$var wire 1 ;# display_ctrl_inst|out_hour_shi [0] $end
$var wire 1 <# display_ctrl_inst|out_hour_ge [6] $end
$var wire 1 =# display_ctrl_inst|out_hour_ge [5] $end
$var wire 1 ># display_ctrl_inst|out_hour_ge [4] $end
$var wire 1 ?# display_ctrl_inst|out_hour_ge [3] $end
$var wire 1 @# display_ctrl_inst|out_hour_ge [2] $end
$var wire 1 A# display_ctrl_inst|out_hour_ge [1] $end
$var wire 1 B# display_ctrl_inst|out_hour_ge [0] $end
$var wire 1 C# clock_min_ge~combout [3] $end
$var wire 1 D# clock_min_ge~combout [2] $end
$var wire 1 E# clock_min_ge~combout [1] $end
$var wire 1 F# clock_min_ge~combout [0] $end
$var wire 1 G# clock_hour_shi~combout [3] $end
$var wire 1 H# clock_hour_shi~combout [2] $end
$var wire 1 I# clock_hour_shi~combout [1] $end
$var wire 1 J# clock_hour_shi~combout [0] $end
$var wire 1 K# clock_hour_ge~combout [3] $end
$var wire 1 L# clock_hour_ge~combout [2] $end
$var wire 1 M# clock_hour_ge~combout [1] $end
$var wire 1 N# clock_hour_ge~combout [0] $end
$var wire 1 O# clock_min_shi~combout [3] $end
$var wire 1 P# clock_min_shi~combout [2] $end
$var wire 1 Q# clock_min_shi~combout [1] $end
$var wire 1 R# clock_min_shi~combout [0] $end
$upscope $end
$upscope $end
$enddefinitions $end
#0
$dumpvars
0!
1"
b11 #
b1 $
b0 %
b0 &
1'
1(
0)
0-
0,
0+
0*
01
00
0/
0.
05
04
03
02
09
08
07
06
0@
0?
0>
0=
0<
0;
0:
0G
0F
0E
0D
0C
0B
0A
0N
0M
0L
0K
0J
0I
0H
0U
0T
0S
0R
0Q
0P
0O
0\
0[
0Z
0Y
0X
0W
0V
0c
0b
0a
0`
0_
0^
0]
0g
0f
0e
0d
0k
0j
0i
0h
xl
0m
1n
xo
1p
1q
1r
0s
0t
0u
1v
0w
0x
0y
1z
0{
0|
0}
0~
1!!
0"!
0#!
0$!
0%!
1&!
1'!
1(!
1)!
1*!
1+!
1,!
1-!
0.!
0/!
10!
01!
02!
03!
14!
05!
06!
17!
08!
09!
1:!
0;!
0<!
1=!
0>!
0?!
0@!
1A!
1B!
1C!
0D!
0E!
1F!
0G!
0H!
0I!
1J!
0K!
0L!
0M!
0N!
0O!
0P!
0Q!
0R!
0S!
0T!
0U!
0V!
0W!
1X!
0Y!
0Z!
0[!
0\!
0]!
0^!
1_!
0`!
0a!
0b!
0c!
0d!
0e!
0f!
0g!
0h!
0i!
0j!
0k!
0l!
1m!
0n!
0o!
0p!
0q!
1r!
1s!
0t!
0u!
0v!
1w!
0x!
0y!
0z!
0{!
0|!
0}!
0~!
0!"
0""
0#"
0$"
0%"
1&"
0'"
0("
0)"
0*"
0+"
1,"
0-"
0."
0/"
00"
01"
02"
13"
04"
15"
06"
07"
08"
09"
0:"
1;"
0<"
0="
0>"
0?"
0@"
0A"
1B"
0C"
1D"
0E"
0F"
0G"
0H"
0I"
1J"
0K"
0L"
0M"
1N"
0Q"
0P"
0O"
0U"
0T"
0S"
0R"
0Y"
zX"
zW"
zV"
0\"
0["
0Z"
0`"
0_"
0^"
0]"
0b"
0a"
0f"
0e"
0d"
0c"
0v"
0u"
0t"
0s"
0r"
0q"
0p"
0o"
0n"
0m"
0l"
0k"
0j"
0i"
0h"
0g"
0}"
0|"
0{"
0z"
0y"
0x"
0w"
0&#
0%#
0$#
0##
0"#
0!#
0~"
0-#
0,#
0+#
0*#
0)#
0(#
0'#
04#
03#
02#
01#
00#
0/#
0.#
0;#
z:#
09#
08#
07#
06#
05#
0B#
0A#
0@#
0?#
0>#
0=#
0<#
0F#
0E#
0D#
0C#
1J#
0I#
0H#
0G#
1N#
1M#
0L#
0K#
0R#
0Q#
0P#
0O#
$end
#1000
1!
1""
1#"
0l
15#
1<#
1'#
1.#
1w"
1~"
1v"
1.!
0B!
1A
1:
1O
1H
1]
1V
1/!
0C!
#2000
0!
0""
0#"
1l
#3000
1!
1""
1#"
0l
0v"
1u"
0.!
1B!
00!
0/!
10!
1/!
1C!
11!
01!
12!
02!
#4000
0!
0""
0#"
1l
#5000
1!
1""
1#"
0l
1v"
1.!
0B!
00!
0/!
0C!
11!
12!
#6000
0!
0""
0#"
1l
#7000
1!
1""
1#"
0l
0v"
1t"
0u"
1D!
0.!
1B!
13!
01!
10!
1/!
1G!
0/!
1C!
1s
02!
03!
11!
1H!
0C!
0s
#8000
0!
0""
0#"
1l
#9000
1!
1""
1#"
0l
1I!
0t"
1K!
0D!
01!
0G!
0H!
1C!
#10000
0!
0""
0#"
1l
#11000
1!
1""
1#"
0l
1U"
0I!
1v"
1+"
1*"
1)"
1%"
1$"
0J!
0K!
1.!
0B!
1g
1/!
0C!
#12000
0!
0""
0#"
1l
#13000
1!
1""
1#"
0l
1!#
1"#
1##
1&#
0v"
1u"
0.!
1B!
00!
0/!
1W
1X
1Y
1\
10!
1/!
1C!
11!
01!
12!
02!
#14000
0!
0""
0#"
1l
#15000
1!
1""
1#"
0l
1v"
1.!
0B!
00!
0/!
0C!
11!
12!
#16000
0!
0""
0#"
1l
#17000
1!
1""
1#"
0l
0v"
1t"
0u"
1D!
0.!
1B!
13!
01!
10!
1/!
1G!
0/!
1C!
1s
02!
03!
11!
1H!
0C!
0s
#18000
0!
0""
0#"
1l
#19000
1!
1""
1#"
0l
1I!
0t"
1K!
0D!
01!
0G!
0H!
1C!
#20000
0!
0""
0#"
1l
#21000
1!
1""
1#"
0l
1T"
0U"
0I!
1v"
0,"
0*"
0)"
1("
0%"
1J!
0K!
1.!
0B!
1f
0g
1/!
0C!
#22000
0!
0""
0#"
1l
#23000
1!
1""
1#"
0l
0~"
0"#
0##
1$#
0&#
0v"
1u"
0.!
1B!
00!
0/!
0V
0X
0Y
1Z
0\
10!
1/!
1C!
11!
01!
12!
02!
#24000
0!
0""
0#"
1l
#25000
1!
1""
1#"
0l
1v"
1.!
0B!
00!
0/!
0C!
11!
12!
#26000
0!
0""
0#"
1l
#27000
1!
1""
1#"
0l
0v"
1t"
0u"
1D!
0.!
1B!
13!
01!
10!
1/!
1G!
0/!
1C!
1s
02!
03!
11!
1H!
0C!
0s
#28000
0!
0""
0#"
1l
#29000
1!
1""
1#"
0l
1I!
0t"
1K!
0D!
01!
0G!
0H!
1C!
#30000
0!
0""
0#"
1l
#31000
1!
1""
1#"
0l
1U"
0I!
1v"
1*"
0("
0$"
1L!
0J!
0K!
1.!
0B!
1g
1/!
0C!
#32000
0!
0""
0#"
1l
#33000
1!
1""
1#"
0l
1"#
0$#
0v"
1u"
0.!
1B!
00!
0/!
1X
0Z
10!
1/!
1C!
11!
01!
12!
02!
#34000
0!
0""
0#"
1l
#35000
1!
1""
1#"
0l
1v"
1.!
0B!
00!
0/!
0C!
11!
12!
#36000
0!
0""
0#"
1l
#37000
1!
1""
1#"
0l
0v"
1t"
0u"
1D!
0.!
1B!
13!
01!
10!
1/!
1G!
0/!
1C!
1s
02!
03!
11!
1H!
0C!
0s
#38000
0!
0""
0#"
1l
#39000
1!
1""
1#"
0l
1I!
0t"
1K!
0D!
01!
0G!
0H!
1C!
#40000
0!
0""
0#"
1l
#41000
1!
1""
1#"
0l
0T"
1S"
0U"
0I!
1v"
0+"
1)"
1%"
1J!
0K!
1.!
0B!
0f
1e
0g
1/!
0C!
#42000
0!
0""
0#"
1l
#43000
1!
1""
1#"
0l
0!#
1##
1&#
0v"
1u"
0.!
1B!
00!
0/!
0W
1Y
1\
10!
1/!
1C!
11!
01!
12!
02!
#44000
0!
0""
0#"
1l
#45000
1!
1""
1#"
0l
1v"
1.!
0B!
00!
0/!
0C!
11!
12!
#46000
0!
0""
0#"
1l
#47000
1!
1""
1#"
0l
0v"
1t"
0u"
1D!
0.!
1B!
13!
01!
10!
1/!
1G!
0/!
1C!
1s
02!
03!
11!
1H!
0C!
0s
#48000
0!
0""
0#"
1l
#49000
1!
1""
1#"
0l
1I!
0t"
1K!
0D!
01!
0G!
0H!
1C!
#50000
0!
0""
0#"
1l
#51000
1!
1""
1#"
0l
1U"
0I!
1v"
0)"
1'"
0%"
1$"
0J!
0K!
1.!
0B!
1g
1/!
0C!
#52000
0!
0""
0#"
1l
#53000
1!
1""
1#"
0l
0##
1%#
0&#
0v"
1u"
0.!
1B!
00!
0/!
0Y
1[
0\
10!
1/!
1C!
11!
01!
12!
02!
#54000
0!
0""
0#"
1l
#55000
1!
1""
1#"
0l
1v"
1.!
0B!
00!
0/!
0C!
11!
12!
#56000
0!
0""
0#"
1l
#57000
1!
1""
1#"
0l
0v"
1t"
0u"
1D!
0.!
1B!
13!
01!
10!
1/!
1G!
0/!
1C!
1s
02!
03!
11!
1H!
0C!
0s
#58000
0!
0""
0#"
1l
#59000
1!
1""
1#"
0l
1I!
0t"
1K!
0D!
01!
0G!
0H!
1C!
#60000
0!
0""
0#"
1l
#61000
1!
1""
1#"
0l
1T"
0U"
0I!
1v"
0*"
1J!
0K!
1.!
0B!
1f
0g
1/!
0C!
#62000
0!
0""
0#"
1l
#63000
1!
1""
1#"
0l
0"#
0v"
1u"
0.!
1B!
00!
0/!
0X
10!
1/!
1C!
11!
01!
12!
02!
#64000
0!
0""
0#"
1l
#65000
1!
1""
1#"
0l
1v"
1.!
0B!
00!
0/!
0C!
11!
12!
#66000
0!
0""
0#"
1l
#67000
1!
1""
1#"
0l
0v"
1t"
0u"
1D!
0.!
1B!
13!
01!
10!
1/!
1G!
0/!
1C!
1s
02!
03!
11!
1H!
0C!
0s
#68000
0!
0""
0#"
1l
#69000
1!
1""
1#"
0l
1I!
0t"
1K!
0D!
01!
0G!
0H!
1C!
#70000
0!
0""
0#"
1l
#71000
1!
1""
1#"
0l
1U"
0I!
1v"
1,"
1+"
1*"
1)"
0'"
0$"
1M!
0L!
0J!
0K!
1.!
0B!
1g
1N!
1/!
0C!
#72000
0!
0""
0#"
1l
#73000
1!
1""
1#"
0l
1~"
1!#
1"#
1##
0%#
0v"
1u"
0.!
1B!
00!
0/!
1V
1W
1X
1Y
0[
10!
1/!
1C!
11!
01!
12!
02!
#74000
0!
0""
0#"
1l
#75000
1!
1""
1#"
0l
1v"
1.!
0B!
00!
0/!
0C!
11!
12!
#76000
0!
0""
0#"
1l
#77000
1!
1""
1#"
0l
0v"
1t"
0u"
1D!
0.!
1B!
13!
01!
10!
1/!
1G!
0/!
1C!
1s
02!
03!
11!
1H!
0C!
0s
#78000
0!
0""
0#"
1l
#79000
1!
1""
1#"
0l
1I!
0t"
1K!
0D!
01!
0G!
0H!
1C!
#80000
0(
0!
0,!
0""
0#"
1l
1u!
1o!
1l!
1e!
1a!
1`!
0X!
1W!
1T!
1R!
0N!
1L!
1J!
0-!
#81000
1!
1""
1#"
0l
0T"
1]"
1e"
1b"
1Z"
1\"
1`"
1O"
0I!
1v"
0,"
0+"
0)"
1'"
0M!
0;"
19"
1v!
1\!
0J"
1I"
1F"
1f!
1#!
1M"
1K"
1~
0B"
1@"
1="
1|!
0!!
0r!
03"
11"
10"
1-"
1.!
0B!
0f
12
1,
11
17
19
15
1i
0w!
1/!
0C!
#82000
0!
0""
0#"
1l
#83000
1!
1""
1#"
0l
16#
17#
18#
1;#
0<#
1=#
1@#
0'#
1)#
1,#
0.#
10#
0w"
1y"
1z"
1}"
0~"
0!#
0##
1%#
0v"
1u"
0.!
1B!
00!
0/!
1B
1C
1D
1G
0:
1;
1>
0O
1Q
1T
0H
1J
0]
1_
1`
1c
0V
0W
0Y
1[
10!
1/!
1C!
11!
01!
12!
02!
#84000
0!
0""
0#"
1l
#85000
1!
1""
1#"
0l
1v"
1.!
0B!
00!
0/!
0C!
11!
12!
#86000
0!
0""
0#"
1l
#87000
1!
1""
1#"
0l
0v"
1t"
0u"
1D!
0.!
1B!
13!
01!
10!
1/!
1G!
0/!
1C!
1s
02!
03!
11!
1H!
0C!
0s
#88000
0!
0""
0#"
1l
#89000
1!
1""
1#"
0l
1I!
0t"
0D!
01!
0G!
0H!
1C!
#90000
0!
0""
0#"
1l
#91000
1!
1""
1#"
0l
0I!
1v"
1.!
0B!
1/!
0C!
#92000
0!
0""
0#"
1l
#93000
1!
1""
1#"
0l
0v"
1u"
0.!
1B!
00!
0/!
10!
1/!
1C!
11!
01!
12!
02!
#94000
0!
0""
0#"
1l
#95000
1!
1""
1#"
0l
1v"
1.!
0B!
00!
0/!
0C!
11!
12!
#96000
0!
0""
0#"
1l
#97000
1!
1""
1#"
0l
0v"
1t"
0u"
1D!
0.!
1B!
13!
01!
10!
1/!
1G!
0/!
1C!
1s
02!
03!
11!
1H!
0C!
0s
#98000
0!
0""
0#"
1l
#99000
1!
1""
1#"
0l
1I!
0t"
0D!
01!
0G!
0H!
1C!
