simulation/qsim/Digital_Clock.msim.vcd
$comment
	File created using the following command:
		vcd file Digital_Clock.msim.vcd -direction
$end
$date
	Thu Oct 20 21:41:12 2022
$end
$version
	ModelSim Version 10.1d
$end
$timescale
	1ps
$end
$scope module TOP_vlg_vec_tst $end
$var reg 1 ! clk $end
$var reg 1 " clock_en $end
$var reg 4 # clock_hour_ge [3:0] $end
$var reg 4 $ clock_hour_shi [3:0] $end
$var reg 4 % clock_min_ge [3:0] $end
$var reg 4 & clock_min_shi [3:0] $end
$var reg 1 ' rst_n $end
$var reg 1 ( set_time_finish $end
$var wire 1 ) clock_out $end
$var wire 1 * hour_ge_r [3] $end
$var wire 1 + hour_ge_r [2] $end
$var wire 1 , hour_ge_r [1] $end
$var wire 1 - hour_ge_r [0] $end
$var wire 1 . hour_shi_r [3] $end
$var wire 1 / hour_shi_r [2] $end
$var wire 1 0 hour_shi_r [1] $end
$var wire 1 1 hour_shi_r [0] $end
$var wire 1 2 min_ge_r [3] $end
$var wire 1 3 min_ge_r [2] $end
$var wire 1 4 min_ge_r [1] $end
$var wire 1 5 min_ge_r [0] $end
$var wire 1 6 min_shi_r [3] $end
$var wire 1 7 min_shi_r [2] $end
$var wire 1 8 min_shi_r [1] $end
$var wire 1 9 min_shi_r [0] $end
$var wire 1 : out_hour_ge_seg [6] $end
$var wire 1 ; out_hour_ge_seg [5] $end
$var wire 1 < out_hour_ge_seg [4] $end
$var wire 1 = out_hour_ge_seg [3] $end
$var wire 1 > out_hour_ge_seg [2] $end
$var wire 1 ? out_hour_ge_seg [1] $end
$var wire 1 @ out_hour_ge_seg [0] $end
$var wire 1 A out_hour_shi_seg [6] $end
$var wire 1 B out_hour_shi_seg [5] $end
$var wire 1 C out_hour_shi_seg [4] $end
$var wire 1 D out_hour_shi_seg [3] $end
$var wire 1 E out_hour_shi_seg [2] $end
$var wire 1 F out_hour_shi_seg [1] $end
$var wire 1 G out_hour_shi_seg [0] $end
$var wire 1 H out_min_ge_seg [6] $end
$var wire 1 I out_min_ge_seg [5] $end
$var wire 1 J out_min_ge_seg [4] $end
$var wire 1 K out_min_ge_seg [3] $end
$var wire 1 L out_min_ge_seg [2] $end
$var wire 1 M out_min_ge_seg [1] $end
$var wire 1 N out_min_ge_seg [0] $end
$var wire 1 O out_min_shi_seg [6] $end
$var wire 1 P out_min_shi_seg [5] $end
$var wire 1 Q out_min_shi_seg [4] $end
$var wire 1 R out_min_shi_seg [3] $end
$var wire 1 S out_min_shi_seg [2] $end
$var wire 1 T out_min_shi_seg [1] $end
$var wire 1 U out_min_shi_seg [0] $end
$var wire 1 V out_sec_ge_seg [6] $end
$var wire 1 W out_sec_ge_seg [5] $end
$var wire 1 X out_sec_ge_seg [4] $end
$var wire 1 Y out_sec_ge_seg [3] $end
$var wire 1 Z out_sec_ge_seg [2] $end
$var wire 1 [ out_sec_ge_seg [1] $end
$var wire 1 \ out_sec_ge_seg [0] $end
$var wire 1 ] out_sec_shi_seg [6] $end
$var wire 1 ^ out_sec_shi_seg [5] $end
$var wire 1 _ out_sec_shi_seg [4] $end
$var wire 1 ` out_sec_shi_seg [3] $end
$var wire 1 a out_sec_shi_seg [2] $end
$var wire 1 b out_sec_shi_seg [1] $end
$var wire 1 c out_sec_shi_seg [0] $end
$var wire 1 d sec_ge_r [3] $end
$var wire 1 e sec_ge_r [2] $end
$var wire 1 f sec_ge_r [1] $end
$var wire 1 g sec_ge_r [0] $end
$var wire 1 h sec_shi_r [3] $end
$var wire 1 i sec_shi_r [2] $end
$var wire 1 j sec_shi_r [1] $end
$var wire 1 k sec_shi_r [0] $end
$var wire 1 l sampler $end
$scope module i1 $end
$var wire 1 m gnd $end
$var wire 1 n vcc $end
$var wire 1 o unknown $end
$var tri1 1 p devclrn $end
$var tri1 1 q devpor $end
$var tri1 1 r devoe $end
$var wire 1 s time_control_inst|Add0~4_combout $end
$var wire 1 t time_control_inst|Add0~6_combout $end
$var wire 1 u time_control_inst|Add0~16_combout $end
$var wire 1 v time_control_inst|Add0~23 $end
$var wire 1 w time_control_inst|Add0~24_combout $end
$var wire 1 x time_control_inst|Add0~25 $end
$var wire 1 y time_control_inst|Add0~26_combout $end
$var wire 1 z time_control_inst|Add0~27 $end
$var wire 1 { time_control_inst|Add0~28_combout $end
$var wire 1 | time_control_inst|Add0~29 $end
$var wire 1 } time_control_inst|Add0~30_combout $end
$var wire 1 ~ time_control_inst|clock_out~1_combout $end
$var wire 1 !! time_control_inst|clock_out~5_combout $end
$var wire 1 "! time_control_inst|clock_out~6_combout $end
$var wire 1 #! time_control_inst|clock_out~7_combout $end
$var wire 1 $! time_control_inst|clock_out~8_combout $end
$var wire 1 %! time_control_inst|Equal0~0_combout $end
$var wire 1 &! rst_n~combout $end
$var wire 1 '! time_control_inst|flag_1ms~clkctrl_outclk $end
$var wire 1 (! clock_en~combout $end
$var wire 1 )! set_time_finish~combout $end
$var wire 1 *! time_control_inst|hour_ge~0_combout $end
$var wire 1 +! rst_n~clk_delay_ctrl_clkout $end
$var wire 1 ,! rst_n~clkctrl_outclk $end
$var wire 1 -! time_control_inst|min_shi~0_combout $end
$var wire 1 .! time_control_inst|sec_shi~2_combout $end
$var wire 1 /! time_control_inst|cnt_1ms~0_combout $end
$var wire 1 0! time_control_inst|Add0~0_combout $end
$var wire 1 1! time_control_inst|cnt_1ms~1_combout $end
$var wire 1 2! time_control_inst|Add0~1 $end
$var wire 1 3! time_control_inst|Add0~2_combout $end
$var wire 1 4! time_control_inst|Equal0~3_combout $end
$var wire 1 5! time_control_inst|Add0~3 $end
$var wire 1 6! time_control_inst|Add0~5 $end
$var wire 1 7! time_control_inst|Add0~7 $end
$var wire 1 8! time_control_inst|Add0~8_combout $end
$var wire 1 9! time_control_inst|Add0~9 $end
$var wire 1 :! time_control_inst|Add0~11 $end
$var wire 1 ;! time_control_inst|Add0~13 $end
$var wire 1 <! time_control_inst|Add0~14_combout $end
$var wire 1 =! time_control_inst|Add0~15 $end
$var wire 1 >! time_control_inst|Add0~17 $end
$var wire 1 ?! time_control_inst|Add0~18_combout $end
$var wire 1 @! time_control_inst|Add0~19 $end
$var wire 1 A! time_control_inst|Add0~21 $end
$var wire 1 B! time_control_inst|Add0~22_combout $end
$var wire 1 C! time_control_inst|Add0~20_combout $end
$var wire 1 D! time_control_inst|Equal0~1_combout $end
$var wire 1 E! time_control_inst|Add0~10_combout $end
$var wire 1 F! time_control_inst|Add0~12_combout $end
$var wire 1 G! time_control_inst|Equal0~2_combout $end
$var wire 1 H! time_control_inst|Equal0~4_combout $end
$var wire 1 I! time_control_inst|flag_1ms~feeder_combout $end
$var wire 1 J! time_control_inst|flag_1ms~regout $end
$var wire 1 K! time_control_inst|sec_ge~0_combout $end
$var wire 1 L! time_control_inst|sec_ge[2]~1_combout $end
$var wire 1 M! time_control_inst|sec_ge~2_combout $end
$var wire 1 N! time_control_inst|sec_ge~3_combout $end
$var wire 1 O! time_control_inst|Add1~0_combout $end
$var wire 1 P! time_control_inst|sec_ge~4_combout $end
$var wire 1 Q! time_control_inst|Equal1~0_combout $end
$var wire 1 R! time_control_inst|flag_sec_ge~0_combout $end
$var wire 1 S! time_control_inst|flag_sec_ge~regout $end
$var wire 1 T! time_control_inst|sec_shi[0]~1_combout $end
$var wire 1 U! time_control_inst|sec_shi~3_combout $end
$var wire 1 V! time_control_inst|sec_shi~0_combout $end
$var wire 1 W! time_control_inst|flag_sec_shi~0_combout $end
$var wire 1 X! time_control_inst|flag_sec_shi~regout $end
$var wire 1 Y! time_control_inst|min_ge~0_combout $end
$var wire 1 Z! time_control_inst|min_ge[0]~1_combout $end
$var wire 1 [! time_control_inst|Add3~0_combout $end
$var wire 1 \! time_control_inst|min_ge~3_combout $end
$var wire 1 ]! time_control_inst|min_ge~2_combout $end
$var wire 1 ^! time_control_inst|Equal3~0_combout $end
$var wire 1 _! time_control_inst|flag_min_ge~0_combout $end
$var wire 1 `! time_control_inst|flag_min_ge~regout $end
$var wire 1 a! time_control_inst|min_shi[0]~1_combout $end
$var wire 1 b! time_control_inst|min_shi~2_combout $end
$var wire 1 c! time_control_inst|min_shi~3_combout $end
$var wire 1 d! time_control_inst|flag_min_shi~0_combout $end
$var wire 1 e! time_control_inst|flag_min_shi~regout $end
$var wire 1 f! time_control_inst|hour_ge[1]~1_combout $end
$var wire 1 g! time_control_inst|Add5~1_combout $end
$var wire 1 h! time_control_inst|hour_ge[1]~3_combout $end
$var wire 1 i! time_control_inst|hour_ge~5_combout $end
$var wire 1 j! time_control_inst|Add5~0_combout $end
$var wire 1 k! time_control_inst|Add5~2_combout $end
$var wire 1 l! time_control_inst|hour_ge~6_combout $end
$var wire 1 m! time_control_inst|hour_shi~2_combout $end
$var wire 1 n! time_control_inst|flag_hour_ge~2_combout $end
$var wire 1 o! time_control_inst|flag_hour_ge~regout $end
$var wire 1 p! time_control_inst|hour_shi[1]~1_combout $end
$var wire 1 q! time_control_inst|hour_ge[1]~2_combout $end
$var wire 1 r! time_control_inst|hour_ge~4_combout $end
$var wire 1 s! time_control_inst|clock_out~3_combout $end
$var wire 1 t! time_control_inst|clock_out~2_combout $end
$var wire 1 u! time_control_inst|hour_shi~0_combout $end
$var wire 1 v! time_control_inst|clock_out~0_combout $end
$var wire 1 w! time_control_inst|clock_out~4_combout $end
$var wire 1 x! time_control_inst|clock_out~9_combout $end
$var wire 1 y! time_control_inst|clock_out~regout $end
$var wire 1 z! time_control_inst|clock_out_h~1_combout $end
$var wire 1 {! time_control_inst|min_ge~4_combout $end
$var wire 1 |! time_control_inst|min_ge~5_combout $end
$var wire 1 }! time_control_inst|clock_out_h~2_combout $end
$var wire 1 ~! time_control_inst|parity_cnt[0]~0_combout $end
$var wire 1 !" time_control_inst|clock_out_h~0_combout $end
$var wire 1 "" time_control_inst|clock_out_h~3_combout $end
$var wire 1 #" time_control_inst|clock_out_h~regout $end
$var wire 1 $" time_control_inst|clock_out_w~combout $end
$var wire 1 %" clk~combout $end
$var wire 1 &" clk~clkctrl_outclk $end
$var wire 1 '" display_ctrl_inst|Mux6~0_combout $end
$var wire 1 (" display_ctrl_inst|out_sec_ge[4]~0_combout $end
$var wire 1 )" display_ctrl_inst|Mux5~0_combout $end
$var wire 1 *" display_ctrl_inst|Mux4~0_combout $end
$var wire 1 +" display_ctrl_inst|Mux3~0_combout $end
$var wire 1 ," display_ctrl_inst|Mux2~0_combout $end
$var wire 1 -" display_ctrl_inst|Mux1~0_combout $end
$var wire 1 ." display_ctrl_inst|Mux0~0_combout $end
$var wire 1 /" display_ctrl_inst|Mux13~0_combout $end
$var wire 1 0" display_ctrl_inst|Mux12~0_combout $end
$var wire 1 1" display_ctrl_inst|Mux11~0_combout $end
$var wire 1 2" display_ctrl_inst|Mux10~0_combout $end
$var wire 1 3" display_ctrl_inst|Mux9~0_combout $end
$var wire 1 4" display_ctrl_inst|Mux8~0_combout $end
$var wire 1 5" display_ctrl_inst|Mux7~0_combout $end
$var wire 1 6" display_ctrl_inst|Mux20~0_combout $end
$var wire 1 7" display_ctrl_inst|out_min_ge[1]~0_combout $end
$var wire 1 8" display_ctrl_inst|Mux19~0_combout $end
$var wire 1 9" display_ctrl_inst|Mux18~0_combout $end
$var wire 1 :" display_ctrl_inst|Mux17~0_combout $end
$var wire 1 ;" display_ctrl_inst|Mux16~0_combout $end
$var wire 1 <" display_ctrl_inst|Mux15~0_combout $end
$var wire 1 =" display_ctrl_inst|Mux14~0_combout $end
$var wire 1 >" display_ctrl_inst|Mux27~0_combout $end
$var wire 1 ?" display_ctrl_inst|Mux26~0_combout $end
$var wire 1 @" display_ctrl_inst|Mux25~0_combout $end
$var wire 1 A" display_ctrl_inst|Mux24~0_combout $end
$var wire 1 B" display_ctrl_inst|Mux23~0_combout $end
$var wire 1 C" display_ctrl_inst|Mux22~0_combout $end
$var wire 1 D" display_ctrl_inst|Mux21~0_combout $end
$var wire 1 E" display_ctrl_inst|Mux34~0_combout $end
$var wire 1 F" display_ctrl_inst|out_hour_ge[6]~0_combout $end
$var wire 1 G" display_ctrl_inst|Mux33~0_combout $end
$var wire 1 H" display_ctrl_inst|Mux32~0_combout $end
$var wire 1 I" display_ctrl_inst|Mux31~0_combout $end
$var wire 1 J" display_ctrl_inst|Mux30~0_combout $end
$var wire 1 K" display_ctrl_inst|Mux29~0_combout $end
$var wire 1 L" display_ctrl_inst|Mux28~0_combout $end
$var wire 1 M" display_ctrl_inst|Mux36~0_combout $end
$var wire 1 N" display_ctrl_inst|out_hour_shi[0]~feeder_combout $end
$var wire 1 O" display_ctrl_inst|Mux36~1_combout $end
$var wire 1 P" display_ctrl_inst|out_hour_shi[3]~feeder_combout $end
$var wire 1 Q" time_control_inst|hour_shi~3_combout $end
$var wire 1 R" display_ctrl_inst|out_hour_shi[6]~0_combout $end
$var wire 1 S" time_control_inst|sec_shi [2] $end
$var wire 1 T" time_control_inst|sec_shi [1] $end
$var wire 1 U" time_control_inst|sec_shi [0] $end
$var wire 1 V" time_control_inst|sec_ge [3] $end
$var wire 1 W" time_control_inst|sec_ge [2] $end
$var wire 1 X" time_control_inst|sec_ge [1] $end
$var wire 1 Y" time_control_inst|sec_ge [0] $end
$var wire 1 Z" time_control_inst|parity_cnt [15] $end
$var wire 1 [" time_control_inst|parity_cnt [14] $end
$var wire 1 \" time_control_inst|parity_cnt [13] $end
$var wire 1 ]" time_control_inst|parity_cnt [12] $end
$var wire 1 ^" time_control_inst|parity_cnt [11] $end
$var wire 1 _" time_control_inst|parity_cnt [10] $end
$var wire 1 `" time_control_inst|parity_cnt [9] $end
$var wire 1 a" time_control_inst|parity_cnt [8] $end
$var wire 1 b" time_control_inst|parity_cnt [7] $end
$var wire 1 c" time_control_inst|parity_cnt [6] $end
$var wire 1 d" time_control_inst|parity_cnt [5] $end
$var wire 1 e" time_control_inst|parity_cnt [4] $end
$var wire 1 f" time_control_inst|parity_cnt [3] $end
$var wire 1 g" time_control_inst|parity_cnt [2] $end
$var wire 1 h" time_control_inst|parity_cnt [1] $end
$var wire 1 i" time_control_inst|parity_cnt [0] $end
$var wire 1 j" time_control_inst|min_shi [2] $end
$var wire 1 k" time_control_inst|min_shi [1] $end
$var wire 1 l" time_control_inst|min_shi [0] $end
$var wire 1 m" time_control_inst|min_ge [3] $end
$var wire 1 n" time_control_inst|min_ge [2] $end
$var wire 1 o" time_control_inst|min_ge [1] $end
$var wire 1 p" time_control_inst|min_ge [0] $end
$var wire 1 q" time_control_inst|hour_shi [1] $end
$var wire 1 r" time_control_inst|hour_shi [0] $end
$var wire 1 s" time_control_inst|hour_ge [3] $end
$var wire 1 t" time_control_inst|hour_ge [2] $end
$var wire 1 u" time_control_inst|hour_ge [1] $end
$var wire 1 v" time_control_inst|hour_ge [0] $end
$var wire 1 w" time_control_inst|cnt_1ms [15] $end
$var wire 1 x" time_control_inst|cnt_1ms [14] $end
$var wire 1 y" time_control_inst|cnt_1ms [13] $end
$var wire 1 z" time_control_inst|cnt_1ms [12] $end
$var wire 1 {" time_control_inst|cnt_1ms [11] $end
$var wire 1 |" time_control_inst|cnt_1ms [10] $end
$var wire 1 }" time_control_inst|cnt_1ms [9] $end
$var wire 1 ~" time_control_inst|cnt_1ms [8] $end
$var wire 1 !# time_control_inst|cnt_1ms [7] $end
$var wire 1 "# time_control_inst|cnt_1ms [6] $end
$var wire 1 ## time_control_inst|cnt_1ms [5] $end
$var wire 1 $# time_control_inst|cnt_1ms [4] $end
$var wire 1 %# time_control_inst|cnt_1ms [3] $end
$var wire 1 &# time_control_inst|cnt_1ms [2] $end
$var wire 1 '# time_control_inst|cnt_1ms [1] $end
$var wire 1 (# time_control_inst|cnt_1ms [0] $end
$var wire 1 )# display_ctrl_inst|out_sec_shi [6] $end
$var wire 1 *# display_ctrl_inst|out_sec_shi [5] $end
$var wire 1 +# display_ctrl_inst|out_sec_shi [4] $end
$var wire 1 ,# display_ctrl_inst|out_sec_shi [3] $end
$var wire 1 -# display_ctrl_inst|out_sec_shi [2] $end
$var wire 1 .# display_ctrl_inst|out_sec_shi [1] $end
$var wire 1 /# display_ctrl_inst|out_sec_shi [0] $end
$var wire 1 0# display_ctrl_inst|out_sec_ge [6] $end
$var wire 1 1# display_ctrl_inst|out_sec_ge [5] $end
$var wire 1 2# display_ctrl_inst|out_sec_ge [4] $end
$var wire 1 3# display_ctrl_inst|out_sec_ge [3] $end
$var wire 1 4# display_ctrl_inst|out_sec_ge [2] $end
$var wire 1 5# display_ctrl_inst|out_sec_ge [1] $end
$var wire 1 6# display_ctrl_inst|out_sec_ge [0] $end
$var wire 1 7# display_ctrl_inst|out_min_shi [6] $end
$var wire 1 8# display_ctrl_inst|out_min_shi [5] $end
$var wire 1 9# display_ctrl_inst|out_min_shi [4] $end
$var wire 1 :# display_ctrl_inst|out_min_shi [3] $end
$var wire 1 ;# display_ctrl_inst|out_min_shi [2] $end
$var wire 1 <# display_ctrl_inst|out_min_shi [1] $end
$var wire 1 =# display_ctrl_inst|out_min_shi [0] $end
$var wire 1 ># display_ctrl_inst|out_min_ge [6] $end
$var wire 1 ?# display_ctrl_inst|out_min_ge [5] $end
$var wire 1 @# display_ctrl_inst|out_min_ge [4] $end
$var wire 1 A# display_ctrl_inst|out_min_ge [3] $end
$var wire 1 B# display_ctrl_inst|out_min_ge [2] $end
$var wire 1 C# display_ctrl_inst|out_min_ge [1] $end
$var wire 1 D# display_ctrl_inst|out_min_ge [0] $end
$var wire 1 E# display_ctrl_inst|out_hour_shi [6] $end
$var wire 1 F# display_ctrl_inst|out_hour_shi [5] $end
$var wire 1 G# display_ctrl_inst|out_hour_shi [4] $end
$var wire 1 H# display_ctrl_inst|out_hour_shi [3] $end
$var wire 1 I# display_ctrl_inst|out_hour_shi [2] $end
$var wire 1 J# display_ctrl_inst|out_hour_shi [1] $end
$var wire 1 K# display_ctrl_inst|out_hour_shi [0] $end
$var wire 1 L# display_ctrl_inst|out_hour_ge [6] $end
$var wire 1 M# display_ctrl_inst|out_hour_ge [5] $end
$var wire 1 N# display_ctrl_inst|out_hour_ge [4] $end
$var wire 1 O# display_ctrl_inst|out_hour_ge [3] $end
$var wire 1 P# display_ctrl_inst|out_hour_ge [2] $end
$var wire 1 Q# display_ctrl_inst|out_hour_ge [1] $end
$var wire 1 R# display_ctrl_inst|out_hour_ge [0] $end
$var wire 1 S# clock_min_ge~combout [3] $end
$var wire 1 T# clock_min_ge~combout [2] $end
$var wire 1 U# clock_min_ge~combout [1] $end
$var wire 1 V# clock_min_ge~combout [0] $end
$var wire 1 W# clock_hour_shi~combout [3] $end
$var wire 1 X# clock_hour_shi~combout [2] $end
$var wire 1 Y# clock_hour_shi~combout [1] $end
$var wire 1 Z# clock_hour_shi~combout [0] $end
$var wire 1 [# clock_hour_ge~combout [3] $end
$var wire 1 \# clock_hour_ge~combout [2] $end
$var wire 1 ]# clock_hour_ge~combout [1] $end
$var wire 1 ^# clock_hour_ge~combout [0] $end
$var wire 1 _# clock_min_shi~combout [3] $end
$var wire 1 `# clock_min_shi~combout [2] $end
$var wire 1 a# clock_min_shi~combout [1] $end
$var wire 1 b# clock_min_shi~combout [0] $end
$upscope $end
$upscope $end
$enddefinitions $end
#0
$dumpvars
0!
1"
b11 #
b1 $
b1 %
b0 &
1'
1(
0)
0-
0,
0+
0*
01
00
0/
0.
05
04
03
02
09
08
07
06
0@
0?
0>
0=
0<
0;
0:
0G
0F
0E
0D
0C
0B
0A
0N
0M
0L
0K
0J
0I
0H
0U
0T
0S
0R
0Q
0P
0O
0\
0[
0Z
0Y
0X
0W
0V
0c
0b
0a
0`
0_
0^
0]
0g
0f
0e
0d
0k
0j
0i
0h
xl
0m
1n
xo
1p
1q
1r
0s
0t
0u
1v
0w
0x
0y
1z
0{
0|
0}
1~
0!!
1"!
0#!
0$!
1%!
1&!
0'!
1(!
1)!
1*!
1+!
1,!
1-!
0.!
0/!
10!
11!
02!
03!
04!
15!
06!
17!
08!
09!
1:!
0;!
0<!
1=!
0>!
0?!
1@!
0A!
0B!
0C!
1D!
0E!
0F!
1G!
0H!
0I!
0J!
1K!
0L!
0M!
0N!
0O!
0P!
0Q!
0R!
0S!
0T!
0U!
1V!
0W!
0X!
1Y!
0Z!
0[!
0\!
0]!
0^!
0_!
0`!
0a!
0b!
0c!
0d!
0e!
0f!
0g!
0h!
0i!
0j!
0k!
0l!
0m!
0n!
0o!
0p!
0q!
0r!
0s!
0t!
1u!
0v!
0w!
0x!
0y!
0z!
0{!
0|!
0}!
0~!
0!"
0""
0#"
0$"
0%"
0&"
0'"
1("
0)"
0*"
0+"
0,"
0-"
1."
0/"
00"
01"
02"
03"
04"
15"
06"
17"
08"
09"
0:"
0;"
0<"
1="
0>"
0?"
0@"
0A"
0B"
0C"
1D"
0E"
1F"
0G"
0H"
0I"
0J"
0K"
1L"
0M"
0N"
0O"
0P"
0Q"
1R"
0U"
0T"
0S"
0Y"
0X"
0W"
0V"
0i"
zh"
zg"
zf"
ze"
zd"
zc"
zb"
za"
z`"
z_"
z^"
z]"
z\"
z["
zZ"
0l"
0k"
0j"
0p"
0o"
0n"
0m"
0r"
0q"
0v"
0u"
0t"
0s"
0(#
0'#
0&#
0%#
0$#
0##
0"#
0!#
0~"
0}"
0|"
0{"
0z"
0y"
0x"
0w"
0/#
0.#
0-#
0,#
0+#
0*#
0)#
06#
05#
04#
03#
02#
01#
00#
0=#
0<#
0;#
0:#
09#
08#
07#
0D#
0C#
0B#
0A#
0@#
0?#
0>#
0K#
zJ#
0I#
0H#
0G#
0F#
0E#
0R#
0Q#
0P#
0O#
0N#
0M#
0L#
1V#
0U#
0T#
0S#
1Z#
0Y#
0X#
0W#
1^#
1]#
0\#
0[#
0b#
0a#
0`#
0_#
$end
#1000
1!
1%"
1&"
0l
1E#
1L#
17#
1>#
1)#
10#
1(#
12!
00!
1A
1:
1O
1H
1]
1V
13!
01!
#2000
0!
0%"
0&"
1l
#3000
1!
1%"
1&"
0l
1'#
0(#
05!
03!
02!
10!
1s
15!
13!
11!
1/!
0s
0/!
#4000
0!
0%"
0&"
1l
#5000
1!
1%"
1&"
0l
1(#
12!
00!
05!
03!
01!
1s
1/!
#6000
0!
0%"
0&"
1l
#7000
1!
1%"
1&"
0l
0'#
0(#
1&#
14!
15!
13!
02!
10!
16!
0s
1H!
06!
1s
03!
11!
1t
0/!
1I!
01!
0t
#8000
0!
0%"
0&"
1l
#9000
1!
1%"
1&"
0l
1J!
0&#
1'!
1L!
04!
0s
0H!
0I!
11!
#10000
0(
0!
0)!
0%"
0&"
1l
1|!
1r!
1p!
1f!
1c!
1a!
1Z!
0V!
1U!
1T!
1N!
0*!
#11000
1!
1%"
1&"
0l
1m"
1r"
1u"
1j"
1l"
1p"
1S"
1W"
1Y"
0J!
1(#
0'!
0="
1;"
1}!
1^!
1#!
1Q"
1M"
1v!
0L"
1K"
1H"
1s!
1j!
0D"
1B"
1?"
1z!
0~
1!!
05"
13"
12"
1/"
0."
1,"
1)"
12!
00!
12
11
1,
17
19
15
1i
1e
1g
1P"
1N"
13!
01!
#12000
0!
0%"
0&"
1l
#13000
1!
1%"
1&"
0l
1F#
1G#
1H#
1K#
0L#
1M#
1P#
07#
19#
1<#
0>#
1@#
0)#
1+#
1,#
1/#
00#
12#
15#
1'#
0(#
05!
03!
02!
10!
1B
1C
1D
1G
0:
1;
1>
0O
1Q
1T
0H
1J
0]
1_
1`
1c
0V
1X
1[
1s
15!
13!
11!
1/!
0s
0/!
#14000
0!
0%"
0&"
1l
#15000
1!
1%"
1&"
0l
1(#
12!
00!
05!
03!
01!
1s
1/!
#16000
0!
0%"
0&"
1l
#17000
1!
1%"
1&"
0l
0'#
0(#
1&#
14!
15!
13!
02!
10!
16!
0s
1H!
06!
1s
03!
11!
1t
0/!
1I!
01!
0t
#18000
0!
0%"
0&"
1l
#19000
1!
1%"
1&"
0l
1J!
0&#
1'!
04!
0s
0H!
0I!
11!
#20000
1(
0!
1)!
0%"
0&"
1l
0|!
0u!
0p!
1m!
0f!
0c!
0a!
0Z!
0Y!
1V!
0T!
1M!
0K!
0-!
1*!
#21000
1!
1%"
1&"
0l
1X"
0Y"
0J!
1(#
0'!
0,"
1K!
0L!
12!
00!
1f
0g
13!
01!
#22000
0!
0%"
0&"
1l
#23000
1!
1%"
1&"
0l
02#
1'#
0(#
05!
03!
02!
10!
0X
1s
15!
13!
11!
1/!
0s
0/!
#24000
0!
0%"
0&"
1l
#25000
1!
1%"
1&"
0l
1(#
12!
00!
05!
03!
01!
1s
1/!
#26000
0!
0%"
0&"
1l
#27000
1!
1%"
1&"
0l
0'#
0(#
1&#
14!
15!
13!
02!
10!
16!
0s
1H!
06!
1s
03!
11!
1t
0/!
1I!
01!
0t
#28000
0!
0%"
0&"
1l
#29000
1!
1%"
1&"
0l
1J!
0&#
1'!
1L!
04!
0s
0H!
0I!
11!
#30000
0!
0%"
0&"
1l
#31000
1!
1%"
1&"
0l
1Y"
0J!
1(#
0'!
1."
1-"
1,"
1+"
0)"
1O!
0N!
0M!
0K!
0L!
12!
00!
1g
1P!
13!
01!
#32000
0!
0%"
0&"
1l
#33000
1!
1%"
1&"
0l
10#
11#
12#
13#
05#
1'#
0(#
05!
03!
02!
10!
1V
1W
1X
1Y
0[
1s
15!
13!
11!
1/!
0s
0/!
#34000
0!
0%"
0&"
1l
#35000
1!
1%"
1&"
0l
1(#
12!
00!
05!
03!
01!
1s
1/!
#36000
0!
0%"
0&"
1l
#37000
1!
1%"
1&"
0l
0'#
0(#
1&#
14!
15!
13!
02!
10!
16!
0s
1H!
06!
1s
03!
11!
1t
0/!
1I!
01!
0t
#38000
0!
0%"
0&"
1l
#39000
1!
1%"
1&"
0l
1J!
0&#
1'!
1L!
04!
0s
0H!
0I!
11!
#40000
0!
0%"
0&"
1l
#41000
1!
1%"
1&"
0l
1V"
0W"
0X"
0Y"
0J!
1(#
0'!
0."
0-"
0,"
0+"
1K!
0L!
12!
00!
1d
0e
0f
0g
13!
01!
#42000
0!
0%"
0&"
1l
#43000
1!
1%"
1&"
0l
00#
01#
02#
03#
1'#
0(#
05!
03!
02!
10!
0V
0W
0X
0Y
1s
15!
13!
11!
1/!
0s
0/!
#44000
0!
0%"
0&"
1l
#45000
1!
1%"
1&"
0l
1(#
12!
00!
05!
03!
01!
1s
1/!
#46000
0!
0%"
0&"
1l
#47000
1!
1%"
1&"
0l
0'#
0(#
1&#
14!
15!
13!
02!
10!
16!
0s
1H!
06!
1s
03!
11!
1t
0/!
1I!
01!
0t
#48000
0!
0%"
0&"
1l
#49000
1!
1%"
1&"
0l
1J!
0&#
1'!
1L!
04!
0s
0H!
0I!
11!
#50000
0!
0%"
0&"
1l
#51000
1!
1%"
1&"
0l
1Y"
0J!
1(#
0'!
1,"
1Q!
1M!
0K!
0L!
12!
00!
1g
0P!
0M!
13!
01!
#52000
0!
0%"
0&"
1l
#53000
1!
1%"
1&"
0l
12#
1'#
0(#
05!
03!
02!
10!
1X
1s
15!
13!
11!
1/!
0s
0/!
#54000
0!
0%"
0&"
1l
#55000
1!
1%"
1&"
0l
1(#
12!
00!
05!
03!
01!
1s
1/!
#56000
0!
0%"
0&"
1l
#57000
1!
1%"
1&"
0l
0'#
0(#
1&#
14!
15!
13!
02!
10!
16!
0s
1H!
06!
1s
03!
11!
1t
0/!
1I!
01!
0t
#58000
0!
0%"
0&"
1l
#59000
1!
1%"
1&"
0l
1J!
0&#
1'!
1R!
1L!
04!
0s
0H!
0I!
11!
#60000
0!
0%"
0&"
1l
#61000
1!
1%"
1&"
0l
1S!
0V"
0Y"
0J!
1(#
0'!
1T!
1."
0,"
0Q!
0O!
1K!
0R!
0L!
12!
00!
0d
0g
13!
01!
#62000
0!
0%"
0&"
1l
#63000
1!
1%"
1&"
0l
10#
02#
1U"
0S!
1'#
0(#
02"
10"
0/"
1!"
0V!
0U!
0T!
05!
03!
02!
10!
1V
0X
1k
1""
1s
15!
13!
11!
1~!
1/!
0s
0/!
#64000
0!
0%"
0&"
1l
#65000
1!
1%"
1&"
0l
0,#
1.#
0/#
1(#
12!
00!
0`
1b
0c
05!
03!
01!
1s
1/!
#66000
0!
0%"
0&"
1l
#67000
1!
1%"
1&"
0l
0'#
0(#
1&#
14!
15!
13!
02!
10!
16!
0s
1H!
06!
1s
03!
11!
1t
0/!
1I!
01!
0t
#68000
0!
0%"
0&"
1l
#69000
1!
1%"
1&"
0l
1J!
0&#
1'!
1L!
04!
0s
0H!
0I!
11!
1#"
1i"
1$"
0!"
0""
1)
0~!
#70000
0!
0%"
0&"
1l
#71000
1!
1%"
1&"
0l
1Y"
0J!
1(#
0'!
1-"
1,"
1+"
1'"
1M!
0K!
0L!
12!
00!
1g
13!
01!
#72000
0!
0%"
0&"
1l
#73000
1!
1%"
1&"
0l
11#
12#
13#
16#
1'#
0(#
05!
03!
02!
10!
1W
1X
1Y
1\
1s
15!
13!
11!
1/!
0s
0/!
#74000
0!
0%"
0&"
1l
#75000
1!
1%"
1&"
0l
1(#
12!
00!
05!
03!
01!
1s
1/!
#76000
0!
0%"
0&"
1l
#77000
1!
1%"
1&"
0l
0'#
0(#
1&#
14!
15!
13!
02!
10!
16!
0s
1H!
06!
1s
03!
11!
1t
0/!
1I!
01!
0t
#78000
0!
0%"
0&"
1l
#79000
1!
1%"
1&"
0l
1J!
0&#
1'!
1L!
04!
0s
0H!
0I!
11!
0#"
0i"
0$"
1!"
1""
0)
1~!
#80000
0!
0%"
0&"
1l
#81000
1!
1%"
1&"
0l
1X"
0Y"
0J!
1(#
0'!
0."
0,"
0+"
1*"
0'"
1K!
0L!
12!
00!
1f
0g
13!
01!
#82000
0!
0%"
0&"
1l
