simulation/qsim/Digital_Clock.msim.vcd
$comment
	File created using the following command:
		vcd file Digital_Clock.msim.vcd -direction
$end
$date
	Thu Oct 20 19:35:19 2022
$end
$version
	ModelSim Version 10.1d
$end
$timescale
	1ps
$end
$scope module TOP_vlg_vec_tst $end
$var reg 1 ! clk $end
$var reg 1 " clock_en $end
$var reg 4 # clock_hour_ge [3:0] $end
$var reg 4 $ clock_hour_shi [3:0] $end
$var reg 4 % clock_min_ge [3:0] $end
$var reg 4 & clock_min_shi [3:0] $end
$var reg 1 ' rst_n $end
$var reg 1 ( set_time_finish $end
$var wire 1 ) clock_out $end
$var wire 1 * out_hour_ge_seg [6] $end
$var wire 1 + out_hour_ge_seg [5] $end
$var wire 1 , out_hour_ge_seg [4] $end
$var wire 1 - out_hour_ge_seg [3] $end
$var wire 1 . out_hour_ge_seg [2] $end
$var wire 1 / out_hour_ge_seg [1] $end
$var wire 1 0 out_hour_ge_seg [0] $end
$var wire 1 1 out_hour_shi_seg [6] $end
$var wire 1 2 out_hour_shi_seg [5] $end
$var wire 1 3 out_hour_shi_seg [4] $end
$var wire 1 4 out_hour_shi_seg [3] $end
$var wire 1 5 out_hour_shi_seg [2] $end
$var wire 1 6 out_hour_shi_seg [1] $end
$var wire 1 7 out_hour_shi_seg [0] $end
$var wire 1 8 out_min_ge_seg [6] $end
$var wire 1 9 out_min_ge_seg [5] $end
$var wire 1 : out_min_ge_seg [4] $end
$var wire 1 ; out_min_ge_seg [3] $end
$var wire 1 < out_min_ge_seg [2] $end
$var wire 1 = out_min_ge_seg [1] $end
$var wire 1 > out_min_ge_seg [0] $end
$var wire 1 ? out_min_shi_seg [6] $end
$var wire 1 @ out_min_shi_seg [5] $end
$var wire 1 A out_min_shi_seg [4] $end
$var wire 1 B out_min_shi_seg [3] $end
$var wire 1 C out_min_shi_seg [2] $end
$var wire 1 D out_min_shi_seg [1] $end
$var wire 1 E out_min_shi_seg [0] $end
$var wire 1 F out_sec_ge_seg [6] $end
$var wire 1 G out_sec_ge_seg [5] $end
$var wire 1 H out_sec_ge_seg [4] $end
$var wire 1 I out_sec_ge_seg [3] $end
$var wire 1 J out_sec_ge_seg [2] $end
$var wire 1 K out_sec_ge_seg [1] $end
$var wire 1 L out_sec_ge_seg [0] $end
$var wire 1 M out_sec_shi_seg [6] $end
$var wire 1 N out_sec_shi_seg [5] $end
$var wire 1 O out_sec_shi_seg [4] $end
$var wire 1 P out_sec_shi_seg [3] $end
$var wire 1 Q out_sec_shi_seg [2] $end
$var wire 1 R out_sec_shi_seg [1] $end
$var wire 1 S out_sec_shi_seg [0] $end
$var wire 1 T sampler $end
$scope module i1 $end
$var wire 1 U gnd $end
$var wire 1 V vcc $end
$var wire 1 W unknown $end
$var tri1 1 X devclrn $end
$var tri1 1 Y devpor $end
$var tri1 1 Z devoe $end
$var wire 1 [ time_control_inst|Add0~4_combout $end
$var wire 1 \ time_control_inst|Add0~6_combout $end
$var wire 1 ] time_control_inst|Add0~16_combout $end
$var wire 1 ^ time_control_inst|clock_out~0_combout $end
$var wire 1 _ time_control_inst|clock_out~5_combout $end
$var wire 1 ` time_control_inst|clock_out~6_combout $end
$var wire 1 a time_control_inst|clock_out~7_combout $end
$var wire 1 b time_control_inst|clock_out~8_combout $end
$var wire 1 c time_control_inst|Equal0~3_combout $end
$var wire 1 d time_control_inst|cnt_1ms~0_combout $end
$var wire 1 e rst_n~combout $end
$var wire 1 f time_control_inst|flag_1ms~clkctrl_outclk $end
$var wire 1 g clock_en~combout $end
$var wire 1 h set_time_finish~combout $end
$var wire 1 i time_control_inst|min_shi~0_combout $end
$var wire 1 j rst_n~clk_delay_ctrl_clkout $end
$var wire 1 k rst_n~clkctrl_outclk $end
$var wire 1 l time_control_inst|min_ge~3_combout $end
$var wire 1 m time_control_inst|sec_ge~2_combout $end
$var wire 1 n time_control_inst|Add0~0_combout $end
$var wire 1 o time_control_inst|cnt_1ms~1_combout $end
$var wire 1 p time_control_inst|Add0~1 $end
$var wire 1 q time_control_inst|Add0~2_combout $end
$var wire 1 r time_control_inst|Add0~3 $end
$var wire 1 s time_control_inst|Add0~5 $end
$var wire 1 t time_control_inst|Add0~7 $end
$var wire 1 u time_control_inst|Add0~8_combout $end
$var wire 1 v time_control_inst|Add0~9 $end
$var wire 1 w time_control_inst|Add0~11 $end
$var wire 1 x time_control_inst|Add0~13 $end
$var wire 1 y time_control_inst|Add0~14_combout $end
$var wire 1 z time_control_inst|Add0~15 $end
$var wire 1 { time_control_inst|Add0~17 $end
$var wire 1 | time_control_inst|Add0~18_combout $end
$var wire 1 } time_control_inst|Add0~19 $end
$var wire 1 ~ time_control_inst|Add0~21 $end
$var wire 1 !! time_control_inst|Add0~22_combout $end
$var wire 1 "! time_control_inst|Add0~23 $end
$var wire 1 #! time_control_inst|Add0~25 $end
$var wire 1 $! time_control_inst|Add0~26_combout $end
$var wire 1 %! time_control_inst|Add0~27 $end
$var wire 1 &! time_control_inst|Add0~28_combout $end
$var wire 1 '! time_control_inst|Add0~29 $end
$var wire 1 (! time_control_inst|Add0~30_combout $end
$var wire 1 )! time_control_inst|Add0~24_combout $end
$var wire 1 *! time_control_inst|Equal0~0_combout $end
$var wire 1 +! time_control_inst|Add0~10_combout $end
$var wire 1 ,! time_control_inst|Add0~12_combout $end
$var wire 1 -! time_control_inst|Equal0~2_combout $end
$var wire 1 .! time_control_inst|Add0~20_combout $end
$var wire 1 /! time_control_inst|Equal0~1_combout $end
$var wire 1 0! time_control_inst|Equal0~4_combout $end
$var wire 1 1! time_control_inst|flag_1ms~feeder_combout $end
$var wire 1 2! time_control_inst|flag_1ms~regout $end
$var wire 1 3! time_control_inst|sec_ge[3]~1_combout $end
$var wire 1 4! time_control_inst|sec_ge~4_combout $end
$var wire 1 5! time_control_inst|sec_ge~0_combout $end
$var wire 1 6! time_control_inst|Add1~0_combout $end
$var wire 1 7! time_control_inst|sec_ge~3_combout $end
$var wire 1 8! time_control_inst|Equal1~0_combout $end
$var wire 1 9! time_control_inst|flag_sec_ge~0_combout $end
$var wire 1 :! time_control_inst|flag_sec_ge~regout $end
$var wire 1 ;! time_control_inst|sec_shi~2_combout $end
$var wire 1 <! time_control_inst|sec_shi[2]~1_combout $end
$var wire 1 =! time_control_inst|sec_shi~3_combout $end
$var wire 1 >! time_control_inst|flag_sec_shi~0_combout $end
$var wire 1 ?! time_control_inst|flag_sec_shi~regout $end
$var wire 1 @! time_control_inst|min_ge[3]~2_combout $end
$var wire 1 A! time_control_inst|Add3~0_combout $end
$var wire 1 B! time_control_inst|min_ge~4_combout $end
$var wire 1 C! time_control_inst|min_ge~0_combout $end
$var wire 1 D! time_control_inst|min_ge~1_combout $end
$var wire 1 E! time_control_inst|Equal3~0_combout $end
$var wire 1 F! time_control_inst|flag_min_ge~0_combout $end
$var wire 1 G! time_control_inst|flag_min_ge~regout $end
$var wire 1 H! time_control_inst|min_shi[0]~1_combout $end
$var wire 1 I! time_control_inst|min_shi~3_combout $end
$var wire 1 J! time_control_inst|clock_out~1_combout $end
$var wire 1 K! time_control_inst|hour_ge~0_combout $end
$var wire 1 L! time_control_inst|min_shi~2_combout $end
$var wire 1 M! time_control_inst|flag_min_shi~0_combout $end
$var wire 1 N! time_control_inst|flag_min_shi~feeder_combout $end
$var wire 1 O! time_control_inst|flag_min_shi~regout $end
$var wire 1 P! time_control_inst|hour_ge[1]~1_combout $end
$var wire 1 Q! time_control_inst|clock_out~2_combout $end
$var wire 1 R! time_control_inst|hour_ge[1]~3_combout $end
$var wire 1 S! time_control_inst|hour_shi~0_combout $end
$var wire 1 T! time_control_inst|flag_hour_ge~2_combout $end
$var wire 1 U! time_control_inst|flag_hour_ge~regout $end
$var wire 1 V! time_control_inst|hour_shi[0]~1_combout $end
$var wire 1 W! time_control_inst|hour_shi~2_combout $end
$var wire 1 X! time_control_inst|Add5~1_combout $end
$var wire 1 Y! time_control_inst|hour_ge~5_combout $end
$var wire 1 Z! time_control_inst|hour_ge[1]~2_combout $end
$var wire 1 [! time_control_inst|Add5~0_combout $end
$var wire 1 \! time_control_inst|hour_ge~4_combout $end
$var wire 1 ]! time_control_inst|clock_out~3_combout $end
$var wire 1 ^! time_control_inst|clock_out~4_combout $end
$var wire 1 _! time_control_inst|clock_out~9_combout $end
$var wire 1 `! time_control_inst|clock_out~regout $end
$var wire 1 a! time_control_inst|min_ge~5_combout $end
$var wire 1 b! time_control_inst|clock_out_h~2_combout $end
$var wire 1 c! time_control_inst|sec_shi~0_combout $end
$var wire 1 d! time_control_inst|clock_out_h~1_combout $end
$var wire 1 e! time_control_inst|parity_cnt[0]~0_combout $end
$var wire 1 f! time_control_inst|clock_out_h~0_combout $end
$var wire 1 g! time_control_inst|clock_out_h~3_combout $end
$var wire 1 h! time_control_inst|clock_out_h~regout $end
$var wire 1 i! time_control_inst|clock_out_w~combout $end
$var wire 1 j! clk~combout $end
$var wire 1 k! clk~clkctrl_outclk $end
$var wire 1 l! display_ctrl_inst|Mux6~0_combout $end
$var wire 1 m! display_ctrl_inst|out_sec_ge[1]~0_combout $end
$var wire 1 n! display_ctrl_inst|Mux5~0_combout $end
$var wire 1 o! display_ctrl_inst|Mux4~0_combout $end
$var wire 1 p! display_ctrl_inst|Mux3~0_combout $end
$var wire 1 q! display_ctrl_inst|Mux2~0_combout $end
$var wire 1 r! display_ctrl_inst|Mux1~0_combout $end
$var wire 1 s! display_ctrl_inst|Mux0~0_combout $end
$var wire 1 t! display_ctrl_inst|Mux13~0_combout $end
$var wire 1 u! display_ctrl_inst|Mux12~0_combout $end
$var wire 1 v! display_ctrl_inst|Mux11~0_combout $end
$var wire 1 w! display_ctrl_inst|Mux10~0_combout $end
$var wire 1 x! display_ctrl_inst|Mux9~0_combout $end
$var wire 1 y! display_ctrl_inst|Mux8~0_combout $end
$var wire 1 z! display_ctrl_inst|Mux7~0_combout $end
$var wire 1 {! display_ctrl_inst|Mux20~0_combout $end
$var wire 1 |! display_ctrl_inst|out_min_ge[0]~0_combout $end
$var wire 1 }! display_ctrl_inst|Mux19~0_combout $end
$var wire 1 ~! display_ctrl_inst|Mux18~0_combout $end
$var wire 1 !" display_ctrl_inst|Mux17~0_combout $end
$var wire 1 "" display_ctrl_inst|Mux16~0_combout $end
$var wire 1 #" display_ctrl_inst|Mux15~0_combout $end
$var wire 1 $" display_ctrl_inst|Mux14~0_combout $end
$var wire 1 %" display_ctrl_inst|Mux27~0_combout $end
$var wire 1 &" display_ctrl_inst|Mux26~0_combout $end
$var wire 1 '" display_ctrl_inst|Mux25~0_combout $end
$var wire 1 (" display_ctrl_inst|Mux24~0_combout $end
$var wire 1 )" display_ctrl_inst|Mux23~0_combout $end
$var wire 1 *" display_ctrl_inst|Mux22~0_combout $end
$var wire 1 +" display_ctrl_inst|Mux21~0_combout $end
$var wire 1 ," time_control_inst|Add5~2_combout $end
$var wire 1 -" time_control_inst|hour_ge~6_combout $end
$var wire 1 ." display_ctrl_inst|Mux34~0_combout $end
$var wire 1 /" display_ctrl_inst|out_hour_ge[5]~0_combout $end
$var wire 1 0" display_ctrl_inst|Mux33~0_combout $end
$var wire 1 1" display_ctrl_inst|Mux32~0_combout $end
$var wire 1 2" display_ctrl_inst|Mux31~0_combout $end
$var wire 1 3" display_ctrl_inst|Mux30~0_combout $end
$var wire 1 4" display_ctrl_inst|Mux29~0_combout $end
$var wire 1 5" display_ctrl_inst|Mux28~0_combout $end
$var wire 1 6" display_ctrl_inst|Mux36~0_combout $end
$var wire 1 7" display_ctrl_inst|out_hour_shi[0]~feeder_combout $end
$var wire 1 8" display_ctrl_inst|Mux36~1_combout $end
$var wire 1 9" display_ctrl_inst|out_hour_shi[3]~feeder_combout $end
$var wire 1 :" display_ctrl_inst|out_hour_shi[4]~feeder_combout $end
$var wire 1 ;" display_ctrl_inst|Mux36~2_combout $end
$var wire 1 <" display_ctrl_inst|out_hour_shi[6]~0_combout $end
$var wire 1 =" time_control_inst|sec_shi [2] $end
$var wire 1 >" time_control_inst|sec_shi [1] $end
$var wire 1 ?" time_control_inst|sec_shi [0] $end
$var wire 1 @" time_control_inst|sec_ge [3] $end
$var wire 1 A" time_control_inst|sec_ge [2] $end
$var wire 1 B" time_control_inst|sec_ge [1] $end
$var wire 1 C" time_control_inst|sec_ge [0] $end
$var wire 1 D" time_control_inst|parity_cnt [15] $end
$var wire 1 E" time_control_inst|parity_cnt [14] $end
$var wire 1 F" time_control_inst|parity_cnt [13] $end
$var wire 1 G" time_control_inst|parity_cnt [12] $end
$var wire 1 H" time_control_inst|parity_cnt [11] $end
$var wire 1 I" time_control_inst|parity_cnt [10] $end
$var wire 1 J" time_control_inst|parity_cnt [9] $end
$var wire 1 K" time_control_inst|parity_cnt [8] $end
$var wire 1 L" time_control_inst|parity_cnt [7] $end
$var wire 1 M" time_control_inst|parity_cnt [6] $end
$var wire 1 N" time_control_inst|parity_cnt [5] $end
$var wire 1 O" time_control_inst|parity_cnt [4] $end
$var wire 1 P" time_control_inst|parity_cnt [3] $end
$var wire 1 Q" time_control_inst|parity_cnt [2] $end
$var wire 1 R" time_control_inst|parity_cnt [1] $end
$var wire 1 S" time_control_inst|parity_cnt [0] $end
$var wire 1 T" time_control_inst|min_shi [2] $end
$var wire 1 U" time_control_inst|min_shi [1] $end
$var wire 1 V" time_control_inst|min_shi [0] $end
$var wire 1 W" time_control_inst|min_ge [3] $end
$var wire 1 X" time_control_inst|min_ge [2] $end
$var wire 1 Y" time_control_inst|min_ge [1] $end
$var wire 1 Z" time_control_inst|min_ge [0] $end
$var wire 1 [" time_control_inst|hour_shi [1] $end
$var wire 1 \" time_control_inst|hour_shi [0] $end
$var wire 1 ]" time_control_inst|hour_ge [3] $end
$var wire 1 ^" time_control_inst|hour_ge [2] $end
$var wire 1 _" time_control_inst|hour_ge [1] $end
$var wire 1 `" time_control_inst|hour_ge [0] $end
$var wire 1 a" time_control_inst|cnt_1ms [15] $end
$var wire 1 b" time_control_inst|cnt_1ms [14] $end
$var wire 1 c" time_control_inst|cnt_1ms [13] $end
$var wire 1 d" time_control_inst|cnt_1ms [12] $end
$var wire 1 e" time_control_inst|cnt_1ms [11] $end
$var wire 1 f" time_control_inst|cnt_1ms [10] $end
$var wire 1 g" time_control_inst|cnt_1ms [9] $end
$var wire 1 h" time_control_inst|cnt_1ms [8] $end
$var wire 1 i" time_control_inst|cnt_1ms [7] $end
$var wire 1 j" time_control_inst|cnt_1ms [6] $end
$var wire 1 k" time_control_inst|cnt_1ms [5] $end
$var wire 1 l" time_control_inst|cnt_1ms [4] $end
$var wire 1 m" time_control_inst|cnt_1ms [3] $end
$var wire 1 n" time_control_inst|cnt_1ms [2] $end
$var wire 1 o" time_control_inst|cnt_1ms [1] $end
$var wire 1 p" time_control_inst|cnt_1ms [0] $end
$var wire 1 q" display_ctrl_inst|out_sec_shi [6] $end
$var wire 1 r" display_ctrl_inst|out_sec_shi [5] $end
$var wire 1 s" display_ctrl_inst|out_sec_shi [4] $end
$var wire 1 t" display_ctrl_inst|out_sec_shi [3] $end
$var wire 1 u" display_ctrl_inst|out_sec_shi [2] $end
$var wire 1 v" display_ctrl_inst|out_sec_shi [1] $end
$var wire 1 w" display_ctrl_inst|out_sec_shi [0] $end
$var wire 1 x" display_ctrl_inst|out_sec_ge [6] $end
$var wire 1 y" display_ctrl_inst|out_sec_ge [5] $end
$var wire 1 z" display_ctrl_inst|out_sec_ge [4] $end
$var wire 1 {" display_ctrl_inst|out_sec_ge [3] $end
$var wire 1 |" display_ctrl_inst|out_sec_ge [2] $end
$var wire 1 }" display_ctrl_inst|out_sec_ge [1] $end
$var wire 1 ~" display_ctrl_inst|out_sec_ge [0] $end
$var wire 1 !# display_ctrl_inst|out_min_shi [6] $end
$var wire 1 "# display_ctrl_inst|out_min_shi [5] $end
$var wire 1 ## display_ctrl_inst|out_min_shi [4] $end
$var wire 1 $# display_ctrl_inst|out_min_shi [3] $end
$var wire 1 %# display_ctrl_inst|out_min_shi [2] $end
$var wire 1 &# display_ctrl_inst|out_min_shi [1] $end
$var wire 1 '# display_ctrl_inst|out_min_shi [0] $end
$var wire 1 (# display_ctrl_inst|out_min_ge [6] $end
$var wire 1 )# display_ctrl_inst|out_min_ge [5] $end
$var wire 1 *# display_ctrl_inst|out_min_ge [4] $end
$var wire 1 +# display_ctrl_inst|out_min_ge [3] $end
$var wire 1 ,# display_ctrl_inst|out_min_ge [2] $end
$var wire 1 -# display_ctrl_inst|out_min_ge [1] $end
$var wire 1 .# display_ctrl_inst|out_min_ge [0] $end
$var wire 1 /# display_ctrl_inst|out_hour_shi [6] $end
$var wire 1 0# display_ctrl_inst|out_hour_shi [5] $end
$var wire 1 1# display_ctrl_inst|out_hour_shi [4] $end
$var wire 1 2# display_ctrl_inst|out_hour_shi [3] $end
$var wire 1 3# display_ctrl_inst|out_hour_shi [2] $end
$var wire 1 4# display_ctrl_inst|out_hour_shi [1] $end
$var wire 1 5# display_ctrl_inst|out_hour_shi [0] $end
$var wire 1 6# display_ctrl_inst|out_hour_ge [6] $end
$var wire 1 7# display_ctrl_inst|out_hour_ge [5] $end
$var wire 1 8# display_ctrl_inst|out_hour_ge [4] $end
$var wire 1 9# display_ctrl_inst|out_hour_ge [3] $end
$var wire 1 :# display_ctrl_inst|out_hour_ge [2] $end
$var wire 1 ;# display_ctrl_inst|out_hour_ge [1] $end
$var wire 1 <# display_ctrl_inst|out_hour_ge [0] $end
$var wire 1 =# clock_min_ge~combout [3] $end
$var wire 1 ># clock_min_ge~combout [2] $end
$var wire 1 ?# clock_min_ge~combout [1] $end
$var wire 1 @# clock_min_ge~combout [0] $end
$var wire 1 A# clock_hour_shi~combout [3] $end
$var wire 1 B# clock_hour_shi~combout [2] $end
$var wire 1 C# clock_hour_shi~combout [1] $end
$var wire 1 D# clock_hour_shi~combout [0] $end
$var wire 1 E# clock_hour_ge~combout [3] $end
$var wire 1 F# clock_hour_ge~combout [2] $end
$var wire 1 G# clock_hour_ge~combout [1] $end
$var wire 1 H# clock_hour_ge~combout [0] $end
$var wire 1 I# clock_min_shi~combout [3] $end
$var wire 1 J# clock_min_shi~combout [2] $end
$var wire 1 K# clock_min_shi~combout [1] $end
$var wire 1 L# clock_min_shi~combout [0] $end
$upscope $end
$upscope $end
$enddefinitions $end
#0
$dumpvars
0!
1"
b11 #
b1 $
b0 %
b0 &
1'
1(
0)
00
0/
0.
0-
0,
0+
0*
07
06
05
04
03
02
01
0>
0=
0<
0;
0:
09
08
0E
0D
0C
0B
0A
0@
0?
0L
0K
0J
0I
0H
0G
0F
0S
0R
0Q
0P
0O
0N
0M
xT
0U
1V
xW
1X
1Y
1Z
0[
0\
0]
0^
1_
1`
0a
1b
0c
0d
1e
0f
1g
1h
1i
1j
1k
1l
1m
1n
1o
0p
0q
1r
0s
1t
0u
0v
1w
0x
0y
1z
0{
0|
1}
0~
0!!
1"!
0#!
0$!
1%!
0&!
0'!
0(!
0)!
1*!
0+!
0,!
1-!
0.!
1/!
00!
01!
02!
03!
04!
05!
06!
07!
08!
09!
0:!
0;!
0<!
0=!
0>!
0?!
0@!
0A!
0B!
0C!
0D!
0E!
0F!
0G!
0H!
0I!
1J!
1K!
0L!
0M!
0N!
0O!
0P!
0Q!
0R!
0S!
0T!
0U!
0V!
1W!
0X!
0Y!
0Z!
0[!
0\!
0]!
0^!
0_!
0`!
0a!
0b!
1c!
0d!
0e!
0f!
0g!
0h!
0i!
0j!
0k!
0l!
1m!
0n!
0o!
0p!
0q!
0r!
1s!
0t!
0u!
0v!
0w!
0x!
0y!
1z!
0{!
1|!
0}!
0~!
0!"
0""
0#"
1$"
0%"
0&"
0'"
0("
0)"
0*"
1+"
0,"
0-"
0."
1/"
00"
01"
02"
03"
04"
15"
06"
07"
08"
09"
0:"
0;"
1<"
0?"
0>"
0="
0C"
0B"
0A"
0@"
0S"
zR"
zQ"
zP"
zO"
zN"
zM"
zL"
zK"
zJ"
zI"
zH"
zG"
zF"
zE"
zD"
0V"
0U"
0T"
0Z"
0Y"
0X"
0W"
0\"
0["
0`"
0_"
0^"
0]"
0p"
0o"
0n"
0m"
0l"
0k"
0j"
0i"
0h"
0g"
0f"
0e"
0d"
0c"
0b"
0a"
0w"
0v"
0u"
0t"
0s"
0r"
0q"
0~"
0}"
0|"
0{"
0z"
0y"
0x"
0'#
0&#
0%#
0$#
0##
0"#
0!#
0.#
0-#
0,#
0+#
0*#
0)#
0(#
05#
z4#
03#
02#
01#
00#
0/#
0<#
0;#
0:#
09#
08#
07#
06#
0@#
0?#
0>#
0=#
1D#
0C#
0B#
0A#
1H#
1G#
0F#
0E#
0L#
0K#
0J#
0I#
$end
#1000
1!
1j!
1k!
0T
1/#
16#
1!#
1(#
1q"
1x"
1p"
1p
0n
11
1*
1?
18
1M
1F
1q
0o
#2000
0!
0j!
0k!
1T
#3000
1!
1j!
1k!
0T
1o"
0p"
0r
0q
0p
1n
1[
1r
1q
1o
1d
0[
0d
#4000
0!
0j!
0k!
1T
#5000
1!
1j!
1k!
0T
1p"
1p
0n
0r
0q
0o
1[
1d
#6000
0!
0j!
0k!
1T
#7000
1!
1j!
1k!
0T
0o"
0p"
1n"
1r
1q
1c
0p
1n
1s
0[
0s
1[
10!
0q
1o
1\
0d
0\
11!
0o
#8000
0!
0j!
0k!
1T
#9000
1!
1j!
1k!
0T
12!
0n"
1f
13!
0c
0[
00!
01!
1o
#10000
0!
0j!
0k!
1T
#11000
1!
1j!
1k!
0T
1C"
02!
1p"
0f
1r!
1q!
1p!
1l!
14!
0m
03!
1p
0n
1q
0o
#12000
0!
0j!
0k!
1T
#13000
1!
1j!
1k!
0T
1y"
1z"
1{"
1~"
1o"
0p"
0r
0q
0p
1n
1G
1H
1I
1L
1[
1r
1q
1o
1d
0[
0d
#14000
0!
0j!
0k!
1T
#15000
1!
1j!
1k!
0T
1p"
1p
0n
0r
0q
0o
1[
1d
#16000
0!
0j!
0k!
1T
#17000
1!
1j!
1k!
0T
0o"
0p"
1n"
1r
1q
1c
0p
1n
1s
0[
0s
1[
10!
0q
1o
1\
0d
0\
11!
0o
#18000
0!
0j!
0k!
1T
#19000
1!
1j!
1k!
0T
12!
0n"
1f
13!
0c
0[
00!
01!
1o
#20000
0!
0j!
0k!
1T
#21000
1!
1j!
1k!
0T
1B"
0C"
02!
1p"
0f
0s!
0q!
0p!
1o!
0l!
1m
03!
1p
0n
1q
0o
#22000
0!
0j!
0k!
1T
#23000
1!
1j!
1k!
0T
0x"
0z"
0{"
1|"
0~"
1o"
0p"
0r
0q
0p
1n
0F
0H
0I
1J
0L
1[
1r
1q
1o
1d
0[
0d
#24000
0!
0j!
0k!
1T
#25000
1!
1j!
1k!
0T
1p"
1p
0n
0r
0q
0o
1[
1d
#26000
0!
0j!
0k!
1T
#27000
1!
1j!
1k!
0T
0o"
0p"
1n"
1r
1q
1c
0p
1n
1s
0[
0s
1[
10!
0q
1o
1\
0d
0\
11!
0o
#28000
0!
0j!
0k!
1T
#29000
1!
1j!
1k!
0T
12!
0n"
1f
13!
0c
0[
00!
01!
1o
#30000
0!
0j!
0k!
1T
#31000
1!
1j!
1k!
0T
1C"
02!
1p"
0f
1q!
0o!
15!
04!
0m
03!
1p
0n
1q
0o
#32000
0!
0j!
0k!
1T
#33000
1!
1j!
1k!
0T
1z"
0|"
1o"
0p"
0r
0q
0p
1n
1H
0J
1[
1r
1q
1o
1d
0[
0d
#34000
0!
0j!
0k!
1T
#35000
1!
1j!
1k!
0T
1p"
1p
0n
0r
0q
0o
1[
1d
#36000
0!
0j!
0k!
1T
#37000
1!
1j!
1k!
0T
0o"
0p"
1n"
1r
1q
1c
0p
1n
1s
0[
0s
1[
10!
0q
1o
1\
0d
0\
11!
0o
#38000
0!
0j!
0k!
1T
#39000
1!
1j!
1k!
0T
12!
0n"
1f
13!
0c
0[
00!
01!
1o
#40000
0!
0j!
0k!
1T
#41000
1!
1j!
1k!
0T
1A"
0B"
0C"
02!
1p"
0f
0r!
1p!
1l!
1m
03!
1p
0n
1q
0o
#42000
0!
0j!
0k!
1T
#43000
1!
1j!
1k!
0T
0y"
1{"
1~"
1o"
0p"
0r
0q
0p
1n
0G
1I
1L
1[
1r
1q
1o
1d
0[
0d
#44000
0!
0j!
0k!
1T
#45000
1!
1j!
1k!
0T
1p"
1p
0n
0r
0q
0o
1[
1d
#46000
0!
0j!
0k!
1T
#47000
1!
1j!
1k!
0T
0o"
0p"
1n"
1r
1q
1c
0p
1n
1s
0[
0s
1[
10!
0q
1o
1\
0d
0\
11!
0o
#48000
0!
0j!
0k!
1T
#49000
1!
1j!
1k!
0T
12!
0n"
1f
13!
0c
0[
00!
01!
1o
#50000
0!
0j!
0k!
1T
#51000
1!
1j!
1k!
0T
1C"
02!
1p"
0f
0p!
1n!
0l!
14!
0m
03!
1p
0n
1q
0o
#52000
0!
0j!
0k!
1T
#53000
1!
1j!
1k!
0T
0{"
1}"
0~"
1o"
0p"
0r
0q
0p
1n
0I
1K
0L
1[
1r
1q
1o
1d
0[
0d
#54000
0!
0j!
0k!
1T
#55000
1!
1j!
1k!
0T
1p"
1p
0n
0r
0q
0o
1[
1d
#56000
0!
0j!
0k!
1T
#57000
1!
1j!
1k!
0T
0o"
0p"
1n"
1r
1q
1c
0p
1n
1s
0[
0s
1[
10!
0q
1o
1\
0d
0\
11!
0o
#58000
0!
0j!
0k!
1T
#59000
1!
1j!
1k!
0T
12!
0n"
1f
13!
0c
0[
00!
01!
1o
#60000
0!
0j!
0k!
1T
#61000
1!
1j!
1k!
0T
1B"
0C"
02!
1p"
0f
0q!
1m
03!
1p
0n
1q
0o
#62000
0!
0j!
0k!
1T
#63000
1!
1j!
1k!
0T
0z"
1o"
0p"
0r
0q
0p
1n
0H
1[
1r
1q
1o
1d
0[
0d
#64000
0!
0j!
0k!
1T
#65000
1!
1j!
1k!
0T
1p"
1p
0n
0r
0q
0o
1[
1d
#66000
0!
0j!
0k!
1T
#67000
1!
1j!
1k!
0T
0o"
0p"
1n"
1r
1q
1c
0p
1n
1s
0[
0s
1[
10!
0q
1o
1\
0d
0\
11!
0o
#68000
0!
0j!
0k!
1T
#69000
1!
1j!
1k!
0T
12!
0n"
1f
13!
0c
0[
00!
01!
1o
#70000
0!
0j!
0k!
1T
#71000
1!
1j!
1k!
0T
1C"
02!
1p"
0f
1s!
1r!
1q!
1p!
0n!
16!
05!
04!
0m
03!
1p
0n
17!
1q
0o
#72000
0!
0j!
0k!
1T
#73000
1!
1j!
1k!
0T
1x"
1y"
1z"
1{"
0}"
1o"
0p"
0r
0q
0p
1n
1F
1G
1H
1I
0K
1[
1r
1q
1o
1d
0[
0d
#74000
0!
0j!
0k!
1T
#75000
1!
1j!
1k!
0T
1p"
1p
0n
0r
0q
0o
1[
1d
#76000
0!
0j!
0k!
1T
#77000
1!
1j!
1k!
0T
0o"
0p"
1n"
1r
1q
1c
0p
1n
1s
0[
0s
1[
10!
0q
1o
1\
0d
0\
11!
0o
#78000
0!
0j!
0k!
1T
#79000
1!
1j!
1k!
0T
12!
0n"
1f
13!
0c
0[
00!
01!
1o
#80000
0(
0!
0h
0j!
0k!
1T
0c!
1Y!
1V!
1P!
1L!
0K!
1H!
1D!
1@!
1<!
1;!
07!
15!
1m
#81000
1!
1j!
1k!
0T
1_"
1\"
1T"
1V"
1W"
1Z"
1="
0B"
02!
1p"
0f
05"
14"
11"
1]!
1X!
1;"
1:"
16"
1^
0+"
1)"
1&"
1f!
0J!
0$"
1""
1E!
1a
1b!
0_
0z!
1x!
1w!
1t!
0s!
0r!
0p!
1n!
06!
1p
0n
19"
17"
0b
1q
0o
#82000
0!
0j!
0k!
1T
#83000
1!
1j!
1k!
0T
10#
11#
12#
15#
06#
17#
1:#
0!#
1##
1&#
0(#
1*#
0q"
1s"
1t"
1w"
0x"
0y"
0{"
1}"
1o"
0p"
0r
0q
0p
1n
12
13
14
17
0*
1+
1.
0?
1A
1D
08
1:
0M
1O
1P
1S
0F
0G
0I
1K
1[
1r
1q
1o
1d
0[
0d
#84000
0!
0j!
0k!
1T
#85000
1!
1j!
1k!
0T
1p"
1p
0n
0r
0q
0o
1[
1d
#86000
0!
0j!
0k!
1T
#87000
1!
1j!
1k!
0T
0o"
0p"
1n"
1r
1q
1c
0p
1n
1s
0[
0s
1[
10!
0q
1o
1\
0d
0\
11!
0o
#88000
0!
0j!
0k!
1T
#89000
1!
1j!
1k!
0T
12!
0n"
1f
0c
0[
00!
01!
1o
#90000
0!
0j!
0k!
1T
#91000
1!
1j!
1k!
0T
02!
1p"
0f
1p
0n
1q
0o
#92000
0!
0j!
0k!
1T
#93000
1!
1j!
1k!
0T
1o"
0p"
0r
0q
0p
1n
1[
1r
1q
1o
1d
0[
0d
#94000
0!
0j!
0k!
1T
#95000
1!
1j!
1k!
0T
1p"
1p
0n
0r
0q
0o
1[
1d
#96000
0!
0j!
0k!
1T
#97000
1!
1j!
1k!
0T
0o"
0p"
1n"
1r
1q
1c
0p
1n
1s
0[
0s
1[
10!
0q
1o
1\
0d
0\
11!
0o
#98000
0!
0j!
0k!
1T
#99000
1!
1j!
1k!
0T
12!
0n"
1f
0c
0[
00!
01!
1o
#100000
1(
0!
1h
0j!
0k!
1T
1c!
0W!
0V!
1S!
0P!
0L!
1K!
0H!
0D!
0@!
0<!
14!
0m
0l
0i
#101000
1!
1j!
1k!
0T
1B"
0C"
02!
1p"
0f
0q!
1m
03!
1p
0n
1q
0o
#102000
0!
0j!
0k!
1T
#103000
1!
1j!
1k!
0T
0z"
1o"
0p"
0r
0q
0p
1n
0H
1[
1r
1q
1o
1d
0[
0d
#104000
0!
0j!
0k!
1T
