simulation/qsim/Digital_Clock.msim.vcd
$comment
	File created using the following command:
		vcd file Digital_Clock.msim.vcd -direction
$end
$date
	Sun Oct 16 21:53:33 2022
$end
$version
	ModelSim Version 10.1d
$end
$timescale
	1ps
$end
$scope module TOP_vlg_vec_tst $end
$var reg 1 ! clk $end
$var reg 1 " clock_en $end
$var reg 4 # clock_hour_ge [3:0] $end
$var reg 4 $ clock_hour_shi [3:0] $end
$var reg 4 % clock_min_ge [3:0] $end
$var reg 4 & clock_min_shi [3:0] $end
$var reg 1 ' rst_n $end
$var reg 4 ( set_hour_ge [3:0] $end
$var reg 4 ) set_hour_shi [3:0] $end
$var reg 4 * set_min_ge [3:0] $end
$var reg 4 + set_min_shi [3:0] $end
$var reg 4 , set_sec_ge [3:0] $end
$var reg 4 - set_sec_shi [3:0] $end
$var reg 1 . set_time_finish $end
$var wire 1 / clock_out $end
$var wire 1 0 hour_ge_r [3] $end
$var wire 1 1 hour_ge_r [2] $end
$var wire 1 2 hour_ge_r [1] $end
$var wire 1 3 hour_ge_r [0] $end
$var wire 1 4 hour_shi_r [3] $end
$var wire 1 5 hour_shi_r [2] $end
$var wire 1 6 hour_shi_r [1] $end
$var wire 1 7 hour_shi_r [0] $end
$var wire 1 8 min_ge_r [3] $end
$var wire 1 9 min_ge_r [2] $end
$var wire 1 : min_ge_r [1] $end
$var wire 1 ; min_ge_r [0] $end
$var wire 1 < min_shi_r [3] $end
$var wire 1 = min_shi_r [2] $end
$var wire 1 > min_shi_r [1] $end
$var wire 1 ? min_shi_r [0] $end
$var wire 1 @ out_hour_ge_seg [6] $end
$var wire 1 A out_hour_ge_seg [5] $end
$var wire 1 B out_hour_ge_seg [4] $end
$var wire 1 C out_hour_ge_seg [3] $end
$var wire 1 D out_hour_ge_seg [2] $end
$var wire 1 E out_hour_ge_seg [1] $end
$var wire 1 F out_hour_ge_seg [0] $end
$var wire 1 G out_hour_shi_seg [6] $end
$var wire 1 H out_hour_shi_seg [5] $end
$var wire 1 I out_hour_shi_seg [4] $end
$var wire 1 J out_hour_shi_seg [3] $end
$var wire 1 K out_hour_shi_seg [2] $end
$var wire 1 L out_hour_shi_seg [1] $end
$var wire 1 M out_hour_shi_seg [0] $end
$var wire 1 N out_min_ge_seg [6] $end
$var wire 1 O out_min_ge_seg [5] $end
$var wire 1 P out_min_ge_seg [4] $end
$var wire 1 Q out_min_ge_seg [3] $end
$var wire 1 R out_min_ge_seg [2] $end
$var wire 1 S out_min_ge_seg [1] $end
$var wire 1 T out_min_ge_seg [0] $end
$var wire 1 U out_min_shi_seg [6] $end
$var wire 1 V out_min_shi_seg [5] $end
$var wire 1 W out_min_shi_seg [4] $end
$var wire 1 X out_min_shi_seg [3] $end
$var wire 1 Y out_min_shi_seg [2] $end
$var wire 1 Z out_min_shi_seg [1] $end
$var wire 1 [ out_min_shi_seg [0] $end
$var wire 1 \ out_sec_ge_seg [6] $end
$var wire 1 ] out_sec_ge_seg [5] $end
$var wire 1 ^ out_sec_ge_seg [4] $end
$var wire 1 _ out_sec_ge_seg [3] $end
$var wire 1 ` out_sec_ge_seg [2] $end
$var wire 1 a out_sec_ge_seg [1] $end
$var wire 1 b out_sec_ge_seg [0] $end
$var wire 1 c out_sec_shi_seg [6] $end
$var wire 1 d out_sec_shi_seg [5] $end
$var wire 1 e out_sec_shi_seg [4] $end
$var wire 1 f out_sec_shi_seg [3] $end
$var wire 1 g out_sec_shi_seg [2] $end
$var wire 1 h out_sec_shi_seg [1] $end
$var wire 1 i out_sec_shi_seg [0] $end
$var wire 1 j sec_ge_r [3] $end
$var wire 1 k sec_ge_r [2] $end
$var wire 1 l sec_ge_r [1] $end
$var wire 1 m sec_ge_r [0] $end
$var wire 1 n sec_shi_r [3] $end
$var wire 1 o sec_shi_r [2] $end
$var wire 1 p sec_shi_r [1] $end
$var wire 1 q sec_shi_r [0] $end
$var wire 1 r sampler $end
$scope module i1 $end
$var wire 1 s gnd $end
$var wire 1 t vcc $end
$var wire 1 u unknown $end
$var tri1 1 v devclrn $end
$var tri1 1 w devpor $end
$var tri1 1 x devoe $end
$var wire 1 y time_control_inst|Add0~16_combout $end
$var wire 1 z time_control_inst|Add0~20_combout $end
$var wire 1 { time_control_inst|Add0~29 $end
$var wire 1 | time_control_inst|Add0~30_combout $end
$var wire 1 } time_control_inst|clock_out~0_combout $end
$var wire 1 ~ time_control_inst|clock_out~1_combout $end
$var wire 1 !! time_control_inst|clock_out~2_combout $end
$var wire 1 "! time_control_inst|clock_out~3_combout $end
$var wire 1 #! time_control_inst|clock_out~4_combout $end
$var wire 1 $! time_control_inst|Add1~2_combout $end
$var wire 1 %! time_control_inst|hour_ge~2_combout $end
$var wire 1 &! time_control_inst|Equal0~1_combout $end
$var wire 1 '! clk~combout $end
$var wire 1 (! clk~clkctrl_outclk $end
$var wire 1 )! clock_en~combout $end
$var wire 1 *! time_control_inst|hour_ge~0_combout $end
$var wire 1 +! rst_n~combout $end
$var wire 1 ,! rst_n~clkctrl_outclk $end
$var wire 1 -! time_control_inst|min_shi~1_combout $end
$var wire 1 .! set_time_finish~combout $end
$var wire 1 /! time_control_inst|sec_shi[0]~_wirecell_combout $end
$var wire 1 0! time_control_inst|Add0~0_combout $end
$var wire 1 1! time_control_inst|cnt_1ms~1_combout $end
$var wire 1 2! time_control_inst|Add0~1 $end
$var wire 1 3! time_control_inst|Add0~2_combout $end
$var wire 1 4! time_control_inst|Add0~3 $end
$var wire 1 5! time_control_inst|Add0~4_combout $end
$var wire 1 6! time_control_inst|cnt_1ms~0_combout $end
$var wire 1 7! time_control_inst|Add0~5 $end
$var wire 1 8! time_control_inst|Add0~6_combout $end
$var wire 1 9! time_control_inst|Equal0~3_combout $end
$var wire 1 :! time_control_inst|Add0~7 $end
$var wire 1 ;! time_control_inst|Add0~8_combout $end
$var wire 1 <! time_control_inst|Add0~9 $end
$var wire 1 =! time_control_inst|Add0~11 $end
$var wire 1 >! time_control_inst|Add0~13 $end
$var wire 1 ?! time_control_inst|Add0~14_combout $end
$var wire 1 @! time_control_inst|Add0~15 $end
$var wire 1 A! time_control_inst|Add0~17 $end
$var wire 1 B! time_control_inst|Add0~18_combout $end
$var wire 1 C! time_control_inst|Add0~19 $end
$var wire 1 D! time_control_inst|Add0~21 $end
$var wire 1 E! time_control_inst|Add0~22_combout $end
$var wire 1 F! time_control_inst|Add0~23 $end
$var wire 1 G! time_control_inst|Add0~24_combout $end
$var wire 1 H! time_control_inst|Add0~25 $end
$var wire 1 I! time_control_inst|Add0~26_combout $end
$var wire 1 J! time_control_inst|Add0~27 $end
$var wire 1 K! time_control_inst|Add0~28_combout $end
$var wire 1 L! time_control_inst|Equal0~0_combout $end
$var wire 1 M! time_control_inst|Add0~12_combout $end
$var wire 1 N! time_control_inst|Add0~10_combout $end
$var wire 1 O! time_control_inst|Equal0~2_combout $end
$var wire 1 P! time_control_inst|Equal0~4_combout $end
$var wire 1 Q! time_control_inst|flag_1ms~feeder_combout $end
$var wire 1 R! time_control_inst|flag_1ms~regout $end
$var wire 1 S! time_control_inst|sec_ge~4_combout $end
$var wire 1 T! time_control_inst|sec_ge[0]~1_combout $end
$var wire 1 U! time_control_inst|sec_ge~0_combout $end
$var wire 1 V! time_control_inst|Add1~0_combout $end
$var wire 1 W! time_control_inst|sec_ge~2_combout $end
$var wire 1 X! time_control_inst|Add1~1_combout $end
$var wire 1 Y! time_control_inst|sec_ge~3_combout $end
$var wire 1 Z! time_control_inst|flag_sec_ge~0_combout $end
$var wire 1 [! time_control_inst|flag_sec_ge~1_combout $end
$var wire 1 \! time_control_inst|flag_sec_ge~regout $end
$var wire 1 ]! time_control_inst|sec_shi[0]~0_combout $end
$var wire 1 ^! time_control_inst|sec_shi~1_combout $end
$var wire 1 _! time_control_inst|sec_shi~2_combout $end
$var wire 1 `! time_control_inst|flag_sec_shi~0_combout $end
$var wire 1 a! time_control_inst|flag_sec_shi~regout $end
$var wire 1 b! time_control_inst|min_ge~0_combout $end
$var wire 1 c! time_control_inst|min_ge[0]~1_combout $end
$var wire 1 d! time_control_inst|Add3~0_combout $end
$var wire 1 e! time_control_inst|min_ge~2_combout $end
$var wire 1 f! time_control_inst|Add3~1_combout $end
$var wire 1 g! time_control_inst|min_ge~3_combout $end
$var wire 1 h! time_control_inst|Add3~2_combout $end
$var wire 1 i! time_control_inst|min_ge~4_combout $end
$var wire 1 j! time_control_inst|flag_min_ge~0_combout $end
$var wire 1 k! time_control_inst|flag_min_ge~1_combout $end
$var wire 1 l! time_control_inst|flag_min_ge~regout $end
$var wire 1 m! time_control_inst|min_shi[0]~0_combout $end
$var wire 1 n! time_control_inst|min_shi~2_combout $end
$var wire 1 o! time_control_inst|flag_min_shi~0_combout $end
$var wire 1 p! time_control_inst|flag_min_shi~regout $end
$var wire 1 q! time_control_inst|hour_ge[3]~1_combout $end
$var wire 1 r! time_control_inst|Add5~0_combout $end
$var wire 1 s! time_control_inst|hour_ge~7_combout $end
$var wire 1 t! time_control_inst|hour_ge~8_combout $end
$var wire 1 u! time_control_inst|hour_ge~9_combout $end
$var wire 1 v! time_control_inst|hour_shi~0_combout $end
$var wire 1 w! time_control_inst|hour_shi~0_wirecell_combout $end
$var wire 1 x! time_control_inst|flag_hour_ge~0_combout $end
$var wire 1 y! time_control_inst|flag_hour_ge~regout $end
$var wire 1 z! time_control_inst|hour_shi[1]~1_combout $end
$var wire 1 {! display_ctrl_inst|Mux36~0_combout $end
$var wire 1 |! time_control_inst|hour_ge[3]~3_combout $end
$var wire 1 }! time_control_inst|hour_ge~4_combout $end
$var wire 1 ~! time_control_inst|hour_ge~6_combout $end
$var wire 1 !" time_control_inst|hour_ge~5_combout $end
$var wire 1 "" time_control_inst|clock_out~5_combout $end
$var wire 1 #" time_control_inst|clock_out~6_combout $end
$var wire 1 $" time_control_inst|clock_out~7_combout $end
$var wire 1 %" time_control_inst|clock_out~8_combout $end
$var wire 1 &" time_control_inst|clock_out~9_combout $end
$var wire 1 '" time_control_inst|clock_out~regout $end
$var wire 1 (" time_control_inst|min_shi[0]~_wirecell_combout $end
$var wire 1 )" display_ctrl_inst|Mux6~0_combout $end
$var wire 1 *" display_ctrl_inst|out_sec_ge[3]~0_combout $end
$var wire 1 +" display_ctrl_inst|Mux5~0_combout $end
$var wire 1 ," display_ctrl_inst|Mux4~0_combout $end
$var wire 1 -" display_ctrl_inst|Mux3~0_combout $end
$var wire 1 ." display_ctrl_inst|Mux2~0_combout $end
$var wire 1 /" display_ctrl_inst|Mux1~0_combout $end
$var wire 1 0" display_ctrl_inst|Mux0~0_combout $end
$var wire 1 1" display_ctrl_inst|Mux13~0_combout $end
$var wire 1 2" display_ctrl_inst|Mux12~0_combout $end
$var wire 1 3" display_ctrl_inst|Mux11~0_combout $end
$var wire 1 4" display_ctrl_inst|Mux10~0_combout $end
$var wire 1 5" display_ctrl_inst|Mux9~0_combout $end
$var wire 1 6" display_ctrl_inst|Mux8~0_combout $end
$var wire 1 7" display_ctrl_inst|Mux7~0_combout $end
$var wire 1 8" display_ctrl_inst|Mux20~0_combout $end
$var wire 1 9" display_ctrl_inst|out_min_ge[6]~0_combout $end
$var wire 1 :" display_ctrl_inst|Mux19~0_combout $end
$var wire 1 ;" display_ctrl_inst|Mux18~0_combout $end
$var wire 1 <" display_ctrl_inst|Mux17~0_combout $end
$var wire 1 =" display_ctrl_inst|Mux16~0_combout $end
$var wire 1 >" display_ctrl_inst|Mux15~0_combout $end
$var wire 1 ?" display_ctrl_inst|Mux14~0_combout $end
$var wire 1 @" display_ctrl_inst|Mux27~0_combout $end
$var wire 1 A" display_ctrl_inst|Mux26~0_combout $end
$var wire 1 B" display_ctrl_inst|Mux25~0_combout $end
$var wire 1 C" display_ctrl_inst|Mux24~0_combout $end
$var wire 1 D" display_ctrl_inst|Mux23~0_combout $end
$var wire 1 E" display_ctrl_inst|Mux22~0_combout $end
$var wire 1 F" display_ctrl_inst|Mux21~0_combout $end
$var wire 1 G" display_ctrl_inst|Mux34~0_combout $end
$var wire 1 H" display_ctrl_inst|out_hour_ge[6]~0_combout $end
$var wire 1 I" display_ctrl_inst|Mux33~0_combout $end
$var wire 1 J" display_ctrl_inst|Mux32~0_combout $end
$var wire 1 K" display_ctrl_inst|Mux31~0_combout $end
$var wire 1 L" display_ctrl_inst|Mux30~0_combout $end
$var wire 1 M" display_ctrl_inst|Mux29~0_combout $end
$var wire 1 N" display_ctrl_inst|Mux28~0_combout $end
$var wire 1 O" display_ctrl_inst|out_hour_shi[0]~feeder_combout $end
$var wire 1 P" display_ctrl_inst|Mux36~1_combout $end
$var wire 1 Q" display_ctrl_inst|out_hour_shi[3]~feeder_combout $end
$var wire 1 R" display_ctrl_inst|out_hour_shi[4]~feeder_combout $end
$var wire 1 S" display_ctrl_inst|out_hour_shi[5]~feeder_combout $end
$var wire 1 T" display_ctrl_inst|out_hour_shi[6]~0_combout $end
$var wire 1 U" time_control_inst|sec_shi [2] $end
$var wire 1 V" time_control_inst|sec_shi [1] $end
$var wire 1 W" time_control_inst|sec_shi [0] $end
$var wire 1 X" time_control_inst|sec_ge [3] $end
$var wire 1 Y" time_control_inst|sec_ge [2] $end
$var wire 1 Z" time_control_inst|sec_ge [1] $end
$var wire 1 [" time_control_inst|sec_ge [0] $end
$var wire 1 \" time_control_inst|min_shi [2] $end
$var wire 1 ]" time_control_inst|min_shi [1] $end
$var wire 1 ^" time_control_inst|min_shi [0] $end
$var wire 1 _" time_control_inst|min_ge [3] $end
$var wire 1 `" time_control_inst|min_ge [2] $end
$var wire 1 a" time_control_inst|min_ge [1] $end
$var wire 1 b" time_control_inst|min_ge [0] $end
$var wire 1 c" time_control_inst|hour_shi [1] $end
$var wire 1 d" time_control_inst|hour_shi [0] $end
$var wire 1 e" time_control_inst|hour_ge [3] $end
$var wire 1 f" time_control_inst|hour_ge [2] $end
$var wire 1 g" time_control_inst|hour_ge [1] $end
$var wire 1 h" time_control_inst|hour_ge [0] $end
$var wire 1 i" time_control_inst|cnt_1ms [15] $end
$var wire 1 j" time_control_inst|cnt_1ms [14] $end
$var wire 1 k" time_control_inst|cnt_1ms [13] $end
$var wire 1 l" time_control_inst|cnt_1ms [12] $end
$var wire 1 m" time_control_inst|cnt_1ms [11] $end
$var wire 1 n" time_control_inst|cnt_1ms [10] $end
$var wire 1 o" time_control_inst|cnt_1ms [9] $end
$var wire 1 p" time_control_inst|cnt_1ms [8] $end
$var wire 1 q" time_control_inst|cnt_1ms [7] $end
$var wire 1 r" time_control_inst|cnt_1ms [6] $end
$var wire 1 s" time_control_inst|cnt_1ms [5] $end
$var wire 1 t" time_control_inst|cnt_1ms [4] $end
$var wire 1 u" time_control_inst|cnt_1ms [3] $end
$var wire 1 v" time_control_inst|cnt_1ms [2] $end
$var wire 1 w" time_control_inst|cnt_1ms [1] $end
$var wire 1 x" time_control_inst|cnt_1ms [0] $end
$var wire 1 y" display_ctrl_inst|out_sec_shi [6] $end
$var wire 1 z" display_ctrl_inst|out_sec_shi [5] $end
$var wire 1 {" display_ctrl_inst|out_sec_shi [4] $end
$var wire 1 |" display_ctrl_inst|out_sec_shi [3] $end
$var wire 1 }" display_ctrl_inst|out_sec_shi [2] $end
$var wire 1 ~" display_ctrl_inst|out_sec_shi [1] $end
$var wire 1 !# display_ctrl_inst|out_sec_shi [0] $end
$var wire 1 "# display_ctrl_inst|out_sec_ge [6] $end
$var wire 1 ## display_ctrl_inst|out_sec_ge [5] $end
$var wire 1 $# display_ctrl_inst|out_sec_ge [4] $end
$var wire 1 %# display_ctrl_inst|out_sec_ge [3] $end
$var wire 1 &# display_ctrl_inst|out_sec_ge [2] $end
$var wire 1 '# display_ctrl_inst|out_sec_ge [1] $end
$var wire 1 (# display_ctrl_inst|out_sec_ge [0] $end
$var wire 1 )# display_ctrl_inst|out_min_shi [6] $end
$var wire 1 *# display_ctrl_inst|out_min_shi [5] $end
$var wire 1 +# display_ctrl_inst|out_min_shi [4] $end
$var wire 1 ,# display_ctrl_inst|out_min_shi [3] $end
$var wire 1 -# display_ctrl_inst|out_min_shi [2] $end
$var wire 1 .# display_ctrl_inst|out_min_shi [1] $end
$var wire 1 /# display_ctrl_inst|out_min_shi [0] $end
$var wire 1 0# display_ctrl_inst|out_min_ge [6] $end
$var wire 1 1# display_ctrl_inst|out_min_ge [5] $end
$var wire 1 2# display_ctrl_inst|out_min_ge [4] $end
$var wire 1 3# display_ctrl_inst|out_min_ge [3] $end
$var wire 1 4# display_ctrl_inst|out_min_ge [2] $end
$var wire 1 5# display_ctrl_inst|out_min_ge [1] $end
$var wire 1 6# display_ctrl_inst|out_min_ge [0] $end
$var wire 1 7# display_ctrl_inst|out_hour_shi [6] $end
$var wire 1 8# display_ctrl_inst|out_hour_shi [5] $end
$var wire 1 9# display_ctrl_inst|out_hour_shi [4] $end
$var wire 1 :# display_ctrl_inst|out_hour_shi [3] $end
$var wire 1 ;# display_ctrl_inst|out_hour_shi [2] $end
$var wire 1 <# display_ctrl_inst|out_hour_shi [1] $end
$var wire 1 =# display_ctrl_inst|out_hour_shi [0] $end
$var wire 1 ># display_ctrl_inst|out_hour_ge [6] $end
$var wire 1 ?# display_ctrl_inst|out_hour_ge [5] $end
$var wire 1 @# display_ctrl_inst|out_hour_ge [4] $end
$var wire 1 A# display_ctrl_inst|out_hour_ge [3] $end
$var wire 1 B# display_ctrl_inst|out_hour_ge [2] $end
$var wire 1 C# display_ctrl_inst|out_hour_ge [1] $end
$var wire 1 D# display_ctrl_inst|out_hour_ge [0] $end
$var wire 1 E# set_min_shi~combout [3] $end
$var wire 1 F# set_min_shi~combout [2] $end
$var wire 1 G# set_min_shi~combout [1] $end
$var wire 1 H# set_min_shi~combout [0] $end
$var wire 1 I# clock_min_ge~combout [3] $end
$var wire 1 J# clock_min_ge~combout [2] $end
$var wire 1 K# clock_min_ge~combout [1] $end
$var wire 1 L# clock_min_ge~combout [0] $end
$var wire 1 M# clock_hour_shi~combout [3] $end
$var wire 1 N# clock_hour_shi~combout [2] $end
$var wire 1 O# clock_hour_shi~combout [1] $end
$var wire 1 P# clock_hour_shi~combout [0] $end
$var wire 1 Q# clock_hour_ge~combout [3] $end
$var wire 1 R# clock_hour_ge~combout [2] $end
$var wire 1 S# clock_hour_ge~combout [1] $end
$var wire 1 T# clock_hour_ge~combout [0] $end
$var wire 1 U# set_min_ge~combout [3] $end
$var wire 1 V# set_min_ge~combout [2] $end
$var wire 1 W# set_min_ge~combout [1] $end
$var wire 1 X# set_min_ge~combout [0] $end
$var wire 1 Y# set_hour_shi~combout [3] $end
$var wire 1 Z# set_hour_shi~combout [2] $end
$var wire 1 [# set_hour_shi~combout [1] $end
$var wire 1 \# set_hour_shi~combout [0] $end
$var wire 1 ]# clock_min_shi~combout [3] $end
$var wire 1 ^# clock_min_shi~combout [2] $end
$var wire 1 _# clock_min_shi~combout [1] $end
$var wire 1 `# clock_min_shi~combout [0] $end
$var wire 1 a# set_sec_shi~combout [3] $end
$var wire 1 b# set_sec_shi~combout [2] $end
$var wire 1 c# set_sec_shi~combout [1] $end
$var wire 1 d# set_sec_shi~combout [0] $end
$var wire 1 e# set_sec_ge~combout [3] $end
$var wire 1 f# set_sec_ge~combout [2] $end
$var wire 1 g# set_sec_ge~combout [1] $end
$var wire 1 h# set_sec_ge~combout [0] $end
$var wire 1 i# set_hour_ge~combout [3] $end
$var wire 1 j# set_hour_ge~combout [2] $end
$var wire 1 k# set_hour_ge~combout [1] $end
$var wire 1 l# set_hour_ge~combout [0] $end
$upscope $end
$upscope $end
$enddefinitions $end
#0
$dumpvars
0!
1"
b10 #
b1 $
b1 %
b0 &
1'
b10 (
b1 )
b0 *
b0 +
b0 ,
b0 -
1.
0/
03
02
01
00
07
06
05
04
0;
0:
09
08
0?
0>
0=
0<
0F
0E
0D
0C
0B
0A
0@
0M
0L
0K
0J
0I
0H
0G
0T
0S
0R
0Q
0P
0O
0N
0[
0Z
0Y
0X
0W
0V
0U
0b
0a
0`
0_
0^
0]
0\
0i
0h
0g
0f
0e
0d
0c
0m
0l
0k
0j
0q
0p
0o
0n
xr
0s
1t
xu
1v
1w
1x
0y
0z
0{
0|
0}
1~
1!!
1"!
0#!
0$!
0%!
1&!
0'!
0(!
1)!
1*!
1+!
1,!
0-!
1.!
1/!
10!
11!
02!
03!
14!
05!
06!
07!
08!
09!
1:!
0;!
0<!
1=!
0>!
0?!
1@!
0A!
0B!
1C!
0D!
0E!
1F!
0G!
0H!
0I!
1J!
0K!
1L!
0M!
0N!
1O!
0P!
0Q!
0R!
0S!
0T!
1U!
0V!
0W!
0X!
0Y!
0Z!
0[!
0\!
0]!
0^!
0_!
0`!
0a!
1b!
0c!
0d!
0e!
0f!
0g!
0h!
0i!
0j!
0k!
0l!
0m!
0n!
0o!
0p!
0q!
0r!
0s!
1t!
0u!
0v!
1w!
0x!
0y!
0z!
0{!
0|!
1}!
0~!
0!"
0""
1#"
1$"
0%"
0&"
0'"
1("
0)"
1*"
0+"
0,"
0-"
0."
0/"
10"
01"
02"
03"
04"
05"
06"
17"
08"
19"
0:"
0;"
0<"
0="
0>"
1?"
0@"
0A"
0B"
0C"
0D"
0E"
1F"
0G"
1H"
0I"
0J"
0K"
0L"
0M"
1N"
0O"
0P"
0Q"
0R"
0S"
1T"
0W"
0V"
0U"
0["
0Z"
0Y"
0X"
0^"
0]"
0\"
0b"
0a"
0`"
0_"
0d"
0c"
0h"
0g"
0f"
0e"
0x"
0w"
0v"
0u"
0t"
0s"
0r"
0q"
0p"
0o"
0n"
0m"
0l"
0k"
0j"
0i"
0!#
0~"
0}"
0|"
0{"
0z"
0y"
0(#
0'#
0&#
0%#
0$#
0##
0"#
0/#
0.#
0-#
0,#
0+#
0*#
0)#
06#
05#
04#
03#
02#
01#
00#
0=#
z<#
0;#
0:#
09#
08#
07#
0D#
0C#
0B#
0A#
0@#
0?#
0>#
0H#
0G#
0F#
zE#
1L#
0K#
0J#
0I#
1P#
0O#
0N#
0M#
0T#
1S#
0R#
0Q#
0X#
0W#
0V#
0U#
1\#
0[#
zZ#
zY#
0`#
0_#
0^#
0]#
0d#
0c#
0b#
za#
0h#
0g#
0f#
0e#
0l#
1k#
0j#
0i#
$end
#1000
1!
1'!
1(!
0r
17#
1>#
1)#
10#
1y"
1"#
1x"
12!
00!
1G
1@
1U
1N
1c
1\
13!
01!
#2000
0!
0'!
0(!
1r
#3000
1!
1'!
1(!
0r
1w"
0x"
04!
03!
02!
10!
15!
14!
13!
11!
16!
05!
06!
#4000
0!
0'!
0(!
1r
#5000
1!
1'!
1(!
0r
1x"
12!
00!
04!
03!
01!
15!
16!
#6000
0!
0'!
0(!
1r
#7000
1!
1'!
1(!
0r
1v"
0w"
0x"
19!
17!
05!
14!
13!
02!
10!
1P!
18!
06!
07!
15!
03!
11!
1Q!
01!
08!
#8000
0!
0'!
0(!
1r
#9000
1!
1'!
1(!
0r
1R!
0v"
1T!
09!
05!
0P!
0Q!
11!
#10000
0!
0'!
0(!
1r
#11000
1!
1'!
1(!
0r
1["
0R!
1x"
1/"
1."
1-"
1)"
1V!
0U!
0T!
12!
00!
1m
1W!
13!
01!
#12000
0!
0'!
0(!
1r
#13000
1!
1'!
1(!
0r
1##
1$#
1%#
1(#
1w"
0x"
04!
03!
02!
10!
1]
1^
1_
1b
15!
14!
13!
11!
16!
05!
06!
#14000
0!
0'!
0(!
1r
#15000
1!
1'!
1(!
0r
1x"
12!
00!
04!
03!
01!
15!
16!
#16000
0!
0'!
0(!
1r
#17000
1!
1'!
1(!
0r
1v"
0w"
0x"
19!
17!
05!
14!
13!
02!
10!
1P!
18!
06!
07!
15!
03!
11!
1Q!
01!
08!
#18000
0!
0'!
0(!
1r
#19000
1!
1'!
1(!
0r
1R!
0v"
1T!
09!
05!
0P!
0Q!
11!
#20000
0!
0'!
0(!
1r
#21000
1!
1'!
1(!
0r
1Z"
0["
0R!
1x"
00"
0."
0-"
1,"
0)"
1U!
0T!
12!
00!
1l
0m
13!
01!
#22000
0!
0'!
0(!
1r
#23000
1!
1'!
1(!
0r
0"#
0$#
0%#
1&#
0(#
1w"
0x"
04!
03!
02!
10!
0\
0^
0_
1`
0b
15!
14!
13!
11!
16!
05!
06!
#24000
0!
0'!
0(!
1r
#25000
1!
1'!
1(!
0r
1x"
12!
00!
04!
03!
01!
15!
16!
#26000
0!
0'!
0(!
1r
#27000
1!
1'!
1(!
0r
1v"
0w"
0x"
19!
17!
05!
14!
13!
02!
10!
1P!
18!
06!
07!
15!
03!
11!
1Q!
01!
08!
#28000
0!
0'!
0(!
1r
#29000
1!
1'!
1(!
0r
1R!
0v"
1T!
09!
05!
0P!
0Q!
11!
#30000
0!
0'!
0(!
1r
#31000
1!
1'!
1(!
0r
1["
0R!
1x"
1."
0,"
1X!
0V!
0U!
0T!
12!
00!
1m
1Y!
0W!
13!
01!
#32000
0!
0'!
0(!
1r
#33000
1!
1'!
1(!
0r
1$#
0&#
1w"
0x"
04!
03!
02!
10!
1^
0`
15!
14!
13!
11!
16!
05!
06!
#34000
0!
0'!
0(!
1r
#35000
1!
1'!
1(!
0r
1x"
12!
00!
04!
03!
01!
15!
16!
#36000
0!
0'!
0(!
1r
#37000
1!
1'!
1(!
0r
1v"
0w"
0x"
19!
17!
05!
14!
13!
02!
10!
1P!
18!
06!
07!
15!
03!
11!
1Q!
01!
08!
#38000
0!
0'!
0(!
1r
#39000
1!
1'!
1(!
0r
1R!
0v"
1T!
09!
05!
0P!
0Q!
11!
#40000
0!
0'!
0(!
1r
#41000
1!
1'!
1(!
0r
1Y"
0Z"
0["
0R!
1x"
0/"
1-"
1)"
1U!
0T!
12!
00!
1k
0l
0m
13!
01!
#42000
0!
0'!
0(!
1r
#43000
1!
1'!
1(!
0r
0##
1%#
1(#
1w"
0x"
04!
03!
02!
10!
0]
1_
1b
15!
14!
13!
11!
16!
05!
06!
#44000
0!
0'!
0(!
1r
#45000
1!
1'!
1(!
0r
1x"
12!
00!
04!
03!
01!
15!
16!
#46000
0!
0'!
0(!
1r
#47000
1!
1'!
1(!
0r
1v"
0w"
0x"
19!
17!
05!
14!
13!
02!
10!
1P!
18!
06!
07!
15!
03!
11!
1Q!
01!
08!
#48000
0!
0'!
0(!
1r
#49000
1!
1'!
1(!
0r
1R!
0v"
1T!
09!
05!
0P!
0Q!
11!
#50000
0!
0'!
0(!
1r
#51000
1!
1'!
1(!
0r
1["
0R!
1x"
0-"
1+"
0)"
1V!
0U!
0T!
12!
00!
1m
1W!
13!
01!
#52000
0!
0'!
0(!
1r
#53000
1!
1'!
1(!
0r
0%#
1'#
0(#
1w"
0x"
04!
03!
02!
10!
0_
1a
0b
15!
14!
13!
11!
16!
05!
06!
#54000
0!
0'!
0(!
1r
#55000
1!
1'!
1(!
0r
1x"
12!
00!
04!
03!
01!
15!
16!
#56000
0!
0'!
0(!
1r
#57000
1!
1'!
1(!
0r
1v"
0w"
0x"
19!
17!
05!
14!
13!
02!
10!
1P!
18!
06!
07!
15!
03!
11!
1Q!
01!
08!
#58000
0!
0'!
0(!
1r
#59000
1!
1'!
1(!
0r
1R!
0v"
1T!
09!
05!
0P!
0Q!
11!
#60000
0!
0'!
0(!
1r
#61000
1!
1'!
1(!
0r
1Z"
0["
0R!
1x"
0."
1U!
0T!
12!
00!
1l
0m
13!
01!
#62000
0!
0'!
0(!
1r
#63000
1!
1'!
1(!
0r
0$#
1w"
0x"
04!
03!
02!
10!
0^
15!
14!
13!
11!
16!
05!
06!
#64000
0!
0'!
0(!
1r
#65000
1!
1'!
1(!
0r
1x"
12!
00!
04!
03!
01!
15!
16!
#66000
0!
0'!
0(!
1r
#67000
1!
1'!
1(!
0r
1v"
0w"
0x"
19!
17!
05!
14!
13!
02!
10!
1P!
18!
06!
07!
15!
03!
11!
1Q!
01!
08!
#68000
0!
0'!
0(!
1r
#69000
1!
1'!
1(!
0r
1R!
0v"
1T!
09!
05!
0P!
0Q!
11!
#70000
0!
0'!
0(!
1r
#71000
1!
1'!
1(!
0r
1["
0R!
1x"
10"
1/"
1."
1-"
0+"
0X!
0V!
0U!
1$!
0T!
12!
00!
1m
0Y!
0W!
1S!
13!
01!
#72000
0!
0'!
0(!
1r
#73000
1!
1'!
1(!
0r
1"#
1##
1$#
1%#
0'#
1w"
0x"
04!
03!
02!
10!
1\
1]
1^
1_
0a
15!
14!
13!
11!
16!
05!
06!
#74000
0!
0'!
0(!
1r
#75000
1!
1'!
1(!
0r
1x"
12!
00!
04!
03!
01!
15!
16!
#76000
0!
0'!
0(!
1r
#77000
1!
1'!
1(!
0r
1v"
0w"
0x"
19!
17!
05!
14!
13!
02!
10!
1P!
18!
06!
07!
15!
03!
11!
1Q!
01!
08!
#78000
0!
0'!
0(!
1r
#79000
1!
1'!
1(!
0r
1R!
0v"
1T!
09!
05!
0P!
0Q!
11!
#80000
0!
0'!
0(!
1r
#81000
1!
1'!
1(!
0r
0Y"
0Z"
0["
1X"
0R!
1x"
00"
0/"
0."
0-"
1U!
0T!
12!
00!
0k
0l
0m
1j
13!
01!
#82000
0!
0'!
0(!
1r
#83000
1!
1'!
1(!
0r
0"#
0##
0$#
0%#
1w"
0x"
04!
03!
02!
10!
0\
0]
0^
0_
15!
14!
13!
11!
16!
05!
06!
#84000
0!
0'!
0(!
1r
#85000
1!
1'!
1(!
0r
1x"
12!
00!
04!
03!
01!
15!
16!
#86000
0!
0'!
0(!
1r
#87000
1!
1'!
1(!
0r
1v"
0w"
0x"
19!
17!
05!
14!
13!
02!
10!
1P!
18!
06!
07!
15!
03!
11!
1Q!
01!
08!
#88000
0!
0'!
0(!
1r
